time = 0.0
x y u
1.0 0.0 0.34569116579548664
0.0 1.0 -0.5093874849742352
-1.0 0.0 0.6875871430027338
0.0 -1.0 -0.0666260387144666
0.9951847266502585 0.09801714055230534 -0.2878513483703462
0.980785280303826 0.1950903225158687 0.546683431031096
0.9569403355024331 0.2902846780119318 -0.383816972388241
0.9238795320817892 0.3826834334019886 -0.19678336408933372
0.8819212636904032 0.4713967380569389 -0.4159466069114739
0.8314696113679687 0.5555702344182949 -0.910049929658642
0.7730104520841969 0.6343932857215511 0.7233145491818824
0.7071067795733449 0.7071067827997501 -0.3012752000540089
0.634393282646958 0.7730104546074502 0.7120396513666201
0.5555702316245595 0.8314696132346829 -0.1245798575093433
0.471396735522105 0.8819212650453002 -0.9820218620891423
0.3826834312318057 0.9238795329807084 -0.638821218135285
0.2902846763682919 0.9569403360010258 0.9986262610891363
0.1950903214145686 0.980785280522888 0.14782634910436832
0.0980171400302339 0.995184726701678 0.38627784466750814
-0.09801714055230534 0.9951847266502585 0.4858530798433467
-0.1950903225158687 0.980785280303826 0.5312738488287962
-0.2902846780119318 0.9569403355024331 0.5134212128352398
-0.3826834334019886 0.9238795320817892 0.69982980741251
-0.4713967380569389 0.8819212636904032 0.8108196742935814
-0.5555702344182949 0.8314696113679687 -0.5559751877153984
-0.6343932857215511 0.7730104520841969 0.14315477379547126
-0.7071067827997501 0.7071067795733449 -0.3791801656512259
-0.7730104546074502 0.634393282646958 -0.3020608581635522
-0.8314696132346829 0.5555702316245595 0.9020536027776522
-0.8819212650453002 0.471396735522105 -0.33780026850808254
-0.9238795329807084 0.3826834312318057 -0.6200948446515437
-0.9569403360010258 0.2902846763682919 0.38794874771731935
-0.980785280522888 0.1950903214145686 0.8803886748457952
-0.995184726701678 0.0980171400302339 -0.6697896001125643
-0.9951847266502585 -0.09801714055230534 0.3577854271128902
-0.980785280303826 -0.1950903225158687 0.6909950297456962
-0.9569403355024331 -0.2902846780119318 0.5215782080106361
-0.9238795320817892 -0.3826834334019886 0.07544784551671313
-0.8819212636904032 -0.4713967380569389 -0.8594838373286819
-0.8314696113679687 -0.5555702344182949 0.5236818467709572
-0.7730104520841969 -0.6343932857215511 -0.5277866881501874
-0.7071067795733449 -0.7071067827997501 -0.3416636165367035
-0.634393282646958 -0.7730104546074502 0.5995403532082446
-0.5555702316245595 -0.8314696132346829 0.5128342820720255
-0.471396735522105 -0.8819212650453002 0.8093333659090165
-0.3826834312318057 -0.9238795329807084 -0.12569497000977048
-0.2902846763682919 -0.9569403360010258 -0.8813607775661891
-0.1950903214145686 -0.980785280522888 -0.7674154742512931
-0.0980171400302339 -0.995184726701678 0.43715308150563237
0.09801714055230534 -0.9951847266502585 -0.060650273196143356
0.1950903225158687 -0.980785280303826 -0.6630874224632182
0.2902846780119318 -0.9569403355024331 0.7506144105776822
0.3826834334019886 -0.9238795320817892 0.4677291987646748
0.4713967380569389 -0.8819212636904032 0.35312362831320154
0.5555702344182949 -0.8314696113679687 -0.620493814920104
0.6343932857215511 -0.7730104520841969 -0.11940142585120705
0.7071067827997501 -0.7071067795733449 0.7076318059329201
0.7730104546074502 -0.634393282646958 0.10354700983893084
0.8314696132346829 -0.5555702316245595 -0.7879508382688534
0.8819212650453002 -0.471396735522105 -0.8654305661653088
0.9238795329807084 -0.3826834312318057 0.5829177796019014
0.9569403360010258 -0.2902846763682919 0.5820116240982247
0.980785280522888 -0.1950903214145686 -0.8147559236231601
0.995184726701678 -0.0980171400302339 0.7151601154254354
0.06552618461083977 0.9057377714856804 0.2816379539605003
0.0009658478707639528 0.8082839589324874 0.10698486796892936
-0.03563479443557092 0.9112699032402481 -0.3030118793936931
0.1705501613218224 0.3885435209979023 0.7603778489208293
0.07749848355575648 0.3839529713357623 -0.46108976669777846
0.1354683803138475 0.4802646235647384 -0.6176643812574554
0.8091534979619077 -0.3498338276956917 0.552710507123737
0.8761488976398296 -0.2920528184820896 -0.5690643825787443
0.3928520302405717 0.739421913369157 -0.10165081988388858
0.390862111607076 0.826784721731137 0.36508140329297145
0.4706392323831502 0.7995821775339277 -0.13175448566883752
-0.1671534257012969 -0.861031256595044 0.15387150558392237
-0.1472004487571584 -0.9293006283903719 -0.9863498235573589
-0.2291546067366331 -0.9057590479853773 0.7268464043277154
0.04443964555371138 -0.8297432355039205 -0.4714032648671487
-0.08647848633032065 -0.7919720560210205 -0.5019203393332332
0.002949429735350617 -0.7224034569650436 0.6447295236772335
-0.9159439419782547 -0.1363627745619546 0.206499773264901
-0.9120453529033316 -0.03785489360559663 0.6862671390281081
-0.8276510465252657 -0.09986756375347056 0.35588048288103424
0.915014437206204 0.2334960575511707 -0.42110130141033686
0.9197156963303307 0.1593782649750047 0.1798449318028661
0.8354556074390631 0.1990069420324746 0.24359412696509164
0.8800406571083854 0.0979835585748042 0.08463121073747715
0.8835420305079577 -0.1949559811788893 0.335823500559596
-0.6027187895153931 0.397423524644637 -0.070207015710114
-0.5286165585531164 0.43293243761198 -0.9383406773966181
-0.5192434336913361 0.346360696234612 -0.7616841362851687
0.7487708503765604 -0.5608010075175269 -0.30456042120353466
0.7026085732077084 -0.6186002110760725 0.6165615035502108
0.6625910815249183 -0.5329060386604836 -0.12195060809253278
-0.6722398760263044 0.08724301746076168 0.5550474730105077
-0.6379360263534364 -0.01620182412990168 0.9493578977034134
-0.7416530156479154 -0.004529378279480689 0.44206465151424634
0.1939957927869305 -0.3322420674664666 -0.14585198795174392
0.09978748736422188 -0.2793614465380631 -0.0818196082706768
0.1835895554435892 -0.2390327161071967 0.8306495423577895
0.1429368352963134 0.6471462450966345 -0.4606326760210928
0.1786620957539817 0.7564304321587789 0.15471644954262276
0.2469884988852143 0.6484307295709116 -0.18461645785793435
-0.02113036057523304 0.386766388722246 -0.05840124621280518
-0.09216904982197138 0.3125073730015363 0.8399161595890225
-0.1279036861172251 0.4100171364045232 0.044756520913599385
-0.5058683233328958 -0.6614244495156111 0.0836964470257251
-0.4272922966573793 -0.7554237730069829 0.43269249129229337
-0.5358317214702379 -0.76373689139192 -0.4270424161220694
0.04244083864825746 0.4579316643061421 0.7439878337830566
0.3670445767536096 -0.8120994659282762 0.17154498268300067
0.1204274262853011 -0.1713938269462733 -0.8855553236199936
-0.2272538206354917 0.1497893649503071 -0.09326789730836316
-0.1784366239384174 0.2417307549888433 0.5802502347680645
-0.1347051056309508 0.1406821838288882 -0.5370196901501223
-0.0647848971661478 0.2203616240784709 0.8374149745867436
-0.1768463905696754 0.3240651375192173 0.050755382082503075
-0.2615692721715053 0.2941702236424231 0.39097239223996016
0.04938431708249591 -0.9203201733482986 0.12087315609969007
0.1288179709347257 -0.9047809654379212 -0.7837105493318122
0.3250756557072815 0.6737002540830214 0.06915964141480302
0.296166569528528 0.7642124575644593 0.22563445912568003
0.476598721648909 0.7003067623379137 0.8981551550747242
0.4018364173601097 0.659419599663026 -0.45386317573526647
0.2061171887432966 -0.4245189941420744 -0.6322851203255371
0.1169179858110916 -0.3837103798320143 -0.934469018585018
0.6798586560627238 0.1289428788813137 -0.88894131823931
0.715627768804681 0.05067023207237525 0.9198258093024507
0.63686945551448 0.07050857920826473 -0.009645045415595632
-0.2814035458951537 0.07583894900119312 -0.986967517049286
-0.366348314202278 0.04813560997364319 -0.8488906402319549
-0.3197618236042906 0.142155110429131 -0.3769747613964345
0.1643347326838814 -0.5903484285438858 -0.9881246601963269
0.0409293046564275 -0.549018253913978 -0.9623641886078134
0.1284908304794872 -0.4815299934442652 -0.7449787660752425
-0.5856132037594565 0.4854424697004757 -0.8420687012080088
0.286668511775877 -0.4734388327234783 0.5811780093388172
0.359800291436233 -0.4146288197003217 0.296320215664613
0.3521158413854494 -0.5323502512238755 0.42712695031504033
0.8505805575676916 0.301166891393902 -0.5897783609259983
-0.279136511503117 -0.8540047582596174 -0.18875603766358218
-0.3138815085924474 0.8622059066284703 0.6735728147347211
-0.2043736994345109 0.8787968496588404 -0.3978096325811795
0.6436616138062179 -0.01465383803431389 -0.3538051357225682
0.2820749820735164 -0.3657163619792454 -0.33406413579188277
-0.4783254394140464 0.03246326158889518 -0.8778986873161045
-0.5562071565774052 -0.02963006144471264 -0.014108612718842561
-0.5664600910643643 0.06488622447883119 0.24842322037823772
0.7683975178740414 -0.459481241043399 -0.41561761253405205
-0.2920794194626712 0.6118297384769588 0.3153808436629748
-0.2441330685639188 0.6813910727811355 -0.8702917249577031
-0.196491586669421 0.5941895047095593 -0.22467200914895802
0.7433172291178475 0.2614118405268149 0.6749392941756982
-0.3210094752376231 0.710241156221157 0.11271666105541156
0.2566775166545855 0.548607363025743 0.9071222214485526
0.3087647302273256 0.4858998329830544 0.38234399107684425
0.2183661421438245 0.4746743328975875 -0.01741897829843264
0.3453399444532113 0.5867161370453997 0.03497849003404818
-0.7788627225386456 -0.2679743983720378 0.963742060394496
-0.7089370061921371 -0.205375951280949 -0.8118005689237946
-0.6697665736730039 -0.2770356327182575 0.5048846384335923
-0.7780091753865046 -0.1823397547039828 -0.44953557844463443
-0.6224657261944777 0.1632808603598934 -0.4792602016564058
0.5622378151000949 -0.7170521061035289 0.8275468334654703
0.5265608348434567 -0.6401037984399638 -0.6244502418310871
0.620615310602017 -0.6486996535386712 0.49010484683115996
0.7355318414479601 0.1840224820627052 0.398994882148092
0.7775331963315839 0.1154169856331409 0.22906480421683817
-0.2129357192693959 -0.4413070510277897 -0.8149199439314119
-0.2489931929642787 -0.5549273074710962 -0.42575694020531785
-0.312533859271204 -0.4527679935972281 -0.27107919834389094
-0.3615844232202023 -0.5485201949764886 0.5190496762831334
-0.5517362628213353 -0.2729551631775157 0.19176549971913692
-0.6114871246557462 -0.3620669219578091 -0.9488328700416453
-0.6220347962285386 -0.1940244883700643 0.4362595649117069
-0.6345249005940541 0.3189159017294787 -0.49543658069224694
-0.6914890579977562 0.3748788961044526 0.10392140450011089
0.2022358889339659 0.3050660028681875 0.704422870385149
0.1112119693567997 0.3035928904235892 0.6254601898389929
-0.03585667197034575 -0.3688563956658111 0.13762758971843692
0.04038816816962035 -0.4366786255168088 -0.4452242613461972
-0.04880520572763306 -0.4824491119374575 -0.11234431428531222
-0.6894730733661563 0.4592039975804648 0.7879075568521414
-0.338909781545636 0.7892575649401611 -0.10582127506762928
-0.2532654619863424 0.7822033497415635 0.3913875147944732
-0.2037882521593002 0.05546330543571018 -0.7993560324759006
-0.116066611156336 0.02489157364256656 -0.8362471683738866
0.6744806508033333 0.6137243299472777 -0.5035803055040828
0.6228172843569528 -0.1179261005198635 0.3180681509651788
0.70513855214613 -0.2012185609471375 0.5991733789848515
0.585921774892991 -0.2084560804842102 -0.2130778617123732
0.7231500830979037 -0.1009276374875625 0.5707442103162448
-0.6658377994614632 -0.6038143516609621 0.0688697935842506
-0.7389253622143996 -0.546779616314341 -0.686060204090496
-0.09789627814148451 0.8427783611252733 -0.04059104008880654
-0.310979150947987 -0.7314466746423058 -0.3541493124093793
-0.3681978543193525 -0.8317889438334826 0.915272363958926
-0.03391471221140277 -0.01120435923700244 -0.12685764790739507
-0.0266517965284471 0.1142257534874064 0.08582882771954248
0.05549313875200451 0.01751060241077973 0.051262216069081656
0.3620474907633556 0.4202912774135686 0.23416489287972597
0.4037979588383345 0.4963920799125295 0.12280931421574381
-0.1952439825165135 -0.7566474364694233 0.11696450826993132
-0.01256114508671016 -0.6350036100483983 0.39624501694944003
0.07771017017051518 -0.656929145514262 0.8247268524677547
-0.1987366738200758 -0.05018621970029311 -0.14244367919011358
-0.2647318783371554 -0.114912292192734 -0.07688175138794362
-0.2895010103847957 -0.01645547938647296 0.2555701307891569
0.4463150248515293 0.4141240051318559 -0.25246876957550546
0.3867805023614788 0.3385533994412352 -0.0323768693481532
0.2417592681082477 -0.6538995340418114 0.9785629095841828
0.331257011053095 -0.632732638913428 -0.4722711335330585
0.2933499197440139 -0.7225242714627041 -0.6268887842597182
0.224331561434992 0.2126988426830647 0.9118918365040343
0.2989471342734291 0.1652793249805335 -0.9396417773827133
0.2011371287302558 0.1230960168082434 -0.5109427028898343
0.8013847844951338 -0.2485259787577682 -0.4228016064028699
0.2232456944870947 -0.8894127454185503 0.2580347315833085
0.08663100633606907 0.1253697013392126 0.22418796928739582
0.008117817422639673 -0.2794593228567087 0.0072247031117291804
0.04012798838015247 -0.3476272588853522 -0.08902007257834477
0.2641367895229864 -0.5667730723560438 -0.6720719575476228
-0.4588998448996793 -0.5605683891712653 -0.11584067341609927
-0.5701392809633988 -0.5642659889484243 -0.9579622491261857
-0.5039127256402228 -0.4835946032572784 0.3688295101183483
-0.1191389642944812 0.9199388608690819 0.4210433595190026
0.2970399725063696 0.07598296798710844 -0.7144982972716147
-0.5873414969937371 -0.4552479491375019 -0.7149730108542296
0.9242803418738583 -0.01284434826552765 0.9171993176455269
0.8325711383441149 -0.08158974552266687 -0.7148063328357983
0.8147761991228389 0.02499175794114716 -0.3108667701433485
0.2139253757266162 -0.5097598867177424 0.24038086604243425
-0.3823235261949641 0.4589880247598556 -0.42869723692951966
-0.4798109155286939 0.5097441542903186 -0.5462619203710175
-0.381913903087361 0.5688152383559658 0.13569963808168906
-0.0580898963481996 -0.9051851782026351 0.4472937195193687
-0.3820281631525191 0.6538284847440747 -0.23894744475920904
0.4689296752397605 -0.02571593342603251 0.6310281472459587
0.3916503800723303 0.03913044717894007 0.39070312328034884
0.4671537041488674 0.09376633968292775 -0.18739469435728395
0.1665232354265069 -0.8146466880450508 -0.8837844964161028
0.2618636879608754 -0.803767724825043 -0.03298002933495647
0.4385462179371955 -0.6041889291317699 0.8177866518203523
-0.1173360956307009 -0.4216355429489245 -0.5021579769108779
-0.188360302669568 -0.3469163314361465 0.6216903946972376
0.09262378919862235 0.5538255595377679 0.6939083107619703
0.0452805962647089 0.6395030863863198 0.016757077789083308
-0.7936102988539986 0.4678007663373938 -0.6162846051285147
-0.7425100481954706 0.5408109932279823 -0.4115488403558696
-0.09770338221154579 -0.09564113370349642 0.952017204410728
-0.2026925178915109 -0.1685476568512181 -0.7452661893735968
-0.01195940577982263 0.5492932000894826 0.672578794513325
-0.1190135538830252 -0.1772496808354178 -0.09291706101058184
0.3802439413756266 -0.04954583489583783 0.4182961887806389
0.07781429555712707 0.7296124130553091 0.3773465203455828
0.08501306266950273 0.8109785344599054 0.33817359605584585
0.5568208988658705 0.03189631797025497 0.502078185795245
0.2763625560698862 0.3826366302165901 -0.7632641148646804
0.5601097232326512 -0.3808807206087595 0.6362998455449222
0.6559974409353941 -0.4183733404799816 -0.11380433754415797
0.5921836573415171 -0.4694471840570334 -0.40879541707961353
0.5615349739983928 -0.05644038670006593 -0.5293920002524266
-0.3119294914167758 -0.1912174091939676 0.559195289131436
0.4689239311292943 0.5893854328343808 0.2986447043468501
0.5819599671628881 0.5521043022510824 0.1835931271696798
0.5134097375150447 0.4852482444948379 0.0523506158805227
-0.1664792685489162 0.7047300813605678 -0.2582373551654604
-0.06763090645071834 0.6306151611390705 0.2806691643683328
-0.08026352321975569 0.7415709203153481 0.653617324151015
0.187233236803408 -0.7131503738558225 0.9317517576632026
-0.508510920906333 -0.1818289276273835 -0.5332056613825245
-0.4488939457615307 -0.273791180920646 -0.6461561811503898
-0.1410300503587644 -0.5145434494444127 -0.13018386669661242
0.600156171745962 0.4645502463834218 0.6299715963607966
0.5593131400927792 0.6406278587723341 -0.1916941466285369
0.6416400768038432 0.3076909020094418 -0.33173559151003795
0.5364920721669336 0.2534784401509746 0.6562714005863888
0.5542233712869042 0.3750878637765094 -0.2695075869404495
0.1415161935306813 0.2158345949958755 0.3069393509266143
0.5645242783534102 0.1381923672597281 0.10334646553121107
0.4572381981113797 0.1790528212959371 0.32293992130854443
0.3186555561350219 0.2671788423410694 0.22083713788251957
-0.4093671820041967 -0.4575440008942628 0.1471365718109472
-0.3680409168654968 -0.3529087522192967 -0.969150055242654
-0.2753359189409326 -0.3634337455514842 0.39924106764954503
-0.4923255236024885 -0.3787919880874088 0.49950482450349876
0.415159127634386 -0.1168879297816188 0.8318376203365667
0.0129187503490476 0.2993684252185955 0.7712296818162994
0.04355821733468118 0.2133218458794599 -0.756744910665883
0.3730232489260816 0.1266266504898 -0.7134073994222345
0.3070181476897249 -0.00567505583300873 -0.7862397859672958
0.3200936082092755 -0.1078480025792937 0.42457878996051424
-0.07385623725430543 -0.270865494496725 0.20824875059795422
-0.09989468421869513 -0.3414285816031429 0.79616054120235
-0.1584156434195034 -0.2706687882698198 0.6197975113021674
-0.03879567322815858 -0.1846494857047605 -0.814077698515637
0.04298500875927785 -0.2034034272834585 0.894243128834808
-0.394781055162964 -0.04302857322682907 -0.32917281950934374
-0.4925892772644598 -0.0749475277726192 0.9320082583454332
-0.7203506961768539 0.1876121702623792 0.7776974568513051
-0.7872072709848114 0.1058965396607134 0.6394445639585578
-0.8171616030701183 0.2151973729685485 -0.13529340465218098
-0.8975538570603205 0.149578502923131 0.7868647059583149
-0.9030416306228948 0.05498643021120733 -0.751886493079001
-0.5620492284826503 0.5600308789529036 -0.39765949153442115
-0.5863299591762176 -0.102324094409273 0.8346901143316958
-0.2923242899064724 0.5265757531412668 0.7393304251665245
-0.204112144067779 0.4757010817880112 0.780336376403302
-0.2939389641443112 0.4467733054366966 -0.02391590827521961
-0.2676399323802355 -0.2796523307312724 -0.8228477044820277
-0.2348073467028159 0.3845767324516001 0.13725225393197382
0.02580196901666043 -0.1021246566580548 -0.837097483328789
-0.3100864190975695 -0.6280594205712785 -0.4972239867376036
-0.2281451537672974 -0.6571113352581169 -0.0567526013599462
-0.1631653662680464 -0.5951246425745785 0.013447812830263306
0.7294253469838452 -0.2923759441457596 -0.5075409167990839
0.633325685225381 -0.30295843894355 -0.06146890674397909
0.7464318494669634 -0.02336767653886634 -0.3668602713030502
0.3054965550487183 -0.8802578011289769 0.2604979937510876
0.7875503910299595 -0.1629765723675086 0.7511420127451136
-0.4064823582994787 0.8360970186855673 -0.08272310703682217
0.2353099178785492 0.8339357551127689 0.08012401964286786
0.2393676920078047 0.910730434537484 -0.6825392278119375
0.3087767767857208 0.8669160359081352 0.002692878691054723
0.1420899835196635 -0.05943918212617191 0.31180107138782853
0.2287283869781068 -0.1550642537138068 0.029094379360061318
0.3918073616063875 -0.7070463178855422 -0.8792516615199868
-0.741786244971164 -0.3624510641040469 -0.04513241781879307
-0.8511649030481747 -0.3303311794453072 -0.8872990152575371
0.2213772587561627 0.01597329771105765 -0.01320119486633331
0.138728963341376 0.03802656064501567 0.5239629780584827
0.1575356085610541 0.8879571288422263 -0.45400443671680923
0.7659377073986109 0.4635264317162796 -0.5442025268178865
0.8311025273139803 0.3879201092521714 -0.4567673893987614
0.7468660346278303 0.3566212060971975 -0.6904684758737338
0.23937077255078 -0.05959546562211823 -0.25746957783352675
-0.1083337793235505 -0.6741891088127553 0.030901220944134167
0.6623734852697452 0.4076786065088101 0.1799774752605785
-0.1576066264542501 0.7923375889386521 -0.19640790026587718
-0.4310804505716495 -0.123972636830626 -0.33515912793645697
-0.4052568497514257 -0.1952325755828035 0.671499537603164
-0.05220797479364611 0.4712459538411159 -0.8159581049324798
-0.7654286248002649 -0.4708197741561551 0.028450572164787857
-0.8213856991238748 -0.4162971984650301 -0.2737219854432946
-0.4251722868472662 0.7353131822437382 -0.05993794425248966
-0.4834556081324004 0.6295398039220137 -0.3260219887341518
-0.5416314699609507 0.7181594832493227 0.7809664867273858
-0.3497816227294909 -0.1139976626853795 -0.6248765690051679
-0.004622005052357714 0.7059855610378076 -0.43683792508765684
0.8412689618288219 -0.4150113552061356 0.3122430353982102
0.7200550035233314 -0.3648053961403412 -0.9562299298604358
-0.8978662476927104 0.2271588110453477 -0.5811452089890055
-0.4306264422471949 0.320476357883927 0.6245453173976974
-0.4707092047442034 0.2364796677192675 -0.42079570490970974
-0.1101920042341248 0.522619818526382 -0.9730253479058839
-0.4154425867743424 0.1377461256776963 -0.5845381059244539
-0.5218006812996407 0.1460659070493914 -0.5865277124657613
0.3762554576852826 0.200237665584923 -0.5585771382724052
-0.3578785686837233 0.2344107613562909 0.2787672019001666
0.5149426368022372 -0.4476718258021321 0.7585071093674483
-0.66258793750326 0.2444916793060079 -0.46799186879571986
-0.753999479946215 0.3041341414648202 0.6786113732818491
-0.07382337045453655 -0.5717893336978158 0.06067151880062793
-0.5767522721921216 0.247125571518527 -0.9290829731558072
-0.3992735738074731 -0.6460455585340894 0.09356742838201537
0.6775626852941385 0.5053956794973431 -0.2813347644101669
0.5136475640471388 -0.2826734152870733 0.4613356059642668
-0.7003276820713049 -0.115618041953414 0.6306768663827191
-0.6670059234470989 -0.5127883162540492 -0.41255083097028766
0.5594982445090176 0.7404147218038296 -0.9604434719386181
0.6399033538621122 0.6911676608676662 0.0072158497945911115
0.7495487484050816 0.5544219769955778 0.28072236711454535
-0.6097840673676029 -0.677594859748696 0.8133875575475211
-0.6974913970729203 0.6126979086451937 -0.33886394823635024
0.1064686906491682 -0.7454307669749678 -0.7540416853253804
0.4662833514634992 -0.7742514513881842 -0.7946836406443687
-0.4960690074691771 0.794374542226228 -0.6197750227396348
0.3491458206094108 -0.3063344214034326 0.7491416981534194
0.3510059144246616 -0.193227237224427 0.14271538788045302
0.4240003245274387 -0.2694086393544463 -0.15526804871752597
-0.673023449618228 -0.4325572930920339 0.8147934925545868
0.646858632134606 0.2144276351757474 -0.5784001636593108
-0.8278980624258498 0.01041346689628245 0.7310577249822319
0.2602010565583059 -0.2574539814455603 0.052820708956569984
0.4246975079372474 0.2612034695494176 0.3795037146228939
-0.3674762094789088 -0.2626758718712677 0.8645053083207284
0.4673051176975558 -0.2003269056246602 0.143105054920857
0.5127537781821909 -0.1308466172132098 0.6101939684773154
0.4437150585680915 -0.4860818703910802 -0.6231742576844783
0.44910455400812 -0.3679614350485552 0.06127618878090679
0.4711597643809992 -0.6890020935105632 -0.35133060133206007
0.1823433589096873 0.558926319963495 -0.8845595517659617
0.4715093075741663 0.3280297774452376 0.5079241262079535
-0.2664068186063316 0.2128569361143945 -0.2431259779161441
-0.6108664173883225 0.6483769873585408 0.4111510417487798
-0.8703843568406053 -0.2158709837625005 -0.331096164713637
-0.4474007811436546 0.4040654859726693 0.14103502495067666
-0.3432269747448207 0.3553156901846451 -0.7632907083017475
-0.6485730166786337 0.5508530511699183 -0.48575316540195645
-0.8305681666999377 0.3878347280118777 0.3683365085503243
0.9198447158164628 -0.1144615849819647 0.9000360092160089
0.5454460548413511 -0.548203753098507 -0.7330821937347411
-0.8637539269266468 0.3022744594391265 0.6190664042840184
-0.7588339190583657 0.3947128744944104 0.31452702788716413
