time = 0.0905
x y u
1.0 0.0 0.49988927338241845
0.0 1.0 0.3578500717897573
-1.0 0.0 0.5938636029279356
0.0 -1.0 -0.47874366391521117
0.9951847266502585 0.09801714055230534 0.3538813257738481
0.980785280303826 0.1950903225158687 0.02736217847796469
0.9569403355024331 0.2902846780119318 -0.31374617195420074
0.9238795320817892 0.3826834334019886 -0.49796153055617964
0.8819212636904032 0.4713967380569389 -0.5471245100592057
0.8314696113679687 0.5555702344182949 -0.5367499227357936
0.7730104520841969 0.6343932857215511 -0.4965581136590794
0.7071067795733449 0.7071067827997501 -0.44104824508062374
0.634393282646958 0.7730104546074502 -0.38184352320079823
0.5555702316245595 0.8314696132346829 -0.3218684975634111
0.471396735522105 0.8819212650453002 -0.2500148401407447
0.3826834312318057 0.9238795329807084 -0.15683824736635388
0.2902846763682919 0.9569403360010258 -0.03332296240835438
0.1950903214145686 0.980785280522888 0.10631102402897952
0.0980171400302339 0.995184726701678 0.243968138442803
-0.09801714055230534 0.9951847266502585 0.435892151683951
-0.1950903225158687 0.980785280303826 0.47781265139053253
-0.2902846780119318 0.9569403355024331 0.48188705010990496
-0.3826834334019886 0.9238795320817892 0.4308891064040267
-0.4713967380569389 0.8819212636904032 0.2908772420537978
-0.5555702344182949 0.8314696113679687 0.04770451273524937
-0.6343932857215511 0.7730104520841969 -0.21321942119243678
-0.7071067827997501 0.7071067795733449 -0.36447602071927204
-0.7730104546074502 0.634393282646958 -0.37299069016018527
-0.8314696132346829 0.5555702316245595 -0.21155380332723656
-0.8819212650453002 0.471396735522105 0.09503658544345414
-0.9238795329807084 0.3826834312318057 0.3799726688052923
-0.9569403360010258 0.2902846763682919 0.5258154214885842
-0.980785280522888 0.1950903214145686 0.5779959860487747
-0.995184726701678 0.0980171400302339 0.5957144398208857
-0.9951847266502585 -0.09801714055230534 0.5661183514991956
-0.980785280303826 -0.1950903225158687 0.4719179748990476
-0.9569403355024331 -0.2902846780119318 0.22163166509473203
-0.9238795320817892 -0.3826834334019886 -0.14111447505980548
-0.8819212636904032 -0.4713967380569389 -0.4006543133263382
-0.8314696113679687 -0.5555702344182949 -0.4819439125104335
-0.7730104520841969 -0.6343932857215511 -0.4181236207450049
-0.7071067795733449 -0.7071067827997501 -0.2097670041374701
-0.634393282646958 -0.7730104546074502 0.0945124366389239
-0.5555702316245595 -0.8314696132346829 0.3018543690832798
-0.471396735522105 -0.8819212650453002 0.3949846530896565
-0.3826834312318057 -0.9238795329807084 0.25745972343639056
-0.2902846763682919 -0.9569403360010258 0.005278502568303149
-0.1950903214145686 -0.980785280522888 -0.2473226566548238
-0.0980171400302339 -0.995184726701678 -0.40638684617619947
0.09801714055230534 -0.9951847266502585 -0.498894451251207
0.1950903225158687 -0.980785280303826 -0.4882887147969393
0.2902846780119318 -0.9569403355024331 -0.45990249913242415
0.3826834334019886 -0.9238795320817892 -0.4223067816376525
0.4713967380569389 -0.8819212636904032 -0.3731716885070462
0.5555702344182949 -0.8314696113679687 -0.31093164744001595
0.6343932857215511 -0.7730104520841969 -0.25940476368604515
0.7071067827997501 -0.7071067795733449 -0.2618974745207817
0.7730104546074502 -0.634393282646958 -0.31015996379747485
0.8314696132346829 -0.5555702316245595 -0.3395811012302802
0.8819212650453002 -0.471396735522105 -0.24373995029500867
0.9238795329807084 -0.3826834312318057 0.0018394428754559759
0.9569403360010258 -0.2902846763682919 0.3016941644082109
0.980785280522888 -0.1950903214145686 0.47782118907394067
0.995184726701678 -0.0980171400302339 0.5344335386583872
0.06552618461083977 0.9057377714856804 0.28202246513663676
0.0009658478707639528 0.8082839589324874 0.3430853002529599
-0.03563479443557092 0.9112699032402481 0.3850459289897516
0.1705501613218224 0.3885435209979023 0.4511659474535009
0.07749848355575648 0.3839529713357623 0.47385560044852726
0.1354683803138475 0.4802646235647384 0.4402311900257415
0.8091534979619077 -0.3498338276956917 0.03918781297579332
0.8761488976398296 -0.2920528184820896 0.24196396325485497
0.3928520302405717 0.739421913369157 -0.07365815033235595
0.390862111607076 0.826784721731137 -0.15921254358193507
0.4706392323831502 0.7995821775339277 -0.2444556121411227
-0.1671534257012969 -0.861031256595044 -0.2877346473823305
-0.1472004487571584 -0.9293006283903719 -0.32436469187101835
-0.2291546067366331 -0.9057590479853773 -0.13595585869156512
0.04443964555371138 -0.8297432355039205 -0.4908498298286932
-0.08647848633032065 -0.7919720560210205 -0.41952332766861955
0.002949429735350617 -0.7224034569650436 -0.48918068378503
-0.9159439419782547 -0.1363627745619546 0.5283173442284601
-0.9120453529033316 -0.03785489360559663 0.5845961196078904
-0.8276510465252657 -0.09986756375347056 0.5536680112225121
0.915014437206204 0.2334960575511707 -0.1571787232044516
0.9197156963303307 0.1593782649750047 0.12544478966608982
0.8354556074390631 0.1990069420324746 -0.04784815559479932
0.8800406571083854 0.0979835585748042 0.3150517113604279
0.8835420305079577 -0.1949559811788893 0.4539341530966745
-0.6027187895153931 0.397423524644637 -0.4217147788635012
-0.5286165585531164 0.43293243761198 -0.4975706353444821
-0.5192434336913361 0.346360696234612 -0.503971775838382
0.7487708503765604 -0.5608010075175269 -0.30925263440695167
0.7026085732077084 -0.6186002110760725 -0.28127711159002966
0.6625910815249183 -0.5329060386604836 -0.22438468772945813
-0.6722398760263044 0.08724301746076168 0.32244917465962614
-0.6379360263534364 -0.01620182412990168 0.34525020278645874
-0.7416530156479154 -0.004529378279480689 0.5313021940437923
0.1939957927869305 -0.3322420674664666 -0.27344980287671533
0.09978748736422188 -0.2793614465380631 -0.4092308098652672
0.1835895554435892 -0.2390327161071967 -0.1909023830029892
0.1429368352963134 0.6471462450966345 0.31817377982253015
0.1786620957539817 0.7564304321587789 0.19642614459403132
0.2469884988852143 0.6484307295709116 0.24505707744688554
-0.02113036057523304 0.386766388722246 0.4482767923908911
-0.09216904982197138 0.3125073730015363 0.299152530482521
-0.1279036861172251 0.4100171364045232 0.30964657183677596
-0.5058683233328958 -0.6614244495156111 -0.03492228818421629
-0.4272922966573793 -0.7554237730069829 0.2078730481881068
-0.5358317214702379 -0.76373689139192 0.23828385028266674
0.04244083864825746 0.4579316643061421 0.4580410944076394
0.3670445767536096 -0.8120994659282762 -0.41840382445212226
0.1204274262853011 -0.1713938269462733 -0.3072720303936399
-0.2272538206354917 0.1497893649503071 -0.386561726061351
-0.1784366239384174 0.2417307549888433 -0.07731771315241552
-0.1347051056309508 0.1406821838288882 -0.22814925588319476
-0.0647848971661478 0.2203616240784709 0.15666022389164336
-0.1768463905696754 0.3240651375192173 0.08670925269331262
-0.2615692721715053 0.2941702236424231 -0.2324697280206729
0.04938431708249591 -0.9203201733482986 -0.4911013125222931
0.1288179709347257 -0.9047809654379212 -0.4952230021506984
0.3250756557072815 0.6737002540830214 0.12461382530878146
0.296166569528528 0.7642124575644593 0.0406786577961349
0.476598721648909 0.7003067623379137 -0.16336738113529642
0.4018364173601097 0.659419599663026 0.03112607033979983
0.2061171887432966 -0.4245189941420744 -0.3678088033337989
0.1169179858110916 -0.3837103798320143 -0.4590132334285947
0.6798586560627238 0.1289428788813137 0.24360513718611715
0.715627768804681 0.05067023207237525 0.40074620291388674
0.63686945551448 0.07050857920826473 0.3765282476290587
-0.2814035458951537 0.07583894900119312 -0.5081622456315891
-0.366348314202278 0.04813560997364319 -0.5072443501240753
-0.3197618236042906 0.142155110429131 -0.4989882635036292
0.1643347326838814 -0.5903484285438858 -0.5050579675318162
0.0409293046564275 -0.549018253913978 -0.5333690702841423
0.1284908304794872 -0.4815299934442652 -0.5007128158546919
-0.5856132037594565 0.4854424697004757 -0.47305636231254017
0.286668511775877 -0.4734388327234783 -0.28111219381250274
0.359800291436233 -0.4146288197003217 0.0046173216800927
0.3521158413854494 -0.5323502512238755 -0.2742049212319353
0.8505805575676916 0.301166891393902 -0.3808392377837094
-0.279136511503117 -0.8540047582596174 0.004882514944366049
-0.3138815085924474 0.8622059066284703 0.43075777692373357
-0.2043736994345109 0.8787968496588404 0.45847540202350145
0.6436616138062179 -0.01465383803431389 0.47878433507891244
0.2820749820735164 -0.3657163619792454 -0.08049993083536798
-0.4783254394140464 0.03246326158889518 -0.30376692609389844
-0.5562071565774052 -0.02963006144471264 0.06553061362545569
-0.5664600910643643 0.06488622447883119 -0.0322668878139025
0.7683975178740414 -0.459481241043399 -0.2414426878066876
-0.2920794194626712 0.6118297384769588 0.01667383379662781
-0.2441330685639188 0.6813910727811355 0.2158730336782616
-0.196491586669421 0.5941895047095593 0.2008581237632736
0.7433172291178475 0.2614118405268149 -0.20623547364704184
-0.3210094752376231 0.710241156221157 0.16884555459465247
0.2566775166545855 0.548607363025743 0.34501833439985413
0.3087647302273256 0.4858998329830544 0.35806516665254773
0.2183661421438245 0.4746743328975875 0.4149076241742868
0.3453399444532113 0.5867161370453997 0.2294274546672216
-0.7788627225386456 -0.2679743983720378 0.17157527011362703
-0.7089370061921371 -0.205375951280949 0.3138170521439567
-0.6697665736730039 -0.2770356327182575 0.04764120705126819
-0.7780091753865046 -0.1823397547039828 0.4190405171869375
-0.6224657261944777 0.1632808603598934 -0.008104070156466468
0.5622378151000949 -0.7170521061035289 -0.27404841714553946
0.5265608348434567 -0.6401037984399638 -0.2577267228439064
0.620615310602017 -0.6486996535386712 -0.252366002094801
0.7355318414479601 0.1840224820627052 0.04766729873260414
0.7775331963315839 0.1154169856331409 0.25097190414301485
-0.2129357192693959 -0.4413070510277897 -0.5075569942727838
-0.2489931929642787 -0.5549273074710962 -0.4426724123303635
-0.312533859271204 -0.4527679935972281 -0.477226801718825
-0.3615844232202023 -0.5485201949764886 -0.3740220038962533
-0.5517362628213353 -0.2729551631775157 -0.1343043151442895
-0.6114871246557462 -0.3620669219578091 -0.2700082843461254
-0.6220347962285386 -0.1940244883700643 0.20889389794969493
-0.6345249005940541 0.3189159017294787 -0.2677499522302879
-0.6914890579977562 0.3748788961044526 -0.18055782160589443
0.2022358889339659 0.3050660028681875 0.401288396127801
0.1112119693567997 0.3035928904235892 0.43345406478872445
-0.03585667197034575 -0.3688563956658111 -0.5214248891065395
0.04038816816962035 -0.4366786255168088 -0.5252350582836299
-0.04880520572763306 -0.4824491119374575 -0.532045666898078
-0.6894730733661563 0.4592039975804648 -0.3191434410782838
-0.338909781545636 0.7892575649401611 0.31375925738158755
-0.2532654619863424 0.7822033497415635 0.36291555486373883
-0.2037882521593002 0.05546330543571018 -0.4758980014997358
-0.116066611156336 0.02489157364256656 -0.4276230461355148
0.6744806508033333 0.6137243299472777 -0.4326970842378113
0.6228172843569528 -0.1179261005198635 0.5120856745914897
0.70513855214613 -0.2012185609471375 0.4427220627147482
0.585921774892991 -0.2084560804842102 0.4815066756839329
0.7231500830979037 -0.1009276374875625 0.5030217643177332
-0.6658377994614632 -0.6038143516609621 -0.3402547260848804
-0.7389253622143996 -0.546779616314341 -0.4534924567362102
-0.09789627814148451 0.8427783611252733 0.4068489230554633
-0.310979150947987 -0.7314466746423058 -0.05700338896805052
-0.3681978543193525 -0.8317889438334826 0.21901879619242523
-0.03391471221140277 -0.01120435923700244 -0.39108862457883303
-0.0266517965284471 0.1142257534874064 -0.10512395966270689
0.05549313875200451 0.01751060241077973 -0.24605445741910528
0.3620474907633556 0.4202912774135686 0.33163888000664454
0.4037979588383345 0.4963920799125295 0.24303108204869767
-0.1952439825165135 -0.7566474364694233 -0.2847035587517424
-0.01256114508671016 -0.6350036100483983 -0.5083242085606893
0.07771017017051518 -0.656929145514262 -0.5142209634853134
-0.1987366738200758 -0.05018621970029311 -0.5188025918641991
-0.2647318783371554 -0.114912292192734 -0.5117599447228086
-0.2895010103847957 -0.01645547938647296 -0.5286967531351462
0.4463150248515293 0.4141240051318559 0.21657076094859865
0.3867805023614788 0.3385533994412352 0.3055496083209039
0.2417592681082477 -0.6538995340418114 -0.4728156367655652
0.331257011053095 -0.632732638913428 -0.4055045136928889
0.2933499197440139 -0.7225242714627041 -0.45372357794577833
0.224331561434992 0.2126988426830647 0.2804915875035018
0.2989471342734291 0.1652793249805335 0.2254623158300699
0.2011371287302558 0.1230960168082434 0.12286280706362923
0.8013847844951338 -0.2485259787577682 0.3370977782909468
0.2232456944870947 -0.8894127454185503 -0.4771056287494117
0.08663100633606907 0.1253697013392126 0.06100681336398397
0.008117817422639673 -0.2794593228567087 -0.4879151522813761
0.04012798838015247 -0.3476272588853522 -0.496789546195509
0.2641367895229864 -0.5667730723560438 -0.425798389713938
-0.4588998448996793 -0.5605683891712653 -0.308594985284324
-0.5701392809633988 -0.5642659889484243 -0.3280565900448809
-0.5039127256402228 -0.4835946032572784 -0.40141266601436315
-0.1191389642944812 0.9199388608690819 0.4411649989814132
0.2970399725063696 0.07598296798710844 0.16694789971721294
-0.5873414969937371 -0.4552479491375019 -0.40389498109287053
0.9242803418738583 -0.01284434826552765 0.5144400959554254
0.8325711383441149 -0.08158974552266687 0.5185607215742064
0.8147761991228389 0.02499175794114716 0.44686044476023795
0.2139253757266162 -0.5097598867177424 -0.4365746783650895
-0.3823235261949641 0.4589880247598556 -0.3809046553879664
-0.4798109155286939 0.5097441542903186 -0.46155982728471817
-0.381913903087361 0.5688152383559658 -0.2536625247227793
-0.0580898963481996 -0.9051851782026351 -0.4387950117447774
-0.3820281631525191 0.6538284847440747 -0.07017460236795135
0.4689296752397605 -0.02571593342603251 0.44207087496055003
0.3916503800723303 0.03913044717894007 0.3073485788654399
0.4671537041488674 0.09376633968292775 0.3315576194334904
0.1665232354265069 -0.8146466880450508 -0.49109173871878914
0.2618636879608754 -0.803767724825043 -0.4657849014794963
0.4385462179371955 -0.6041889291317699 -0.28257287338118153
-0.1173360956307009 -0.4216355429489245 -0.5236422268271734
-0.188360302669568 -0.3469163314361465 -0.5109399939751322
0.09262378919862235 0.5538255595377679 0.4041455185453355
0.0452805962647089 0.6395030863863198 0.3581955795519384
-0.7936102988539986 0.4678007663373938 -0.07934588472948978
-0.7425100481954706 0.5408109932279823 -0.31619023004516894
-0.09770338221154579 -0.09564113370349642 -0.49671788575944364
-0.2026925178915109 -0.1685476568512181 -0.5160311832753285
-0.01195940577982263 0.5492932000894826 0.39964867248465935
-0.1190135538830252 -0.1772496808354178 -0.5065292130903147
0.3802439413756266 -0.04954583489583783 0.3567846810251354
0.07781429555712707 0.7296124130553091 0.30248628820591
0.08501306266950273 0.8109785344599054 0.2709813428091436
0.5568208988658705 0.03189631797025497 0.42911432041972886
0.2763625560698862 0.3826366302165901 0.4018862867697573
0.5601097232326512 -0.3808807206087595 0.20119189034472443
0.6559974409353941 -0.4183733404799816 -0.01938290300235811
0.5921836573415171 -0.4694471840570334 -0.050310446948457814
0.5615349739983928 -0.05644038670006593 0.49540469734811576
-0.3119294914167758 -0.1912174091939676 -0.4777772868836928
0.4689239311292943 0.5893854328343808 0.007693295952626008
0.5819599671628881 0.5521043022510824 -0.23118757114221525
0.5134097375150447 0.4852482444948379 0.011837341747339285
-0.1664792685489162 0.7047300813605678 0.31346257298491714
-0.06763090645071834 0.6306151611390705 0.34972698923339657
-0.08026352321975569 0.7415709203153481 0.36020056639129255
0.187233236803408 -0.7131503738558225 -0.4938558316369808
-0.508510920906333 -0.1818289276273835 -0.0892996682548746
-0.4488939457615307 -0.273791180920646 -0.33207086241401457
-0.1410300503587644 -0.5145434494444127 -0.5095995250073405
0.600156171745962 0.4645502463834218 -0.21089895833806313
0.5593131400927792 0.6406278587723341 -0.25654596543057473
0.6416400768038432 0.3076909020094418 -0.14161196117262556
0.5364920721669336 0.2534784401509746 0.14687442373494178
0.5542233712869042 0.3750878637765094 -0.013838813710231657
0.1415161935306813 0.2158345949958755 0.3010600945768929
0.5645242783534102 0.1381923672597281 0.28771966984599057
0.4572381981113797 0.1790528212959371 0.26643322739770814
0.3186555561350219 0.2671788423410694 0.31519401962859134
-0.4093671820041967 -0.4575440008942628 -0.44237938935333243
-0.3680409168654968 -0.3529087522192967 -0.4622506654440821
-0.2753359189409326 -0.3634337455514842 -0.49554063236025236
-0.4923255236024885 -0.3787919880874088 -0.39052899290342236
0.415159127634386 -0.1168879297816188 0.44512422965223253
0.0129187503490476 0.2993684252185955 0.4151620307324161
0.04355821733468118 0.2133218458794599 0.27697584126482305
0.3730232489260816 0.1266266504898 0.25079114329995006
0.3070181476897249 -0.00567505583300873 0.19329724290325712
0.3200936082092755 -0.1078480025792937 0.2732461248502483
-0.07385623725430543 -0.270865494496725 -0.5065667966404864
-0.09989468421869513 -0.3414285816031429 -0.5172558902616319
-0.1584156434195034 -0.2706687882698198 -0.5102634562356797
-0.03879567322815858 -0.1846494857047605 -0.4869118156268019
0.04298500875927785 -0.2034034272834585 -0.4365621307242324
-0.394781055162964 -0.04302857322682907 -0.42955492987646837
-0.4925892772644598 -0.0749475277726192 -0.13391632206137366
-0.7203506961768539 0.1876121702623792 0.30231575291120194
-0.7872072709848114 0.1058965396607134 0.5297918740823959
-0.8171616030701183 0.2151973729685485 0.4792220399859711
-0.8975538570603205 0.149578502923131 0.5765977405053668
-0.9030416306228948 0.05498643021120733 0.5928308641380461
-0.5620492284826503 0.5600308789529036 -0.4403670641514678
-0.5863299591762176 -0.102324094409273 0.21597228339779825
-0.2923242899064724 0.5265757531412668 -0.09590775182625912
-0.204112144067779 0.4757010817880112 0.1280897661510807
-0.2939389641443112 0.4467733054366966 -0.16867712516875286
-0.2676399323802355 -0.2796523307312724 -0.49442923076749823
-0.2348073467028159 0.3845767324516001 -0.029850195529943124
0.02580196901666043 -0.1021246566580548 -0.4218838373079576
-0.3100864190975695 -0.6280594205712785 -0.28161348778314055
-0.2281451537672974 -0.6571113352581169 -0.3445813352763364
-0.1631653662680464 -0.5951246425745785 -0.46193963590466214
0.7294253469838452 -0.2923759441457596 0.247762829445791
0.633325685225381 -0.30295843894355 0.31095671846925
0.7464318494669634 -0.02336767653886634 0.4824186078773228
0.3054965550487183 -0.8802578011289769 -0.448831220438255
0.7875503910299595 -0.1629765723675086 0.4701297242029289
-0.4064823582994787 0.8360970186855673 0.3279070468218131
0.2353099178785492 0.8339357551127689 0.06753658872712683
0.2393676920078047 0.910730434537484 0.03381339570370967
0.3087767767857208 0.8669160359081352 -0.06283598497421605
0.1420899835196635 -0.05943918212617191 -0.2051438969949862
0.2287283869781068 -0.1550642537138068 0.0053459745649730335
0.3918073616063875 -0.7070463178855422 -0.38972255098801517
-0.741786244971164 -0.3624510641040469 -0.20695988928788517
-0.8511649030481747 -0.3303311794453072 -0.02197597231200571
0.2213772587561627 0.01597329771105765 0.018609130148791928
0.138728963341376 0.03802656064501567 -0.09082626159593762
0.1575356085610541 0.8879571288422263 0.15736994782459443
0.7659377073986109 0.4635264317162796 -0.5081244393598506
0.8311025273139803 0.3879201092521714 -0.497542688165716
0.7468660346278303 0.3566212060971975 -0.40643944069523075
0.23937077255078 -0.05959546562211823 0.04444357750264705
-0.1083337793235505 -0.6741891088127553 -0.4531325981554598
0.6623734852697452 0.4076786065088101 -0.3197355290496431
-0.1576066264542501 0.7923375889386521 0.39163300199155887
-0.4310804505716495 -0.123972636830626 -0.30451663342926477
-0.4052568497514257 -0.1952325755828035 -0.36445231930042077
-0.05220797479364611 0.4712459538411159 0.4098730588833144
-0.7654286248002649 -0.4708197741561551 -0.43996644827903675
-0.8213856991238748 -0.4162971984650301 -0.325689210045115
-0.4251722868472662 0.7353131822437382 0.07821375617028097
-0.4834556081324004 0.6295398039220137 -0.2909366893707924
-0.5416314699609507 0.7181594832493227 -0.15820615711119157
-0.3497816227294909 -0.1139976626853795 -0.45731442789770027
-0.004622005052357714 0.7059855610378076 0.3453229442280653
0.8412689618288219 -0.4150113552061356 -0.13923106119881554
0.7200550035233314 -0.3648053961403412 0.04721252703076466
-0.8978662476927104 0.2271588110453477 0.5409665320228657
-0.4306264422471949 0.320476357883927 -0.5011056908029351
-0.4707092047442034 0.2364796677192675 -0.4965437564049705
-0.1101920042341248 0.522619818526382 0.33171566097134425
-0.4154425867743424 0.1377461256776963 -0.504263937502841
-0.5218006812996407 0.1460659070493914 -0.3312989372337217
0.3762554576852826 0.200237665584923 0.2606001063676763
-0.3578785686837233 0.2344107613562909 -0.4862638927097298
0.5149426368022372 -0.4476718258021321 0.054915464627545
-0.66258793750326 0.2444916793060079 -0.021436270772698007
-0.753999479946215 0.3041341414648202 0.19059374778582544
-0.07382337045453655 -0.5717893336978158 -0.5126617877164497
-0.5767522721921216 0.247125571518527 -0.32580267353189396
-0.3992735738074731 -0.6460455585340894 -0.12618335573434492
0.6775626852941385 0.5053956794973431 -0.40470192967989405
0.5136475640471388 -0.2826734152870733 0.4252993499094319
-0.7003276820713049 -0.115618041953414 0.46615355194239316
-0.6670059234470989 -0.5127883162540492 -0.4279221080770246
0.5594982445090176 0.7404147218038296 -0.3218843160297053
0.6399033538621122 0.6911676608676662 -0.39859718626081064
0.7495487484050816 0.5544219769955778 -0.4984454583984842
-0.6097840673676029 -0.677594859748696 -0.09155681737815223
-0.6974913970729203 0.6126979086451937 -0.39402406506913557
0.1064686906491682 -0.7454307669749678 -0.5000441974018007
0.4662833514634992 -0.7742514513881842 -0.35128715830229457
-0.4960690074691771 0.794374542226228 0.10234509689508757
0.3491458206094108 -0.3063344214034326 0.22833803395851235
0.3510059144246616 -0.193227237224427 0.3564065244726287
0.4240003245274387 -0.2694086393544463 0.4017589255303592
-0.673023449618228 -0.4325572930920339 -0.38202766457066367
0.646858632134606 0.2144276351757474 0.05584801396866921
-0.8278980624258498 0.01041346689628245 0.5756204339396093
0.2602010565583059 -0.2574539814455603 0.03846800253874919
0.4246975079372474 0.2612034695494176 0.25892486143657806
-0.3674762094789088 -0.2626758718712677 -0.43188685478977296
0.4673051176975558 -0.2003269056246602 0.48857227101869527
0.5127537781821909 -0.1308466172132098 0.5104750620356082
0.4437150585680915 -0.4860818703910802 -0.060725353974177346
0.44910455400812 -0.3679614350485552 0.257323145183664
0.4711597643809992 -0.6890020935105632 -0.31986165277922657
0.1823433589096873 0.558926319963495 0.37481237912813153
0.4715093075741663 0.3280297774452376 0.1955255901565307
-0.2664068186063316 0.2128569361143945 -0.3609566247090076
-0.6108664173883225 0.6483769873585408 -0.36382317756067645
-0.8703843568406053 -0.2158709837625005 0.39028820688717675
-0.4474007811436546 0.4040654859726693 -0.4922999923112985
-0.3432269747448207 0.3553156901846451 -0.3779247414734764
-0.6485730166786337 0.5508530511699183 -0.42621404675708163
-0.8305681666999377 0.3878347280118777 0.2178618570696829
0.9198447158164628 -0.1144615849819647 0.5219105560964408
0.5454460548413511 -0.548203753098507 -0.1596501213216941
-0.8637539269266468 0.3022744594391265 0.44475637371425264
-0.7588339190583657 0.3947128744944104 -0.00569899231524255
