time = 0.2005
x y u
1.0 0.0 0.5879860945373293
0.0 1.0 0.6106812690197986
-1.0 0.0 0.6137924236723228
0.0 -1.0 -0.6153026889331691
0.9951847266502585 0.09801714055230534 0.5058144519708305
0.980785280303826 0.1950903225158687 0.24942990141074867
0.9569403355024331 0.2902846780119318 -0.1624271279132221
0.9238795320817892 0.3826834334019886 -0.4668387688522987
0.8819212636904032 0.4713967380569389 -0.5732570953102083
0.8314696113679687 0.5555702344182949 -0.598861886647873
0.7730104520841969 0.6343932857215511 -0.5999543010570412
0.7071067795733449 0.7071067827997501 -0.5931905264172672
0.634393282646958 0.7730104546074502 -0.5674872974212466
0.5555702316245595 0.8314696132346829 -0.48502835804066247
0.471396735522105 0.8819212650453002 -0.2623895720974662
0.3826834312318057 0.9238795329807084 0.10462643796529472
0.2902846763682919 0.9569403360010258 0.41031252013565933
0.1950903214145686 0.980785280522888 0.5480233944924228
0.0980171400302339 0.995184726701678 0.5967958321646953
-0.09801714055230534 0.9951847266502585 0.6142292561398527
-0.1950903225158687 0.980785280303826 0.6116904018591026
-0.2902846780119318 0.9569403355024331 0.593222536629163
-0.3826834334019886 0.9238795320817892 0.5148294440841014
-0.4713967380569389 0.8819212636904032 0.2639811802407897
-0.5555702344182949 0.8314696113679687 -0.15269962134655257
-0.6343932857215511 0.7730104520841969 -0.46229150549626913
-0.7071067827997501 0.7071067795733449 -0.5675725334971611
-0.7730104546074502 0.634393282646958 -0.5664947043465757
-0.8314696132346829 0.5555702316245595 -0.45269865214332167
-0.8819212650453002 0.471396735522105 -0.13764027056754982
-0.9238795329807084 0.3826834312318057 0.2756879354363162
-0.9569403360010258 0.2902846763682919 0.5167723150748111
-0.980785280522888 0.1950903214145686 0.5923837631802371
-0.995184726701678 0.0980171400302339 0.6125335059810249
-0.9951847266502585 -0.09801714055230534 0.6008497245176241
-0.980785280303826 -0.1950903225158687 0.5457264635740968
-0.9569403355024331 -0.2902846780119318 0.33571093924448114
-0.9238795320817892 -0.3826834334019886 -0.07517052755437838
-0.8819212636904032 -0.4713967380569389 -0.4254981971040954
-0.8314696113679687 -0.5555702344182949 -0.5653916882137265
-0.7730104520841969 -0.6343932857215511 -0.5908886006484674
-0.7071067795733449 -0.7071067827997501 -0.5780252627037016
-0.634393282646958 -0.7730104546074502 -0.5390791964890697
-0.5555702316245595 -0.8314696132346829 -0.49457140446627557
-0.471396735522105 -0.8819212650453002 -0.4625118400269345
-0.3826834312318057 -0.9238795329807084 -0.49612855464209143
-0.2902846763682919 -0.9569403360010258 -0.5480526364178738
-0.1950903214145686 -0.980785280522888 -0.5872200909629787
-0.0980171400302339 -0.995184726701678 -0.6070993485252609
0.09801714055230534 -0.9951847266502585 -0.6180400601771959
0.1950903225158687 -0.980785280303826 -0.6187313475780356
0.2902846780119318 -0.9569403355024331 -0.6186072126679929
0.3826834334019886 -0.9238795320817892 -0.6180106186685498
0.4713967380569389 -0.8819212636904032 -0.6166705602543399
0.5555702344182949 -0.8314696113679687 -0.6143156527960133
0.6343932857215511 -0.7730104520841969 -0.608879756132118
0.7071067827997501 -0.7071067795733449 -0.5857841653112843
0.7730104546074502 -0.634393282646958 -0.5093811447965287
0.8314696132346829 -0.5555702316245595 -0.2861669711212005
0.8819212650453002 -0.471396735522105 0.10793880333167433
0.9238795329807084 -0.3826834312318057 0.42839643830594576
0.9569403360010258 -0.2902846763682919 0.5651662084731288
0.980785280522888 -0.1950903214145686 0.6035887917622689
0.995184726701678 -0.0980171400302339 0.6095134383818596
0.06552618461083977 0.9057377714856804 0.6011940063567573
0.0009658478707639528 0.8082839589324874 0.6102799823661088
-0.03563479443557092 0.9112699032402481 0.6121351080439199
0.1705501613218224 0.3885435209979023 0.6032074438652987
0.07749848355575648 0.3839529713357623 0.5875099713578513
0.1354683803138475 0.4802646235647384 0.6061409462859764
0.8091534979619077 -0.3498338276956917 0.4213768227547944
0.8761488976398296 -0.2920528184820896 0.5434080227053341
0.3928520302405717 0.739421913369157 0.00730141643388928
0.390862111607076 0.826784721731137 -0.014720192655587173
0.4706392323831502 0.7995821775339277 -0.32411010982804356
-0.1671534257012969 -0.861031256595044 -0.5934685016864076
-0.1472004487571584 -0.9293006283903719 -0.5973236587861892
-0.2291546067366331 -0.9057590479853773 -0.57115423520355
0.04443964555371138 -0.8297432355039205 -0.6175678887964813
-0.08647848633032065 -0.7919720560210205 -0.6101333836775266
0.002949429735350617 -0.7224034569650436 -0.6168248928651868
-0.9159439419782547 -0.1363627745619546 0.5712511975498263
-0.9120453529033316 -0.03785489360559663 0.6055002009614232
-0.8276510465252657 -0.09986756375347056 0.5601575163316371
0.915014437206204 0.2334960575511707 0.04789880818702553
0.9197156963303307 0.1593782649750047 0.34021086404762285
0.8354556074390631 0.1990069420324746 0.20454529261439017
0.8800406571083854 0.0979835585748042 0.49373720700407503
0.8835420305079577 -0.1949559811788893 0.6004123028304021
-0.6027187895153931 0.397423524644637 -0.5142000198473808
-0.5286165585531164 0.43293243761198 -0.5696390073705526
-0.5192434336913361 0.346360696234612 -0.5649573906786973
0.7487708503765604 -0.5608010075175269 -0.4028536467635444
0.7026085732077084 -0.6186002110760725 -0.529287594553197
0.6625910815249183 -0.5329060386604836 -0.3977094299585434
-0.6722398760263044 0.08724301746076168 0.22527514454167197
-0.6379360263534364 -0.01620182412990168 0.1294682577886934
-0.7416530156479154 -0.004529378279480689 0.4800777215001034
0.1939957927869305 -0.3322420674664666 -0.49726513561660984
0.09978748736422188 -0.2793614465380631 -0.5665978551125442
0.1835895554435892 -0.2390327161071967 -0.39494622376077926
0.1429368352963134 0.6471462450966345 0.594948242884513
0.1786620957539817 0.7564304321587789 0.5622974098807352
0.2469884988852143 0.6484307295709116 0.5233983325108917
-0.02113036057523304 0.386766388722246 0.5092325186206321
-0.09216904982197138 0.3125073730015363 0.18995888413098586
-0.1279036861172251 0.4100171364045232 0.31328042213201085
-0.5058683233328958 -0.6614244495156111 -0.5599024180760674
-0.4272922966573793 -0.7554237730069829 -0.5150366563952455
-0.5358317214702379 -0.76373689139192 -0.5111475297787912
0.04244083864825746 0.4579316643061421 0.593681151267243
0.3670445767536096 -0.8120994659282762 -0.6170930483946507
0.1204274262853011 -0.1713938269462733 -0.458480147535317
-0.2272538206354917 0.1497893649503071 -0.5357705655069518
-0.1784366239384174 0.2417307549888433 -0.310797270618093
-0.1347051056309508 0.1406821838288882 -0.4188731829031956
-0.0647848971661478 0.2203616240784709 0.001877362052766748
-0.1768463905696754 0.3240651375192173 -0.0914896321350682
-0.2615692721715053 0.2941702236424231 -0.41888342588945904
0.04938431708249591 -0.9203201733482986 -0.6171306644001185
0.1288179709347257 -0.9047809654379212 -0.6184160291094196
0.3250756557072815 0.6737002540830214 0.3365283441309046
0.296166569528528 0.7642124575644593 0.36401299238720225
0.476598721648909 0.7003067623379137 -0.29468917881724094
0.4018364173601097 0.659419599663026 0.06723397016057887
0.2061171887432966 -0.4245189941420744 -0.5587475628158507
0.1169179858110916 -0.3837103798320143 -0.5905432302514605
0.6798586560627238 0.1289428788813137 0.5020258178847192
0.715627768804681 0.05067023207237525 0.5730602883583689
0.63686945551448 0.07050857920826473 0.5756587466294986
-0.2814035458951537 0.07583894900119312 -0.593311652250991
-0.366348314202278 0.04813560997364319 -0.592629531377089
-0.3197618236042906 0.142155110429131 -0.5859677507654696
0.1643347326838814 -0.5903484285438858 -0.6131177237949796
0.0409293046564275 -0.549018253913978 -0.6169794109051743
0.1284908304794872 -0.4815299934442652 -0.6062077820999705
-0.5856132037594565 0.4854424697004757 -0.5710757314290539
0.286668511775877 -0.4734388327234783 -0.5349860365040677
0.359800291436233 -0.4146288197003217 -0.33587438800076097
0.3521158413854494 -0.5323502512238755 -0.5533571306059885
0.8505805575676916 0.301166891393902 -0.2604091628358524
-0.279136511503117 -0.8540047582596174 -0.5497111578710017
-0.3138815085924474 0.8622059066284703 0.5516201574808687
-0.2043736994345109 0.8787968496588404 0.6060464075873018
0.6436616138062179 -0.01465383803431389 0.6042958792378722
0.2820749820735164 -0.3657163619792454 -0.3818026389398329
-0.4783254394140464 0.03246326158889518 -0.48270233644212523
-0.5562071565774052 -0.02963006144471264 -0.24338675187992867
-0.5664600910643643 0.06488622447883119 -0.22707316865286056
0.7683975178740414 -0.459481241043399 -0.026711378747119503
-0.2920794194626712 0.6118297384769588 0.2060187888286582
-0.2441330685639188 0.6813910727811355 0.463833517230789
-0.196491586669421 0.5941895047095593 0.45349057747915633
0.7433172291178475 0.2614118405268149 0.01846824220132264
-0.3210094752376231 0.710241156221157 0.3482270216161711
0.2566775166545855 0.548607363025743 0.5540705385450309
0.3087647302273256 0.4858998329830544 0.5375294941633574
0.2183661421438245 0.4746743328975875 0.5933665369016943
0.3453399444532113 0.5867161370453997 0.38540425308257087
-0.7788627225386456 -0.2679743983720378 0.09450750088231587
-0.7089370061921371 -0.205375951280949 0.1006060369581188
-0.6697665736730039 -0.2770356327182575 -0.24834781163090286
-0.7780091753865046 -0.1823397547039828 0.3568218979507721
-0.6224657261944777 0.1632808603598934 -0.11038856142449185
0.5622378151000949 -0.7170521061035289 -0.604661878050253
0.5265608348434567 -0.6401037984399638 -0.5800590774975993
0.620615310602017 -0.6486996535386712 -0.5844660100388097
0.7355318414479601 0.1840224820627052 0.32988479828454836
0.7775331963315839 0.1154169856331409 0.4798462515652541
-0.2129357192693959 -0.4413070510277897 -0.6166615501130172
-0.2489931929642787 -0.5549273074710962 -0.6097367420312775
-0.312533859271204 -0.4527679935972281 -0.6135992260177137
-0.3615844232202023 -0.5485201949764886 -0.6021666345880364
-0.5517362628213353 -0.2729551631775157 -0.4997452434846632
-0.6114871246557462 -0.3620669219578091 -0.5241617321457402
-0.6220347962285386 -0.1940244883700643 -0.18426040352483908
-0.6345249005940541 0.3189159017294787 -0.36644210610899025
-0.6914890579977562 0.3748788961044526 -0.31976280311095245
0.2022358889339659 0.3050660028681875 0.5948810911220508
0.1112119693567997 0.3035928904235892 0.5651230159946424
-0.03585667197034575 -0.3688563956658111 -0.6154599192743655
0.04038816816962035 -0.4366786255168088 -0.6129120178809003
-0.04880520572763306 -0.4824491119374575 -0.6174081147172618
-0.6894730733661563 0.4592039975804648 -0.4792693500258583
-0.338909781545636 0.7892575649401611 0.44528040960475423
-0.2532654619863424 0.7822033497415635 0.5541188799627865
-0.2037882521593002 0.05546330543571018 -0.5811782790518146
-0.116066611156336 0.02489157364256656 -0.5521357040267233
0.6744806508033333 0.6137243299472777 -0.5807389718644698
0.6228172843569528 -0.1179261005198635 0.6070153614015688
0.70513855214613 -0.2012185609471375 0.5925180982213748
0.585921774892991 -0.2084560804842102 0.5750775313861279
0.7231500830979037 -0.1009276374875625 0.6084017519842424
-0.6658377994614632 -0.6038143516609621 -0.58830765289391
-0.7389253622143996 -0.546779616314341 -0.5808617372759335
-0.09789627814148451 0.8427783611252733 0.6112419819342699
-0.310979150947987 -0.7314466746423058 -0.5625391043967461
-0.3681978543193525 -0.8317889438334826 -0.5077254438132294
-0.03391471221140277 -0.01120435923700244 -0.5055886164073679
-0.0266517965284471 0.1142257534874064 -0.22703575073893617
0.05549313875200451 0.01751060241077973 -0.27229745240605374
0.3620474907633556 0.4202912774135686 0.5145651923564615
0.4037979588383345 0.4963920799125295 0.344639171865204
-0.1952439825165135 -0.7566474364694233 -0.5946306079302642
-0.01256114508671016 -0.6350036100483983 -0.6171527163661573
0.07771017017051518 -0.656929145514262 -0.6176195662878611
-0.1987366738200758 -0.05018621970029311 -0.6069895668398294
-0.2647318783371554 -0.114912292192734 -0.6123505666415647
-0.2895010103847957 -0.01645547938647296 -0.6078513316102538
0.4463150248515293 0.4141240051318559 0.3693537874778607
0.3867805023614788 0.3385533994412352 0.5496712056667963
0.2417592681082477 -0.6538995340418114 -0.613066808521085
0.331257011053095 -0.632732638913428 -0.6046839501347842
0.2933499197440139 -0.7225242714627041 -0.6155242917461435
0.224331561434992 0.2126988426830647 0.5614290571722226
0.2989471342734291 0.1652793249805335 0.5752003208181704
0.2011371287302558 0.1230960168082434 0.45199765290869626
0.8013847844951338 -0.2485259787577682 0.5680633339763459
0.2232456944870947 -0.8894127454185503 -0.6186481667043668
0.08663100633606907 0.1253697013392126 0.17653770719247522
0.008117817422639673 -0.2794593228567087 -0.6049911031539335
0.04012798838015247 -0.3476272588853522 -0.605754781763599
0.2641367895229864 -0.5667730723560438 -0.5979794394141246
-0.4588998448996793 -0.5605683891712653 -0.5939800408425308
-0.5701392809633988 -0.5642659889484243 -0.5931783317042256
-0.5039127256402228 -0.4835946032572784 -0.6013974724526367
-0.1191389642944812 0.9199388608690819 0.6132792188077131
0.2970399725063696 0.07598296798710844 0.5262388168248051
-0.5873414969937371 -0.4552479491375019 -0.5874107327574016
0.9242803418738583 -0.01284434826552765 0.5993611070321044
0.8325711383441149 -0.08158974552266687 0.6091483148113513
0.8147761991228389 0.02499175794114716 0.5782974700865728
0.2139253757266162 -0.5097598867177424 -0.5916260247237366
-0.3823235261949641 0.4589880247598556 -0.4454157991849863
-0.4798109155286939 0.5097441542903186 -0.5373299448534211
-0.381913903087361 0.5688152383559658 -0.2401223842660602
-0.0580898963481996 -0.9051851782026351 -0.6113370477248204
-0.3820281631525191 0.6538284847440747 -0.00671142603337548
0.4689296752397605 -0.02571593342603251 0.5963354980775406
0.3916503800723303 0.03913044717894007 0.5790381674679694
0.4671537041488674 0.09376633968292775 0.5972008190406008
0.1665232354265069 -0.8146466880450508 -0.6185072075434572
0.2618636879608754 -0.803767724825043 -0.6179268480123167
0.4385462179371955 -0.6041889291317699 -0.5807612313407435
-0.1173360956307009 -0.4216355429489245 -0.6176942940842864
-0.188360302669568 -0.3469163314361465 -0.6177323178669534
0.09262378919862235 0.5538255595377679 0.607790334075188
0.0452805962647089 0.6395030863863198 0.609066147558588
-0.7936102988539986 0.4678007663373938 -0.3104362055469591
-0.7425100481954706 0.5408109932279823 -0.5160829098434964
-0.09770338221154579 -0.09564113370349642 -0.6027445079760235
-0.2026925178915109 -0.1685476568512181 -0.6165765682001626
-0.01195940577982263 0.5492932000894826 0.5960128270150492
-0.1190135538830252 -0.1772496808354178 -0.6130324338458543
0.3802439413756266 -0.04954583489583783 0.5334645999877367
0.07781429555712707 0.7296124130553091 0.6035784410758144
0.08501306266950273 0.8109785344599054 0.5992913102393742
0.5568208988658705 0.03189631797025497 0.601659634053238
0.2763625560698862 0.3826366302165901 0.5908562015591583
0.5601097232326512 -0.3808807206087595 0.15990701100516921
0.6559974409353941 -0.4183733404799816 0.06923062972740893
0.5921836573415171 -0.4694471840570334 -0.20332337121663127
0.5615349739983928 -0.05644038670006593 0.6056446285647643
-0.3119294914167758 -0.1912174091939676 -0.6118192959087345
0.4689239311292943 0.5893854328343808 -0.08992273239195475
0.5819599671628881 0.5521043022510824 -0.40508045642539287
0.5134097375150447 0.4852482444948379 -0.02973431972719096
-0.1664792685489162 0.7047300813605678 0.5703449986691196
-0.06763090645071834 0.6306151611390705 0.6016098349142236
-0.08026352321975569 0.7415709203153481 0.6064963899615037
0.187233236803408 -0.7131503738558225 -0.6172938217843992
-0.508510920906333 -0.1818289276273835 -0.4877830448834158
-0.4488939457615307 -0.273791180920646 -0.5883174759152185
-0.1410300503587644 -0.5145434494444127 -0.6163421506156881
0.600156171745962 0.4645502463834218 -0.28628145726429316
0.5593131400927792 0.6406278587723341 -0.46156019811254956
0.6416400768038432 0.3076909020094418 0.06079960670660919
0.5364920721669336 0.2534784401509746 0.4632857468077946
0.5542233712869042 0.3750878637765094 0.1157428015340267
0.1415161935306813 0.2158345949958755 0.5042292622122454
0.5645242783534102 0.1381923672597281 0.5661341457673115
0.4572381981113797 0.1790528212959371 0.5830873169032827
0.3186555561350219 0.2671788423410694 0.5948129659513334
-0.4093671820041967 -0.4575440008942628 -0.6094625531662953
-0.3680409168654968 -0.3529087522192967 -0.6135251154034566
-0.2753359189409326 -0.3634337455514842 -0.6164243411465278
-0.4923255236024885 -0.3787919880874088 -0.5998769105205157
0.415159127634386 -0.1168879297816188 0.5341449647497949
0.0129187503490476 0.2993684252185955 0.4432049165867572
0.04355821733468118 0.2133218458794599 0.32013775024364316
0.3730232489260816 0.1266266504898 0.5878341969069864
0.3070181476897249 -0.00567505583300873 0.4673594445381136
0.3200936082092755 -0.1078480025792937 0.365857912811277
-0.07385623725430543 -0.270865494496725 -0.6145851201532604
-0.09989468421869513 -0.3414285816031429 -0.6170326256466724
-0.1584156434195034 -0.2706687882698198 -0.6174292654309705
-0.03879567322815858 -0.1846494857047605 -0.6048766387234725
0.04298500875927785 -0.2034034272834585 -0.5740136222981633
-0.394781055162964 -0.04302857322682907 -0.5814453277195297
-0.4925892772644598 -0.0749475277726192 -0.4511131136564756
-0.7203506961768539 0.1876121702623792 0.2551532166494389
-0.7872072709848114 0.1058965396607134 0.5259300706051662
-0.8171616030701183 0.2151973729685485 0.467683605435153
-0.8975538570603205 0.149578502923131 0.5901120419860905
-0.9030416306228948 0.05498643021120733 0.607933245328196
-0.5620492284826503 0.5600308789529036 -0.55694884544796
-0.5863299591762176 -0.102324094409273 -0.16863610557641845
-0.2923242899064724 0.5265757531412668 -0.016328599548517897
-0.204112144067779 0.4757010817880112 0.19830947202720947
-0.2939389641443112 0.4467733054366966 -0.2183415776266448
-0.2676399323802355 -0.2796523307312724 -0.6165479026048549
-0.2348073467028159 0.3845767324516001 -0.15541075730187737
0.02580196901666043 -0.1021246566580548 -0.5486168739199683
-0.3100864190975695 -0.6280594205712785 -0.5923255401495096
-0.2281451537672974 -0.6571113352581169 -0.6002936590000424
-0.1631653662680464 -0.5951246425745785 -0.6122325228062478
0.7294253469838452 -0.2923759441457596 0.5017602890809344
0.633325685225381 -0.30295843894355 0.4734821838570844
0.7464318494669634 -0.02336767653886634 0.5997366441329379
0.3054965550487183 -0.8802578011289769 -0.6182860798497799
0.7875503910299595 -0.1629765723675086 0.6024598325422955
-0.4064823582994787 0.8360970186855673 0.3729267734642168
0.2353099178785492 0.8339357551127689 0.48060525576453617
0.2393676920078047 0.910730434537484 0.4805616994724586
0.3087767767857208 0.8669160359081352 0.3075156776912721
0.1420899835196635 -0.05943918212617191 -0.19307155051839556
0.2287283869781068 -0.1550642537138068 -0.07381295202704329
0.3918073616063875 -0.7070463178855422 -0.6116222603268324
-0.741786244971164 -0.3624510641040469 -0.33943657686653
-0.8511649030481747 -0.3303311794453072 0.015354193045898105
0.2213772587561627 0.01597329771105765 0.2963945076283909
0.138728963341376 0.03802656064501567 0.07533422529623034
0.1575356085610541 0.8879571288422263 0.5653364565909569
0.7659377073986109 0.4635264317162796 -0.5592258431777977
0.8311025273139803 0.3879201092521714 -0.4850096157969054
0.7468660346278303 0.3566212060971975 -0.3528056081403902
0.23937077255078 -0.05959546562211823 0.19057787247755517
-0.1083337793235505 -0.6741891088127553 -0.6129139723664636
0.6623734852697452 0.4076786065088101 -0.32633713634646233
-0.1576066264542501 0.7923375889386521 0.5994374631539247
-0.4310804505716495 -0.123972636830626 -0.5568939092989452
-0.4052568497514257 -0.1952325755828035 -0.5904103538855963
-0.05220797479364611 0.4712459538411159 0.5402218590246621
-0.7654286248002649 -0.4708197741561551 -0.525817359724007
-0.8213856991238748 -0.4162971984650301 -0.3589982268057689
-0.4251722868472662 0.7353131822437382 0.07078641619690991
-0.4834556081324004 0.6295398039220137 -0.3952169991025299
-0.5416314699609507 0.7181594832493227 -0.3598106997126429
-0.3497816227294909 -0.1139976626853795 -0.6005817988984125
-0.004622005052357714 0.7059855610378076 0.6094353285626491
0.8412689618288219 -0.4150113552061356 0.24503746635450138
0.7200550035233314 -0.3648053961403412 0.319727842431618
-0.8978662476927104 0.2271588110453477 0.5432103612970336
-0.4306264422471949 0.320476357883927 -0.572252798019591
-0.4707092047442034 0.2364796677192675 -0.557543698335249
-0.1101920042341248 0.522619818526382 0.5160185711658635
-0.4154425867743424 0.1377461256776963 -0.5761657487110917
-0.5218006812996407 0.1460659070493914 -0.43723150211888695
0.3762554576852826 0.200237665584923 0.5890255424661073
-0.3578785686837233 0.2344107613562909 -0.5792386055948802
0.5149426368022372 -0.4476718258021321 -0.18882199101318473
-0.66258793750326 0.2444916793060079 -0.10595251195185838
-0.753999479946215 0.3041341414648202 0.09226038552506412
-0.07382337045453655 -0.5717893336978158 -0.6168153299513454
-0.5767522721921216 0.247125571518527 -0.4029123278115349
-0.3992735738074731 -0.6460455585340894 -0.5728415212344048
0.6775626852941385 0.5053956794973431 -0.5104029272072141
0.5136475640471388 -0.2826734152870733 0.43448388910721725
-0.7003276820713049 -0.115618041953414 0.2938121459058274
-0.6670059234470989 -0.5127883162540492 -0.5860693124174204
0.5594982445090176 0.7404147218038296 -0.5146489917410997
0.6399033538621122 0.6911676608676662 -0.5752057260498606
0.7495487484050816 0.5544219769955778 -0.5864963317168576
-0.6097840673676029 -0.677594859748696 -0.5658933837836811
-0.6974913970729203 0.6126979086451937 -0.5722209232285751
0.1064686906491682 -0.7454307669749678 -0.6181018091191589
0.4662833514634992 -0.7742514513881842 -0.6137171448500657
-0.4960690074691771 0.794374542226228 -0.024768810611216878
0.3491458206094108 -0.3063344214034326 -0.018964165257175664
0.3510059144246616 -0.193227237224427 0.30859333677628387
0.4240003245274387 -0.2694086393544463 0.3105737804317696
-0.673023449618228 -0.4325572930920339 -0.5400459812567502
0.646858632134606 0.2144276351757474 0.36359033905143373
-0.8278980624258498 0.01041346689628245 0.5777370359912235
0.2602010565583059 -0.2574539814455603 -0.1971487449960504
0.4246975079372474 0.2612034695494176 0.5625034197844646
-0.3674762094789088 -0.2626758718712677 -0.6074503804488967
0.4673051176975558 -0.2003269056246602 0.5167749711601338
0.5127537781821909 -0.1308466172132098 0.5866776384087692
0.4437150585680915 -0.4860818703910802 -0.402888149371378
0.44910455400812 -0.3679614350485552 0.03331446993557286
0.4711597643809992 -0.6890020935105632 -0.6029404683205916
0.1823433589096873 0.558926319963495 0.5934686637644511
0.4715093075741663 0.3280297774452376 0.4460940315776597
-0.2664068186063316 0.2128569361143945 -0.5175207965136522
-0.6108664173883225 0.6483769873585408 -0.5499385999883653
-0.8703843568406053 -0.2158709837625005 0.44468878212881197
-0.4474007811436546 0.4040654859726693 -0.5605552508294347
-0.3432269747448207 0.3553156901846451 -0.4984622849910518
-0.6485730166786337 0.5508530511699183 -0.5705324941659465
-0.8305681666999377 0.3878347280118777 0.05619433209353163
0.9198447158164628 -0.1144615849819647 0.6092939799713707
0.5454460548413511 -0.548203753098507 -0.4742712312036149
-0.8637539269266468 0.3022744594391265 0.3978903339050909
-0.7588339190583657 0.3947128744944104 -0.1828739701881891
