x y u
1.0 0.0 0.9966742114694817
0.0 1.0 0.001038889949889347
-1.0 0.0 -0.996757459878143
0.0 -1.0 -0.0011296976976394755
0.9951847266502585 0.09801714055230534 0.9967063572798255
0.980785280303826 0.1950903225158687 0.996194901244232
0.9569403355024331 0.2902846780119318 0.9955718759772209
0.9238795320817892 0.3826834334019886 0.9943751673985987
0.8819212636904032 0.4713967380569389 0.9924939982506068
0.8314696113679687 0.5555702344182949 0.9892184442604435
0.7730104520841969 0.6343932857215511 0.9839914564121424
0.7071067795733449 0.7071067827997501 0.9748817334616535
0.634393282646958 0.7730104546074502 0.9596749191114987
0.5555702316245595 0.8314696132346829 0.9340979435764858
0.471396735522105 0.8819212650453002 0.8913825927951068
0.3826834312318057 0.9238795329807084 0.8179108697299583
0.2902846763682919 0.9569403360010258 0.6997209014586279
0.1950903214145686 0.980785280522888 0.524195769276522
0.0980171400302339 0.995184726701678 0.284670174839274
-0.09801714055230534 0.9951847266502585 -0.28245248580014043
-0.1950903225158687 0.980785280303826 -0.522398362182583
-0.2902846780119318 0.9569403355024331 -0.7016737726606772
-0.3826834334019886 0.9238795320817892 -0.8183987425624488
-0.4713967380569389 0.8819212636904032 -0.890211822457595
-0.5555702344182949 0.8314696113679687 -0.9340758330598515
-0.6343932857215511 0.7730104520841969 -0.9603119921096052
-0.7071067827997501 0.7071067795733449 -0.9753269109986742
-0.7730104546074502 0.634393282646958 -0.9838653893667005
-0.8314696132346829 0.5555702316245595 -0.9891713987638228
-0.8819212650453002 0.471396735522105 -0.9923650967436072
-0.9238795329807084 0.3826834312318057 -0.9943220452077282
-0.9569403360010258 0.2902846763682919 -0.9954985308491044
-0.980785280522888 0.1950903214145686 -0.9962013448640563
-0.995184726701678 0.0980171400302339 -0.9966336111448731
-0.9951847266502585 -0.09801714055230534 -0.996634314960069
-0.980785280303826 -0.1950903225158687 -0.9962977606759175
-0.9569403355024331 -0.2902846780119318 -0.9956501601880595
-0.9238795320817892 -0.3826834334019886 -0.9944244304685207
-0.8819212636904032 -0.4713967380569389 -0.9924836022982751
-0.8314696113679687 -0.5555702344182949 -0.9891919920308138
-0.7730104520841969 -0.6343932857215511 -0.9840567700328755
-0.7071067795733449 -0.7071067827997501 -0.975280333063832
-0.634393282646958 -0.7730104546074502 -0.9601316718730765
-0.5555702316245595 -0.8314696132346829 -0.933428058160979
-0.471396735522105 -0.8819212650453002 -0.8928888544595462
-0.3826834312318057 -0.9238795329807084 -0.8195730062249619
-0.2902846763682919 -0.9569403360010258 -0.6978869154391104
-0.1950903214145686 -0.980785280522888 -0.5209648049061615
-0.0980171400302339 -0.995184726701678 -0.28347333908197303
0.09801714055230534 -0.9951847266502585 0.28122708826866105
0.1950903225158687 -0.980785280303826 0.5222114531529525
0.2902846780119318 -0.9569403355024331 0.700035159392002
0.3826834334019886 -0.9238795320817892 0.8169586303429804
0.4713967380569389 -0.8819212636904032 0.8919997143969649
0.5555702344182949 -0.8314696113679687 0.934675977293261
0.6343932857215511 -0.7730104520841969 0.9600100383087872
0.7071067827997501 -0.7071067795733449 0.9749463334272735
0.7730104546074502 -0.634393282646958 0.9836845526933884
0.8314696132346829 -0.5555702316245595 0.9891427908625531
0.8819212650453002 -0.471396735522105 0.9924533835676743
0.9238795329807084 -0.3826834312318057 0.9944742331485694
0.9569403360010258 -0.2902846763682919 0.9955340941084253
0.980785280522888 -0.1950903214145686 0.9962263896336114
0.995184726701678 -0.0980171400302339 0.9965961938335786
0.06552618461083977 0.9057377714856804 0.2055893099214166
0.0009658478707639528 0.8082839589324874 0.0032022566097878293
-0.03563479443557092 0.9112699032402481 -0.11236861596178269
0.1705501613218224 0.3885435209979023 0.5378153128993018
0.07749848355575648 0.3839529713357623 0.26519773225275495
0.1354683803138475 0.4802646235647384 0.44096437336612243
0.8091534979619077 -0.3498338276956917 0.992418915440391
0.8761488976398296 -0.2920528184820896 0.994604252062188
0.3928520302405717 0.739421913369157 0.8665903205328557
0.390862111607076 0.826784721731137 0.8517292085843154
0.4706392323831502 0.7995821775339277 0.9075970928771954
-0.1671534257012969 -0.861031256595044 -0.4950823307423287
-0.1472004487571584 -0.9293006283903719 -0.42712891391564367
-0.2291546067366331 -0.9057590479853773 -0.6138833316975807
0.04443964555371138 -0.8297432355039205 0.1445334700916562
-0.08647848633032065 -0.7919720560210205 -0.2810678583035131
0.002949429735350617 -0.7224034569650436 0.009012525598207278
-0.9159439419782547 -0.1363627745619546 -0.9960130951520211
-0.9120453529033316 -0.03785489360559663 -0.9961336291098267
-0.8276510465252657 -0.09986756375347056 -0.9942297453081425
0.915014437206204 0.2334960575511707 0.9955948526289785
0.9197156963303307 0.1593782649750047 0.9959522719242918
0.8354556074390631 0.1990069420324746 0.9941353213910807
0.8800406571083854 0.0979835585748042 0.9955045243742604
0.8835420305079577 -0.1949559811788893 0.9953607129036706
-0.6027187895153931 0.397423524644637 -0.9718164819216437
-0.5286165585531164 0.43293243761198 -0.9528519179630569
-0.5192434336913361 0.346360696234612 -0.951262757597242
0.7487708503765604 -0.5608010075175269 0.9854881838927952
0.7026085732077084 -0.6186002110760725 0.9798575380243242
0.6625910815249183 -0.5329060386604836 0.9792616185917392
-0.6722398760263044 0.08724301746076168 -0.9836235552854258
-0.6379360263534364 -0.01620182412990168 -0.9790107623176321
-0.7416530156479154 -0.004529378279480689 -0.9898032540455854
0.1939957927869305 -0.3322420674664666 0.5943504842923711
0.09978748736422188 -0.2793614465380631 0.33825437079318743
0.1835895554435892 -0.2390327161071967 0.568411923744006
0.1429368352963134 0.6471462450966345 0.4568358748493469
0.1786620957539817 0.7564304321587789 0.5414891141921557
0.2469884988852143 0.6484307295709116 0.6942874396324783
-0.02113036057523304 0.386766388722246 -0.07459577152094825
-0.09216904982197138 0.3125073730015363 -0.311889800652484
-0.1279036861172251 0.4100171364045232 -0.42216158447956326
-0.5058683233328958 -0.6614244495156111 -0.9384182385503186
-0.4272922966573793 -0.7554237730069829 -0.8902615150710796
-0.5358317214702379 -0.76373689139192 -0.9393245153194979
0.04244083864825746 0.4579316643061421 0.14636108191598754
0.3670445767536096 -0.8120994659282762 0.8346337168012798
0.1204274262853011 -0.1713938269462733 0.400958413244722
-0.2272538206354917 0.1497893649503071 -0.664787134527455
-0.1784366239384174 0.2417307549888433 -0.5584145257416774
-0.1347051056309508 0.1406821838288882 -0.44078818458144564
-0.0647848971661478 0.2203616240784709 -0.22357808828706305
-0.1768463905696754 0.3240651375192173 -0.5507538084876893
-0.2615692721715053 0.2941702236424231 -0.728066892444472
0.04938431708249591 -0.9203201733482986 0.15221287519103396
0.1288179709347257 -0.9047809654379212 0.3861362137816896
0.3250756557072815 0.6737002540830214 0.8046771180346899
0.296166569528528 0.7642124575644593 0.7614279925071757
0.476598721648909 0.7003067623379137 0.9218491826164342
0.4018364173601097 0.659419599663026 0.8792887881123332
0.2061171887432966 -0.4245189941420744 0.6199190002602447
0.1169179858110916 -0.3837103798320143 0.3883397044357831
0.6798586560627238 0.1289428788813137 0.9846126796628368
0.715627768804681 0.05067023207237525 0.9878166619110906
0.63686945551448 0.07050857920826473 0.9787768267191642
-0.2814035458951537 0.07583894900119312 -0.7579060831597144
-0.366348314202278 0.04813560997364319 -0.8616858312963342
-0.3197618236042906 0.142155110429131 -0.8113513025177347
0.1643347326838814 -0.5903484285438858 0.5171766266453665
0.0409293046564275 -0.549018253913978 0.1430825099148465
0.1284908304794872 -0.4815299934442652 0.42031039174984747
-0.5856132037594565 0.4854424697004757 -0.9676009423963304
0.286668511775877 -0.4734388327234783 0.7641885960818717
0.359800291436233 -0.4146288197003217 0.8535954887072236
0.3521158413854494 -0.5323502512238755 0.8433350800593262
0.8505805575676916 0.301166891393902 0.9941769711023878
-0.279136511503117 -0.8540047582596174 -0.7193035998191617
-0.3138815085924474 0.8622059066284703 -0.7647115013316961
-0.2043736994345109 0.8787968496588404 -0.5779096446658022
0.6436616138062179 -0.01465383803431389 0.9800372147865251
0.2820749820735164 -0.3657163619792454 0.7593654935809496
-0.4783254394140464 0.03246326158889518 -0.9364582191356915
-0.5562071565774052 -0.02963006144471264 -0.962578685604013
-0.5664600910643643 0.06488622447883119 -0.9654760536180824
0.7683975178740414 -0.459481241043399 0.9895279950825684
-0.2920794194626712 0.6118297384769588 -0.7674798277956318
-0.2441330685639188 0.6813910727811355 -0.6831273653520722
-0.196491586669421 0.5941895047095593 -0.5963508878236538
0.7433172291178475 0.2614118405268149 0.9896953856066995
-0.3210094752376231 0.710241156221157 -0.7977388675444268
0.2566775166545855 0.548607363025743 0.712839098847899
0.3087647302273256 0.4858998329830544 0.7941674422293276
0.2183661421438245 0.4746743328975875 0.644223289603702
0.3453399444532113 0.5867161370453997 0.8365325486963386
-0.7788627225386456 -0.2679743983720378 -0.9916916513574656
-0.7089370061921371 -0.205375951280949 -0.9869701029901135
-0.6697665736730039 -0.2770356327182575 -0.9831520453886905
-0.7780091753865046 -0.1823397547039828 -0.9917361524350246
-0.6224657261944777 0.1632808603598934 -0.9766953206036639
0.5622378151000949 -0.7170521061035289 0.9513598774982832
0.5265608348434567 -0.6401037984399638 0.9456705687217225
0.620615310602017 -0.6486996535386712 0.9686477430668665
0.7355318414479601 0.1840224820627052 0.9892303461203663
0.7775331963315839 0.1154169856331409 0.9919353073876379
-0.2129357192693959 -0.4413070510277897 -0.6336227701887901
-0.2489931929642787 -0.5549273074710962 -0.7027636974058797
-0.312533859271204 -0.4527679935972281 -0.801006659734466
-0.3615844232202023 -0.5485201949764886 -0.8533630491161427
-0.5517362628213353 -0.2729551631775157 -0.9615061492638584
-0.6114871246557462 -0.3620669219578091 -0.9744657913998567
-0.6220347962285386 -0.1940244883700643 -0.9766123945830466
-0.6345249005940541 0.3189159017294787 -0.9783722211179483
-0.6914890579977562 0.3748788961044526 -0.9843557406718637
0.2022358889339659 0.3050660028681875 0.6140284091003819
0.1112119693567997 0.3035928904235892 0.3724419814173663
-0.03585667197034575 -0.3688563956658111 -0.12506537786951893
0.04038816816962035 -0.4366786255168088 0.14037148323501283
-0.04880520572763306 -0.4824491119374575 -0.1684385111660029
-0.6894730733661563 0.4592039975804648 -0.9835845942615858
-0.338909781545636 0.7892575649401611 -0.8072736927849755
-0.2532654619863424 0.7822033497415635 -0.6901756458427364
-0.2037882521593002 0.05546330543571018 -0.6159987212968464
-0.116066611156336 0.02489157364256656 -0.3865846792168497
0.6744806508033333 0.6137243299472777 0.9779369837357286
0.6228172843569528 -0.1179261005198635 0.9768704546054617
0.70513855214613 -0.2012185609471375 0.9871425987893728
0.585921774892991 -0.2084560804842102 0.9700747461093836
0.7231500830979037 -0.1009276374875625 0.9885540963053163
-0.6658377994614632 -0.6038143516609621 -0.9772502098005124
-0.7389253622143996 -0.546779616314341 -0.9854390958477146
-0.09789627814148451 0.8427783611252733 -0.3114437029569676
-0.310979150947987 -0.7314466746423058 -0.7860324816900849
-0.3681978543193525 -0.8317889438334826 -0.8300219457957534
-0.03391471221140277 -0.01120435923700244 -0.11733936555107129
-0.0266517965284471 0.1142257534874064 -0.09283812445295214
0.05549313875200451 0.01751060241077973 0.19294756098537702
0.3620474907633556 0.4202912774135686 0.8545096139780333
0.4037979588383345 0.4963920799125295 0.8894858247498344
-0.1952439825165135 -0.7566474364694233 -0.5793375643630319
-0.01256114508671016 -0.6350036100483983 -0.042759775977203235
0.07771017017051518 -0.656929145514262 0.26141587286822215
-0.1987366738200758 -0.05018621970029311 -0.6052502401021731
-0.2647318783371554 -0.114912292192734 -0.7319449099976467
-0.2895010103847957 -0.01645547938647296 -0.7736109531133546
0.4463150248515293 0.4141240051318559 0.9181287919032096
0.3867805023614788 0.3385533994412352 0.8801449987112061
0.2417592681082477 -0.6538995340418114 0.6815219072480113
0.331257011053095 -0.632732638913428 0.8164520342514654
0.2933499197440139 -0.7225242714627041 0.7608436994610219
0.224331561434992 0.2126988426830647 0.6577881170758311
0.2989471342734291 0.1652793249805335 0.7845953534713679
0.2011371287302558 0.1230960168082434 0.6133031153798943
0.8013847844951338 -0.2485259787577682 0.99272038289834
0.2232456944870947 -0.8894127454185503 0.6100671048282069
0.08663100633606907 0.1253697013392126 0.29735461642792493
0.008117817422639673 -0.2794593228567087 0.02889474397245005
0.04012798838015247 -0.3476272588853522 0.14000084978854133
0.2641367895229864 -0.5667730723560438 0.7267397053800566
-0.4588998448996793 -0.5605683891712653 -0.9221687704272705
-0.5701392809633988 -0.5642659889484243 -0.962570100124324
-0.5039127256402228 -0.4835946032572784 -0.9434040110280134
-0.1191389642944812 0.9199388608690819 -0.3570199928164348
0.2970399725063696 0.07598296798710844 0.7834915568663784
-0.5873414969937371 -0.4552479491375019 -0.9683381574540525
0.9242803418738583 -0.01284434826552765 0.9963382766809902
0.8325711383441149 -0.08158974552266687 0.9943223685946591
0.8147761991228389 0.02499175794114716 0.9936633647621546
0.2139253757266162 -0.5097598867177424 0.632671005419698
-0.3823235261949641 0.4589880247598556 -0.8734188430393676
-0.4798109155286939 0.5097441542903186 -0.9340341083535824
-0.381913903087361 0.5688152383559658 -0.8703199273234912
-0.0580898963481996 -0.9051851782026351 -0.1833523323287079
-0.3820281631525191 0.6538284847440747 -0.8646543124242583
0.4689296752397605 -0.02571593342603251 0.9314232103754206
0.3916503800723303 0.03913044717894007 0.8838308750879541
0.4671537041488674 0.09376633968292775 0.9305991735520959
0.1665232354265069 -0.8146466880450508 0.5012183323222535
0.2618636879608754 -0.803767724825043 0.7007598086546198
0.4385462179371955 -0.6041889291317699 0.9096256851711747
-0.1173360956307009 -0.4216355429489245 -0.3902205249787067
-0.188360302669568 -0.3469163314361465 -0.5794475931127199
0.09262378919862235 0.5538255595377679 0.3107416543090073
0.0452805962647089 0.6395030863863198 0.1535751089618253
-0.7936102988539986 0.4678007663373938 -0.9902341167960105
-0.7425100481954706 0.5408109932279823 -0.9859354812561127
-0.09770338221154579 -0.09564113370349642 -0.3329761385780902
-0.2026925178915109 -0.1685476568512181 -0.6152596270694085
-0.01195940577982263 0.5492932000894826 -0.042802769067182236
-0.1190135538830252 -0.1772496808354178 -0.39350179787132095
0.3802439413756266 -0.04954583489583783 0.8730175919423977
0.07781429555712707 0.7296124130553091 0.2587616198754447
0.08501306266950273 0.8109785344599054 0.2756207416489102
0.5568208988658705 0.03189631797025497 0.9631033555562428
0.2763625560698862 0.3826366302165901 0.7520039653274245
0.5601097232326512 -0.3808807206087595 0.9628966973959799
0.6559974409353941 -0.4183733404799816 0.9801333950048207
0.5921836573415171 -0.4694471840570334 0.9686581573916083
0.5615349739983928 -0.05644038670006593 0.9638544435162325
-0.3119294914167758 -0.1912174091939676 -0.8033107094435507
0.4689239311292943 0.5893854328343808 0.9268196537630073
0.5819599671628881 0.5521043022510824 0.9654328290323645
0.5134097375150447 0.4852482444948379 0.9471707307816943
-0.1664792685489162 0.7047300813605678 -0.5147496608204495
-0.06763090645071834 0.6306151611390705 -0.23340938836593494
-0.08026352321975569 0.7415709203153481 -0.2650776302257376
0.187233236803408 -0.7131503738558225 0.5652173634886068
-0.508510920906333 -0.1818289276273835 -0.9483980399500072
-0.4488939457615307 -0.273791180920646 -0.9207957954684924
-0.1410300503587644 -0.5145434494444127 -0.4572512473058409
0.600156171745962 0.4645502463834218 0.9704349129550497
0.5593131400927792 0.6406278587723341 0.9560267996836981
0.6416400768038432 0.3076909020094418 0.9794659149761614
0.5364920721669336 0.2534784401509746 0.9576026128129971
0.5542233712869042 0.3750878637765094 0.9617303128572544
0.1415161935306813 0.2158345949958755 0.4606824948559732
0.5645242783534102 0.1381923672597281 0.9652923895942886
0.4572381981113797 0.1790528212959371 0.9257425229862335
0.3186555561350219 0.2671788423410694 0.8125111711250097
-0.4093671820041967 -0.4575440008942628 -0.8944779243765972
-0.3680409168654968 -0.3529087522192967 -0.8645589951157381
-0.2753359189409326 -0.3634337455514842 -0.7480388425164994
-0.4923255236024885 -0.3787919880874088 -0.942293427406826
0.415159127634386 -0.1168879297816188 0.9006720860144897
0.0129187503490476 0.2993684252185955 0.045002649671588534
0.04355821733468118 0.2133218458794599 0.15213349372798668
0.3730232489260816 0.1266266504898 0.8678321942216899
0.3070181476897249 -0.00567505583300873 0.795157529813933
0.3200936082092755 -0.1078480025792937 0.8119968361676648
-0.07385623725430543 -0.270865494496725 -0.2534687463140718
-0.09989468421869513 -0.3414285816031429 -0.33632497544244905
-0.1584156434195034 -0.2706687882698198 -0.5068833182375883
-0.03879567322815858 -0.1846494857047605 -0.13396782786986536
0.04298500875927785 -0.2034034272834585 0.150242936217649
-0.394781055162964 -0.04302857322682907 -0.8864206351637226
-0.4925892772644598 -0.0749475277726192 -0.9415862003236309
-0.7203506961768539 0.1876121702623792 -0.9880237633470356
-0.7872072709848114 0.1058965396607134 -0.9925179018242003
-0.8171616030701183 0.2151973729685485 -0.9934078581593413
-0.8975538570603205 0.149578502923131 -0.9957329720798843
-0.9030416306228948 0.05498643021120733 -0.9959916731618846
-0.5620492284826503 0.5600308789529036 -0.9598251367266641
-0.5863299591762176 -0.102324094409273 -0.9701266021077323
-0.2923242899064724 0.5265757531412668 -0.7735430749539424
-0.204112144067779 0.4757010817880112 -0.6140117894753702
-0.2939389641443112 0.4467733054366966 -0.774497618953284
-0.2676399323802355 -0.2796523307312724 -0.7402431205182651
-0.2348073467028159 0.3845767324516001 -0.6799046238117404
0.02580196901666043 -0.1021246566580548 0.09226736238472726
-0.3100864190975695 -0.6280594205712785 -0.7894832592067859
-0.2281451537672974 -0.6571113352581169 -0.6569686853222054
-0.1631653662680464 -0.5951246425745785 -0.5101795656451286
0.7294253469838452 -0.2923759441457596 0.9883843249113123
0.633325685225381 -0.30295843894355 0.9782725010590334
0.7464318494669634 -0.02336767653886634 0.9901106215246609
0.3054965550487183 -0.8802578011289769 0.7459718407122683
0.7875503910299595 -0.1629765723675086 0.9923337635024626
-0.4064823582994787 0.8360970186855673 -0.861162477987265
0.2353099178785492 0.8339357551127689 0.6463103700799668
0.2393676920078047 0.910730434537484 0.6333816954082908
0.3087767767857208 0.8669160359081352 0.7548598184763715
0.1420899835196635 -0.05943918212617191 0.4653022654923134
0.2287283869781068 -0.1550642537138068 0.6723044646483916
0.3918073616063875 -0.7070463178855422 0.8687027884006674
-0.741786244971164 -0.3624510641040469 -0.9891810831148126
-0.8511649030481747 -0.3303311794453072 -0.9939271737974424
0.2213772587561627 0.01597329771105765 0.6534813945032533
0.138728963341376 0.03802656064501567 0.45191316792724945
0.1575356085610541 0.8879571288422263 0.4661116501998995
0.7659377073986109 0.4635264317162796 0.9892351143029192
0.8311025273139803 0.3879201092521714 0.992679546708404
0.7468660346278303 0.3566212060971975 0.9893115665647549
0.23937077255078 -0.05959546562211823 0.6880302672465489
-0.1083337793235505 -0.6741891088127553 -0.3573070241014966
0.6623734852697452 0.4076786065088101 0.9812614093413713
-0.1576066264542501 0.7923375889386521 -0.4811743132809233
-0.4310804505716495 -0.123972636830626 -0.9100702145267164
-0.4052568497514257 -0.1952325755828035 -0.8941051345630535
-0.05220797479364611 0.4712459538411159 -0.18021269552417493
-0.7654286248002649 -0.4708197741561551 -0.9890349344708536
-0.8213856991238748 -0.4162971984650301 -0.9920465346624172
-0.4251722868472662 0.7353131822437382 -0.8912610097321383
-0.4834556081324004 0.6295398039220137 -0.9312942321985751
-0.5416314699609507 0.7181594832493227 -0.9459139008585109
-0.3497816227294909 -0.1139976626853795 -0.8451461176147251
-0.004622005052357714 0.7059855610378076 -0.01652815874821552
0.8412689618288219 -0.4150113552061356 0.9925318223081441
0.7200550035233314 -0.3648053961403412 0.9871609024801549
-0.8978662476927104 0.2271588110453477 -0.9953573222772439
-0.4306264422471949 0.320476357883927 -0.9095972362727393
-0.4707092047442034 0.2364796677192675 -0.9323965783646874
-0.1101920042341248 0.522619818526382 -0.3668171110882151
-0.4154425867743424 0.1377461256776963 -0.900502064110118
-0.5218006812996407 0.1460659070493914 -0.9527030880730727
0.3762554576852826 0.200237665584923 0.8699955933991738
-0.3578785686837233 0.2344107613562909 -0.8542985465967042
0.5149426368022372 -0.4476718258021321 0.9477029292708667
-0.66258793750326 0.2444916793060079 -0.9820482597867504
-0.753999479946215 0.3041341414648202 -0.9902442542533483
-0.07382337045453655 -0.5717893336978158 -0.25019690748079837
-0.5767522721921216 0.247125571518527 -0.9676359401671923
-0.3992735738074731 -0.6460455585340894 -0.8803159824768195
0.6775626852941385 0.5053956794973431 0.9813436752858666
0.5136475640471388 -0.2826734152870733 0.9494201617226966
-0.7003276820713049 -0.115618041953414 -0.9867559663937296
-0.6670059234470989 -0.5127883162540492 -0.9801686770023996
0.5594982445090176 0.7404147218038296 0.9480847726523948
0.6399033538621122 0.6911676608676662 0.9683213593371109
0.7495487484050816 0.5544219769955778 0.9859111653527396
-0.6097840673676029 -0.677594859748696 -0.9652321336830509
-0.6974913970729203 0.6126979086451937 -0.9798660326638132
0.1064686906491682 -0.7454307669749678 0.34188000337190116
0.4662833514634992 -0.7742514513881842 0.9096583422972243
-0.4960690074691771 0.794374542226228 -0.9193096800744602
0.3491458206094108 -0.3063344214034326 0.8443257849868777
0.3510059144246616 -0.193227237224427 0.849822518747788
0.4240003245274387 -0.2694086393544463 0.9053512171881359
-0.673023449618228 -0.4325572930920339 -0.9819124280340691
0.646858632134606 0.2144276351757474 0.9804573075211086
-0.8278980624258498 0.01041346689628245 -0.9940198998267318
0.2602010565583059 -0.2574539814455603 0.7252030361083431
0.4246975079372474 0.2612034695494176 0.9079757035626468
-0.3674762094789088 -0.2626758718712677 -0.8621280591396846
0.4673051176975558 -0.2003269056246602 0.9316254778255331
0.5127537781821909 -0.1308466172132098 0.9495557407215414
0.4437150585680915 -0.4860818703910802 0.9155890706776195
0.44910455400812 -0.3679614350485552 0.9211444788911325
0.4711597643809992 -0.6890020935105632 0.9197938521410935
0.1823433589096873 0.558926319963495 0.5611888228744606
0.4715093075741663 0.3280297774452376 0.9316890930729914
-0.2664068186063316 0.2128569361143945 -0.7346897846716901
-0.6108664173883225 0.6483769873585408 -0.9676827698866279
-0.8703843568406053 -0.2158709837625005 -0.9950463373933405
-0.4474007811436546 0.4040654859726693 -0.9193644312681789
-0.3432269747448207 0.3553156901846451 -0.8389016470810687
-0.6485730166786337 0.5508530511699183 -0.9766326700589111
-0.8305681666999377 0.3878347280118777 -0.9926550554950276
0.9198447158164628 -0.1144615849819647 0.996078844588119
0.5454460548413511 -0.548203753098507 0.957022008457585
-0.8637539269266468 0.3022744594391265 -0.9943617345459047
-0.7588339190583657 0.3947128744944104 -0.9893819978224728
