time = 0.1205
x y u
1.0 0.0 0.9967972857324112
0.0 1.0 0.0009828104208313663
-1.0 0.0 -0.9968835553694478
0.0 -1.0 -0.0006801464250228993
0.9951847266502585 0.09801714055230534 0.9968427967523787
0.980785280303826 0.1950903225158687 0.9963628011140556
0.9569403355024331 0.2902846780119318 0.995813737039509
0.9238795320817892 0.3826834334019886 0.9947515665120285
0.8819212636904032 0.4713967380569389 0.993101482806658
0.8314696113679687 0.5555702344182949 0.9902144756791619
0.7730104520841969 0.6343932857215511 0.9856074477030087
0.7071067795733449 0.7071067827997501 0.9774731806173028
0.634393282646958 0.7730104546074502 0.963695408862648
0.5555702316245595 0.8314696132346829 0.9400832804415329
0.471396735522105 0.8819212650453002 0.8997618513081992
0.3826834312318057 0.9238795329807084 0.8287417929758045
0.2902846763682919 0.9569403360010258 0.7120579261040828
0.1950903214145686 0.980785280522888 0.5356773628873088
0.0980171400302339 0.995184726701678 0.29186732227087075
-0.09801714055230534 0.9951847266502585 -0.28976801596780766
-0.1950903225158687 0.980785280303826 -0.5340726598507446
-0.2902846780119318 0.9569403355024331 -0.7141844274272487
-0.3826834334019886 0.9238795320817892 -0.8292588839283389
-0.4713967380569389 0.8819212636904032 -0.8985673170100502
-0.5555702344182949 0.8314696113679687 -0.9400195973001865
-0.6343932857215511 0.7730104520841969 -0.9643008363379622
-0.7071067827997501 0.7071067795733449 -0.9778937965313409
-0.7730104546074502 0.634393282646958 -0.9854762749457489
-0.8314696132346829 0.5555702316245595 -0.9901703326984956
-0.8819212650453002 0.471396735522105 -0.9929854086699125
-0.9238795329807084 0.3826834312318057 -0.9947152213014513
-0.9569403360010258 0.2902846763682919 -0.995756595383953
-0.980785280522888 0.1950903214145686 -0.9963827778823349
-0.995184726701678 0.0980171400302339 -0.9967750327549888
-0.9951847266502585 -0.09801714055230534 -0.9967673190450057
-0.980785280303826 -0.1950903225158687 -0.99646250582819
-0.9569403355024331 -0.2902846780119318 -0.9958858182666886
-0.9238795320817892 -0.3826834334019886 -0.9947848325731278
-0.8819212636904032 -0.4713967380569389 -0.993063358175821
-0.8314696113679687 -0.5555702344182949 -0.9901472498351849
-0.7730104520841969 -0.6343932857215511 -0.9856184616854777
-0.7071067795733449 -0.7071067827997501 -0.9777993728783623
-0.634393282646958 -0.7730104546074502 -0.9640829360868002
-0.5555702316245595 -0.8314696132346829 -0.9393132218741532
-0.471396735522105 -0.8819212650453002 -0.9012375006796711
-0.3826834312318057 -0.9238795329807084 -0.8303890049571733
-0.2902846763682919 -0.9569403360010258 -0.7100971605975103
-0.1950903214145686 -0.980785280522888 -0.5321746261802321
-0.0980171400302339 -0.995184726701678 -0.29025074051576977
0.09801714055230534 -0.9951847266502585 0.2889479123293431
0.1950903225158687 -0.980785280303826 0.5342897696258102
0.2902846780119318 -0.9569403355024331 0.7128343206304282
0.3826834334019886 -0.9238795320817892 0.8280625988684632
0.4713967380569389 -0.8819212636904032 0.9005446659498573
0.5555702344182949 -0.8314696113679687 0.9407140394267473
0.6343932857215511 -0.7730104520841969 0.9640380408453572
0.7071067827997501 -0.7071067795733449 0.9775440812670466
0.7730104546074502 -0.634393282646958 0.9853159131088742
0.8314696132346829 -0.5555702316245595 0.990156875159032
0.8819212650453002 -0.471396735522105 0.9930710409913809
0.9238795329807084 -0.3826834312318057 0.9948632959126217
0.9569403360010258 -0.2902846763682919 0.9957843218610051
0.980785280522888 -0.1950903214145686 0.9963997665644606
0.995184726701678 -0.0980171400302339 0.9967323619642555
0.06552618461083977 0.9057377714856804 0.210523377545115
0.0009658478707639528 0.8082839589324874 0.0032704336426455215
-0.03563479443557092 0.9112699032402481 -0.11529663544809775
0.1705501613218224 0.3885435209979023 0.5390707292468737
0.07749848355575648 0.3839529713357623 0.26592811291371055
0.1354683803138475 0.4802646235647384 0.4431452543748296
0.8091534979619077 -0.3498338276956917 0.9927905555376891
0.8761488976398296 -0.2920528184820896 0.9948675574553949
0.3928520302405717 0.739421913369157 0.8739628290863796
0.390862111607076 0.826784721731137 0.8610194158625933
0.4706392323831502 0.7995821775339277 0.9147534220162141
-0.1671534257012969 -0.861031256595044 -0.5048997317635187
-0.1472004487571584 -0.9293006283903719 -0.43656206016850185
-0.2291546067366331 -0.9057590479853773 -0.6254882032521802
0.04443964555371138 -0.8297432355039205 0.1481665415455798
-0.08647848633032065 -0.7919720560210205 -0.28621919390926653
0.002949429735350617 -0.7224034569650436 0.009506110870128148
-0.9159439419782547 -0.1363627745619546 -0.9961435284694585
-0.9120453529033316 -0.03785489360559663 -0.9962401598276044
-0.8276510465252657 -0.09986756375347056 -0.9942936387015364
0.915014437206204 0.2334960575511707 0.9957897025368655
0.9197156963303307 0.1593782649750047 0.9960975492699394
0.8354556074390631 0.1990069420324746 0.994269624283597
0.8800406571083854 0.0979835585748042 0.9956061483311169
0.8835420305079577 -0.1949559811788893 0.9955224774200738
-0.6027187895153931 0.397423524644637 -0.9724875433447913
-0.5286165585531164 0.43293243761198 -0.9538981001924512
-0.5192434336913361 0.346360696234612 -0.9517420891506884
0.7487708503765604 -0.5608010075175269 0.9867940390540513
0.7026085732077084 -0.6186002110760725 0.9817789698444158
0.6625910815249183 -0.5329060386604836 0.9806717814809239
-0.6722398760263044 0.08724301746076168 -0.9835518958244547
-0.6379360263534364 -0.01620182412990168 -0.9788738202537061
-0.7416530156479154 -0.004529378279480689 -0.9897690680290697
0.1939957927869305 -0.3322420674664666 0.595014947483196
0.09978748736422188 -0.2793614465380631 0.3383417457850474
0.1835895554435892 -0.2390327161071967 0.5684815757433471
0.1429368352963134 0.6471462450966345 0.4620642449838836
0.1786620957539817 0.7564304321587789 0.550014124852979
0.2469884988852143 0.6484307295709116 0.7006892843780482
-0.02113036057523304 0.386766388722246 -0.0746850367926161
-0.09216904982197138 0.3125073730015363 -0.3123247828246801
-0.1279036861172251 0.4100171364045232 -0.4232152165008617
-0.5058683233328958 -0.6614244495156111 -0.9424722925273361
-0.4272922966573793 -0.7554237730069829 -0.8973343950675509
-0.5358317214702379 -0.76373689139192 -0.9446099147546555
0.04244083864825746 0.4579316643061421 0.14720359375244288
0.3670445767536096 -0.8120994659282762 0.8442998147536448
0.1204274262853011 -0.1713938269462733 0.4007315719255978
-0.2272538206354917 0.1497893649503071 -0.6649753289921375
-0.1784366239384174 0.2417307549888433 -0.558814072640566
-0.1347051056309508 0.1406821838288882 -0.44107909483820223
-0.0647848971661478 0.2203616240784709 -0.223882765959709
-0.1768463905696754 0.3240651375192173 -0.551449918449894
-0.2615692721715053 0.2941702236424231 -0.7286205724589369
0.04938431708249591 -0.9203201733482986 0.15651948438731345
0.1288179709347257 -0.9047809654379212 0.395533197883499
0.3250756557072815 0.6737002540830214 0.8113069376720929
0.296166569528528 0.7642124575644593 0.7707350432631047
0.476598721648909 0.7003067623379137 0.9270698702949466
0.4018364173601097 0.659419599663026 0.8846907327675199
0.2061171887432966 -0.4245189941420744 0.6216027891849628
0.1169179858110916 -0.3837103798320143 0.3891592656521968
0.6798586560627238 0.1289428788813137 0.9845540261553308
0.715627768804681 0.05067023207237525 0.9877560600143578
0.63686945551448 0.07050857920826473 0.9786381942362329
-0.2814035458951537 0.07583894900119312 -0.7579338008445665
-0.366348314202278 0.04813560997364319 -0.8615695037065062
-0.3197618236042906 0.142155110429131 -0.8113856595244596
0.1643347326838814 -0.5903484285438858 0.5215938958965012
0.0409293046564275 -0.549018253913978 0.14428890876500486
0.1284908304794872 -0.4815299934442652 0.4223101610154604
-0.5856132037594565 0.4854424697004757 -0.9689076694599037
0.286668511775877 -0.4734388327234783 0.7666168935157337
0.359800291436233 -0.4146288197003217 0.8549771977132146
0.3521158413854494 -0.5323502512238755 0.8465563932829703
0.8505805575676916 0.301166891393902 0.9944459141593367
-0.279136511503117 -0.8540047582596174 -0.730594204936192
-0.3138815085924474 0.8622059066284703 -0.7759539686884853
-0.2043736994345109 0.8787968496588404 -0.589335880235974
0.6436616138062179 -0.01465383803431389 0.9798907017734223
0.2820749820735164 -0.3657163619792454 0.7603573268610206
-0.4783254394140464 0.03246326158889518 -0.9362569796184352
-0.5562071565774052 -0.02963006144471264 -0.9623867222509997
-0.5664600910643643 0.06488622447883119 -0.9653122444527539
0.7683975178740414 -0.459481241043399 0.9902696215785511
-0.2920794194626712 0.6118297384769588 -0.772577348155468
-0.2441330685639188 0.6813910727811355 -0.6900686953380766
-0.196491586669421 0.5941895047095593 -0.6008654473512596
0.7433172291178475 0.2614118405268149 0.9898612047515414
-0.3210094752376231 0.710241156221157 -0.8052219164397992
0.2566775166545855 0.548607363025743 0.7167707481230579
0.3087647302273256 0.4858998329830544 0.7967354370484904
0.2183661421438245 0.4746743328975875 0.6467299460755161
0.3453399444532113 0.5867161370453997 0.8408982584209453
-0.7788627225386456 -0.2679743983720378 -0.9918742718549185
-0.7089370061921371 -0.205375951280949 -0.987013669338519
-0.6697665736730039 -0.2770356327182575 -0.9832955547788584
-0.7780091753865046 -0.1823397547039828 -0.9918119591813175
-0.6224657261944777 0.1632808603598934 -0.9766534367893521
0.5622378151000949 -0.7170521061035289 0.9556731948310091
0.5265608348434567 -0.6401037984399638 0.9492795857450865
0.620615310602017 -0.6486996535386712 0.9714382936377385
0.7355318414479601 0.1840224820627052 0.9892795031458427
0.7775331963315839 0.1154169856331409 0.9919656644063963
-0.2129357192693959 -0.4413070510277897 -0.6355381084325363
-0.2489931929642787 -0.5549273074710962 -0.7066948042317368
-0.312533859271204 -0.4527679935972281 -0.8029744742922486
-0.3615844232202023 -0.5485201949764886 -0.8567368772925906
-0.5517362628213353 -0.2729551631775157 -0.9616047499200517
-0.6114871246557462 -0.3620669219578091 -0.9748915481567991
-0.6220347962285386 -0.1940244883700643 -0.9765674670137403
-0.6345249005940541 0.3189159017294787 -0.9786776971916278
-0.6914890579977562 0.3748788961044526 -0.9848437034270091
0.2022358889339659 0.3050660028681875 0.6145748096985116
0.1112119693567997 0.3035928904235892 0.3728251602938284
-0.03585667197034575 -0.3688563956658111 -0.12549956374018134
0.04038816816962035 -0.4366786255168088 0.14084181086883768
-0.04880520572763306 -0.4824491119374575 -0.1693167331366878
-0.6894730733661563 0.4592039975804648 -0.9844537969829746
-0.338909781545636 0.7892575649401611 -0.8165516524052319
-0.2532654619863424 0.7822033497415635 -0.6999719358471044
-0.2037882521593002 0.05546330543571018 -0.6161523118954019
-0.116066611156336 0.02489157364256656 -0.38688221089959857
0.6744806508033333 0.6137243299472777 0.9799564894405325
0.6228172843569528 -0.1179261005198635 0.9767511048004868
0.70513855214613 -0.2012185609471375 0.9871895686728532
0.585921774892991 -0.2084560804842102 0.9700513775399873
0.7231500830979037 -0.1009276374875625 0.9885242516376015
-0.6658377994614632 -0.6038143516609621 -0.9791800850350512
-0.7389253622143996 -0.546779616314341 -0.9866325451250837
-0.09789627814148451 0.8427783611252733 -0.318213462656807
-0.310979150947987 -0.7314466746423058 -0.794257894717663
-0.3681978543193525 -0.8317889438334826 -0.8397067127136432
-0.03391471221140277 -0.01120435923700244 -0.11772910257618897
-0.0266517965284471 0.1142257534874064 -0.09318919858537006
0.05549313875200451 0.01751060241077973 0.1925390238665409
0.3620474907633556 0.4202912774135686 0.855956790157947
0.4037979588383345 0.4963920799125295 0.891768535439325
-0.1952439825165135 -0.7566474364694233 -0.5879087961212237
-0.01256114508671016 -0.6350036100483983 -0.042988952248882294
0.07771017017051518 -0.656929145514262 0.2649780030620378
-0.1987366738200758 -0.05018621970029311 -0.6054009446586776
-0.2647318783371554 -0.114912292192734 -0.7320024259170338
-0.2895010103847957 -0.01645547938647296 -0.7735845124165127
0.4463150248515293 0.4141240051318559 0.9192336186807516
0.3867805023614788 0.3385533994412352 0.8807562953669137
0.2417592681082477 -0.6538995340418114 0.6880959125381744
0.331257011053095 -0.632732638913428 0.8220713565466155
0.2933499197440139 -0.7225242714627041 0.7692234138277159
0.224331561434992 0.2126988426830647 0.6578265204587663
0.2989471342734291 0.1652793249805335 0.7844611408297049
0.2011371287302558 0.1230960168082434 0.6130731462920841
0.8013847844951338 -0.2485259787577682 0.9929049133869181
0.2232456944870947 -0.8894127454185503 0.6222083906125594
0.08663100633606907 0.1253697013392126 0.2970714312118024
0.008117817422639673 -0.2794593228567087 0.028675930436605594
0.04012798838015247 -0.3476272588853522 0.1401036760844894
0.2641367895229864 -0.5667730723560438 0.7311024497955552
-0.4588998448996793 -0.5605683891712653 -0.9250252672010056
-0.5701392809633988 -0.5642659889484243 -0.9646671915942732
-0.5039127256402228 -0.4835946032572784 -0.9449683785379529
-0.1191389642944812 0.9199388608690819 -0.36557469007289034
0.2970399725063696 0.07598296798710844 0.7832041482871545
-0.5873414969937371 -0.4552479491375019 -0.9693538936576865
0.9242803418738583 -0.01284434826552765 0.9964474681107791
0.8325711383441149 -0.08158974552266687 0.9943869847557091
0.8147761991228389 0.02499175794114716 0.9936999350729899
0.2139253757266162 -0.5097598867177424 0.6357643178826571
-0.3823235261949641 0.4589880247598556 -0.8752147076327227
-0.4798109155286939 0.5097441542903186 -0.9360352221096566
-0.381913903087361 0.5688152383559658 -0.8739096660569612
-0.0580898963481996 -0.9051851782026351 -0.18743000296901283
-0.3820281631525191 0.6538284847440747 -0.87007251058438
0.4689296752397605 -0.02571593342603251 0.9311365807406716
0.3916503800723303 0.03913044717894007 0.8835284687704102
0.4671537041488674 0.09376633968292775 0.9303507233160596
0.1665232354265069 -0.8146466880450508 0.5109687546561815
0.2618636879608754 -0.803767724825043 0.7114516116047117
0.4385462179371955 -0.6041889291317699 0.9135160210751503
-0.1173360956307009 -0.4216355429489245 -0.3915255366136438
-0.188360302669568 -0.3469163314361465 -0.580393524885725
0.09262378919862235 0.5538255595377679 0.31328977118713575
0.0452805962647089 0.6395030863863198 0.15560098705788314
-0.7936102988539986 0.4678007663373938 -0.9909745373116388
-0.7425100481954706 0.5408109932279823 -0.987130489450912
-0.09770338221154579 -0.09564113370349642 -0.3333123522864528
-0.2026925178915109 -0.1685476568512181 -0.6154836245490622
-0.01195940577982263 0.5492932000894826 -0.04283752072262707
-0.1190135538830252 -0.1772496808354178 -0.39385566075844985
0.3802439413756266 -0.04954583489583783 0.8727171468342868
0.07781429555712707 0.7296124130553091 0.26315545851387484
0.08501306266950273 0.8109785344599054 0.281278529545322
0.5568208988658705 0.03189631797025497 0.9628764798360063
0.2763625560698862 0.3826366302165901 0.7532017541540316
0.5601097232326512 -0.3808807206087595 0.9635308524615707
0.6559974409353941 -0.4183733404799816 0.9808556168983644
0.5921836573415171 -0.4694471840570334 0.9698507571106298
0.5615349739983928 -0.05644038670006593 0.9636442424399552
-0.3119294914167758 -0.1912174091939676 -0.8034045467874397
0.4689239311292943 0.5893854328343808 0.9301266532988782
0.5819599671628881 0.5521043022510824 0.967409167426401
0.5134097375150447 0.4852482444948379 0.948749601684383
-0.1664792685489162 0.7047300813605678 -0.521428795934273
-0.06763090645071834 0.6306151611390705 -0.23580208042866266
-0.08026352321975569 0.7415709203153481 -0.26949079026100853
0.187233236803408 -0.7131503738558225 0.5730085792440527
-0.508510920906333 -0.1818289276273835 -0.9482887983918625
-0.4488939457615307 -0.273791180920646 -0.920950223411719
-0.1410300503587644 -0.5145434494444127 -0.4598030093174924
0.600156171745962 0.4645502463834218 0.9715428631493557
0.5593131400927792 0.6406278587723341 0.9592641711308855
0.6416400768038432 0.3076909020094418 0.9797049204800106
0.5364920721669336 0.2534784401509746 0.9576557580911272
0.5542233712869042 0.3750878637765094 0.962294252214942
0.1415161935306813 0.2158345949958755 0.4606923271302656
0.5645242783534102 0.1381923672597281 0.965135129524048
0.4572381981113797 0.1790528212959371 0.9256135441690654
0.3186555561350219 0.2671788423410694 0.8127494935567797
-0.4093671820041967 -0.4575440008942628 -0.8961317867664852
-0.3680409168654968 -0.3529087522192967 -0.8652883028746912
-0.2753359189409326 -0.3634337455514842 -0.7490715083164068
-0.4923255236024885 -0.3787919880874088 -0.9429452270685564
0.415159127634386 -0.1168879297816188 0.9004339832438721
0.0129187503490476 0.2993684252185955 0.04499714284317621
0.04355821733468118 0.2133218458794599 0.1519910916358956
0.3730232489260816 0.1266266504898 0.8676112701590112
0.3070181476897249 -0.00567505583300873 0.7948295796758758
0.3200936082092755 -0.1078480025792937 0.8117356401521533
-0.07385623725430543 -0.270865494496725 -0.25393480619786496
-0.09989468421869513 -0.3414285816031429 -0.3370445376325193
-0.1584156434195034 -0.2706687882698198 -0.507423218333694
-0.03879567322815858 -0.1846494857047605 -0.13433618585607726
0.04298500875927785 -0.2034034272834585 0.14998551905505597
-0.394781055162964 -0.04302857322682907 -0.8862563747281185
-0.4925892772644598 -0.0749475277726192 -0.9413854226712142
-0.7203506961768539 0.1876121702623792 -0.9880845749392462
-0.7872072709848114 0.1058965396607134 -0.9925651724689339
-0.8171616030701183 0.2151973729685485 -0.9935667407436806
-0.8975538570603205 0.149578502923131 -0.995878862524139
-0.9030416306228948 0.05498643021120733 -0.9961014712653323
-0.5620492284826503 0.5600308789529036 -0.9619964610024385
-0.5863299591762176 -0.102324094409273 -0.9699696307082826
-0.2923242899064724 0.5265757531412668 -0.7767806366504166
-0.204112144067779 0.4757010817880112 -0.6162488986892908
-0.2939389641443112 0.4467733054366966 -0.77639746135798
-0.2676399323802355 -0.2796523307312724 -0.7407085303688805
-0.2348073467028159 0.3845767324516001 -0.6811162298889663
0.02580196901666043 -0.1021246566580548 0.0918741849828444
-0.3100864190975695 -0.6280594205712785 -0.7949634390824418
-0.2281451537672974 -0.6571113352581169 -0.6633594711609769
-0.1631653662680464 -0.5951246425745785 -0.5143805392463969
0.7294253469838452 -0.2923759441457596 0.9886238830164785
0.633325685225381 -0.30295843894355 0.9785070958208582
0.7464318494669634 -0.02336767653886634 0.9900800615457839
0.3054965550487183 -0.8802578011289769 0.7578256468576525
0.7875503910299595 -0.1629765723675086 0.9924109241130635
-0.4064823582994787 0.8360970186855673 -0.8702613598004415
0.2353099178785492 0.8339357551127689 0.6571612047609647
0.2393676920078047 0.910730434537484 0.6453448737336905
0.3087767767857208 0.8669160359081352 0.7661576261198685
0.1420899835196635 -0.05943918212617191 0.4649299428086003
0.2287283869781068 -0.1550642537138068 0.6721145281721727
0.3918073616063875 -0.7070463178855422 0.87544306631209
-0.741786244971164 -0.3624510641040469 -0.9895652985172396
-0.8511649030481747 -0.3303311794453072 -0.9942297723138959
0.2213772587561627 0.01597329771105765 0.6531360813941974
0.138728963341376 0.03802656064501567 0.4515490869056196
0.1575356085610541 0.8879571288422263 0.4761794914493547
0.7659377073986109 0.4635264317162796 0.9899910497236788
0.8311025273139803 0.3879201092521714 0.9931258264631582
0.7468660346278303 0.3566212060971975 0.9897015647306749
0.23937077255078 -0.05959546562211823 0.687708044606472
-0.1083337793235505 -0.6741891088127553 -0.36179419644498295
0.6623734852697452 0.4076786065088101 0.9818998926791981
-0.1576066264542501 0.7923375889386521 -0.4896434336396369
-0.4310804505716495 -0.123972636830626 -0.9099237799677786
-0.4052568497514257 -0.1952325755828035 -0.8940815027927735
-0.05220797479364611 0.4712459538411159 -0.18084538766746897
-0.7654286248002649 -0.4708197741561551 -0.9897886169546445
-0.8213856991238748 -0.4162971984650301 -0.9925530077075877
-0.4251722868472662 0.7353131822437382 -0.8979389564074013
-0.4834556081324004 0.6295398039220137 -0.9350954854812805
-0.5416314699609507 0.7181594832493227 -0.9504813480353084
-0.3497816227294909 -0.1139976626853795 -0.8450652390973099
-0.004622005052357714 0.7059855610378076 -0.01665219556830845
0.8412689618288219 -0.4150113552061356 0.9930510687389584
0.7200550035233314 -0.3648053961403412 0.9876066061205813
-0.8978662476927104 0.2271588110453477 -0.9955603497068242
-0.4306264422471949 0.320476357883927 -0.9100628107270616
-0.4707092047442034 0.2364796677192675 -0.9324824492777964
-0.1101920042341248 0.522619818526382 -0.3688144968673046
-0.4154425867743424 0.1377461256776963 -0.9004189784350811
-0.5218006812996407 0.1460659070493914 -0.9525976286302019
0.3762554576852826 0.200237665584923 0.8699379292684402
-0.3578785686837233 0.2344107613562909 -0.854476238814776
0.5149426368022372 -0.4476718258021321 0.9489493848093965
-0.66258793750326 0.2444916793060079 -0.9821665077314119
-0.753999479946215 0.3041341414648202 -0.9905188323309946
-0.07382337045453655 -0.5717893336978158 -0.25216376779559696
-0.5767522721921216 0.247125571518527 -0.9677255861471145
-0.3992735738074731 -0.6460455585340894 -0.8853891715818399
0.6775626852941385 0.5053956794973431 0.9825065530488966
0.5136475640471388 -0.2826734152870733 0.9495961646074129
-0.7003276820713049 -0.115618041953414 -0.9867056050880958
-0.6670059234470989 -0.5127883162540492 -0.981370256960322
0.5594982445090176 0.7404147218038296 0.952749471387361
0.6399033538621122 0.6911676608676662 0.9713930876260787
0.7495487484050816 0.5544219769955778 0.9871551613612771
-0.6097840673676029 -0.677594859748696 -0.9683610248395373
-0.6974913970729203 0.6126979086451937 -0.9817358321853012
0.1064686906491682 -0.7454307669749678 0.3479431158017413
0.4662833514634992 -0.7742514513881842 0.916537834481725
-0.4960690074691771 0.794374542226228 -0.9258548596828745
0.3491458206094108 -0.3063344214034326 0.844756418443412
0.3510059144246616 -0.193227237224427 0.8497353623204206
0.4240003245274387 -0.2694086393544463 0.9055220268735369
-0.673023449618228 -0.4325572930920339 -0.9826279382263543
0.646858632134606 0.2144276351757474 0.9804741830048248
-0.8278980624258498 0.01041346689628245 -0.9940702072841755
0.2602010565583059 -0.2574539814455603 0.7253903556971439
0.4246975079372474 0.2612034695494176 0.9081049934824084
-0.3674762094789088 -0.2626758718712677 -0.8623585800718816
0.4673051176975558 -0.2003269056246602 0.9315517380143337
0.5127537781821909 -0.1308466172132098 0.9493705033969168
0.4437150585680915 -0.4860818703910802 0.9175481261908097
0.44910455400812 -0.3679614350485552 0.9218556960388884
0.4711597643809992 -0.6890020935105632 0.924962089505139
0.1823433589096873 0.558926319963495 0.5651237641209234
0.4715093075741663 0.3280297774452376 0.9321036331925587
-0.2664068186063316 0.2128569361143945 -0.7349428776827319
-0.6108664173883225 0.6483769873585408 -0.9705160049915167
-0.8703843568406053 -0.2158709837625005 -0.9952081968268474
-0.4474007811436546 0.4040654859726693 -0.9203695933057047
-0.3432269747448207 0.3553156901846451 -0.8397285477021624
-0.6485730166786337 0.5508530511699183 -0.9782416742156067
-0.8305681666999377 0.3878347280118777 -0.9931172321039222
0.9198447158164628 -0.1144615849819647 0.9962075621037034
0.5454460548413511 -0.548203753098507 0.9591990867609889
-0.8637539269266468 0.3022744594391265 -0.9946510761460503
-0.7588339190583657 0.3947128744944104 -0.9899012573618489
