time = 0.2005
x y u
1.0 0.0 0.9967073842295204
0.0 1.0 0.0010423883415518415
-1.0 0.0 -0.9967914482571957
0.0 -1.0 -0.0008803900689893082
0.9951847266502585 0.09801714055230534 0.9967446974104323
0.980785280303826 0.1950903225158687 0.9962499047614584
0.9569403355024331 0.2902846780119318 0.995661758611881
0.9238795320817892 0.3826834334019886 0.9945276784567966
0.8819212636904032 0.4713967380569389 0.9927499477028803
0.8314696113679687 0.5555702344182949 0.9896421072627013
0.7730104520841969 0.6343932857215511 0.9846700602389934
0.7071067795733449 0.7071067827997501 0.9759418174041874
0.634393282646958 0.7730104546074502 0.9612655591361119
0.5555702316245595 0.8314696132346829 0.9363837384252172
0.471396735522105 0.8819212650453002 0.8944835102320781
0.3826834312318057 0.9238795329807084 0.8218113762453728
0.2902846763682919 0.9569403360010258 0.7040754380500756
0.1950903214145686 0.980785280522888 0.5281972098127409
0.0980171400302339 0.995184726701678 0.2871668361058477
-0.09801714055230534 0.9951847266502585 -0.2849485535627357
-0.1950903225158687 0.980785280303826 -0.526434469551981
-0.2902846780119318 0.9569403355024331 -0.7060702044573931
-0.3826834334019886 0.9238795320817892 -0.8223029899260883
-0.4713967380569389 0.8819212636904032 -0.8933016790005505
-0.5555702344182949 0.8314696113679687 -0.936347754155325
-0.6343932857215511 0.7730104520841969 -0.9618909358255243
-0.7071067827997501 0.7071067795733449 -0.9763772322615288
-0.7730104546074502 0.634393282646958 -0.9845421471106248
-0.8314696132346829 0.5555702316245595 -0.9895951067783909
-0.8819212650453002 0.471396735522105 -0.9926247209517158
-0.9238795329807084 0.3826834312318057 -0.9944794058316989
-0.9569403360010258 0.2902846763682919 -0.9955938099711946
-0.980785280522888 0.1950903214145686 -0.9962610642670576
-0.995184726701678 0.0980171400302339 -0.9966744520359948
-0.9951847266502585 -0.09801714055230534 -0.9966720312222186
-0.980785280303826 -0.1950903225158687 -0.996350653620538
-0.9569403355024331 -0.2902846780119318 -0.9957361625516886
-0.9238795320817892 -0.3826834334019886 -0.9945689589107246
-0.8819212636904032 -0.4713967380569389 -0.9927276616325478
-0.8314696113679687 -0.5555702344182949 -0.9896002170793029
-0.7730104520841969 -0.6343932857215511 -0.9847170114012508
-0.7071067795733449 -0.7071067827997501 -0.976317973450592
-0.634393282646958 -0.7730104546074502 -0.9617013962897923
-0.5555702316245595 -0.8314696132346829 -0.9356797341813561
-0.471396735522105 -0.8819212650453002 -0.8959664142199014
-0.3826834312318057 -0.9238795329807084 -0.823434246962654
-0.2902846763682919 -0.9569403360010258 -0.7021308737184685
-0.1950903214145686 -0.980785280522888 -0.5247721123402332
-0.0980171400302339 -0.995184726701678 -0.2857078361804448
0.09801714055230534 -0.9951847266502585 0.28395752713620737
0.1950903225158687 -0.980785280303826 0.5264539002621417
0.2902846780119318 -0.9569403355024331 0.7045804546335683
0.3826834334019886 -0.9238795320817892 0.8209833452846925
0.4713967380569389 -0.8819212636904032 0.8951830498027082
0.5555702344182949 -0.8314696113679687 0.9370013110910617
0.6343932857215511 -0.7730104520841969 0.9616178361148356
0.7071067827997501 -0.7071067795733449 0.9760161029559368
0.7730104546074502 -0.634393282646958 0.9843728195129241
0.8314696132346829 -0.5555702316245595 0.9895739879003945
0.8819212650453002 -0.471396735522105 0.9927132150696726
0.9238795329807084 -0.3826834312318057 0.9946306963937426
0.9569403360010258 -0.2902846763682919 0.9956275037799162
0.980785280522888 -0.1950903214145686 0.9962835976586841
0.995184726701678 -0.0980171400302339 0.9966353136809891
0.06552618461083977 0.9057377714856804 0.207327083474643
0.0009658478707639528 0.8082839589324874 0.0032440497102174284
-0.03563479443557092 0.9112699032402481 -0.11336101004035429
0.1705501613218224 0.3885435209979023 0.5385191284166598
0.07749848355575648 0.3839529713357623 0.2655922636244903
0.1354683803138475 0.4802646235647384 0.44202059214804496
0.8091534979619077 -0.3498338276956917 0.9925835336329553
0.8761488976398296 -0.2920528184820896 0.9947100675185205
0.3928520302405717 0.739421913369157 0.869426688647418
0.390862111607076 0.826784721731137 0.8551521874730634
0.4706392323831502 0.7995821775339277 0.9103010828729803
-0.1671534257012969 -0.861031256595044 -0.49847962139552093
-0.1472004487571584 -0.9293006283903719 -0.43031835403935254
-0.2291546067366331 -0.9057590479853773 -0.6178949575269593
0.04443964555371138 -0.8297432355039205 0.14589847247476923
-0.08647848633032065 -0.7919720560210205 -0.28286436333941717
0.002949429735350617 -0.7224034569650436 0.009253601504575916
-0.9159439419782547 -0.1363627745619546 -0.996054677936823
-0.9120453529033316 -0.03785489360559663 -0.9961645700609222
-0.8276510465252657 -0.09986756375347056 -0.9942570101450462
0.915014437206204 0.2334960575511707 0.9956656696185893
0.9197156963303307 0.1593782649750047 0.99600007031996
0.8354556074390631 0.1990069420324746 0.9941920577872291
0.8800406571083854 0.0979835585748042 0.9955376409475626
0.8835420305079577 -0.1949559811788893 0.9954200967638618
-0.6027187895153931 0.397423524644637 -0.9721882121776282
-0.5286165585531164 0.43293243761198 -0.9534180464982027
-0.5192434336913361 0.346360696234612 -0.9515922050824625
0.7487708503765604 -0.5608010075175269 0.9860486704370084
0.7026085732077084 -0.6186002110760725 0.9806683240025443
0.6625910815249183 -0.5329060386604836 0.9798948070593821
-0.6722398760263044 0.08724301746076168 -0.9836318510858674
-0.6379360263534364 -0.01620182412990168 -0.9789991982236034
-0.7416530156479154 -0.004529378279480689 -0.9898084536668385
0.1939957927869305 -0.3322420674664666 0.5947901265573954
0.09978748736422188 -0.2793614465380631 0.3383635682310937
0.1835895554435892 -0.2390327161071967 0.5685364761983558
0.1429368352963134 0.6471462450966345 0.4589542993332993
0.1786620957539817 0.7564304321587789 0.5446730245029732
0.2469884988852143 0.6484307295709116 0.696898877233716
-0.02113036057523304 0.386766388722246 -0.07467270818618055
-0.09216904982197138 0.3125073730015363 -0.3121688157572377
-0.1279036861172251 0.4100171364045232 -0.42276949284072357
-0.5058683233328958 -0.6614244495156111 -0.9400879132218092
-0.4272922966573793 -0.7554237730069829 -0.8929592444677636
-0.5358317214702379 -0.76373689139192 -0.9413813204505539
0.04244083864825746 0.4579316643061421 0.1467553876982105
0.3670445767536096 -0.8120994659282762 0.8382229232410348
0.1204274262853011 -0.1713938269462733 0.4008952709213113
-0.2272538206354917 0.1497893649503071 -0.6649396782236068
-0.1784366239384174 0.2417307549888433 -0.5586904479829894
-0.1347051056309508 0.1406821838288882 -0.4409589691425166
-0.0647848971661478 0.2203616240784709 -0.2237507666644411
-0.1768463905696754 0.3240651375192173 -0.5512035415204647
-0.2615692721715053 0.2941702236424231 -0.7284627698553586
0.04938431708249591 -0.9203201733482986 0.1537862543829889
0.1288179709347257 -0.9047809654379212 0.3894721781075037
0.3250756557072815 0.6737002540830214 0.8073349637625793
0.296166569528528 0.7642124575644593 0.7649178648191126
0.476598721648909 0.7003067623379137 0.923928388682452
0.4018364173601097 0.659419599663026 0.8814958233110728
0.2061171887432966 -0.4245189941420744 0.6208269328521292
0.1169179858110916 -0.3837103798320143 0.38881875658761417
0.6798586560627238 0.1289428788813137 0.9846263309121189
0.715627768804681 0.05067023207237525 0.9878164103861173
0.63686945551448 0.07050857920826473 0.9787633986293535
-0.2814035458951537 0.07583894900119312 -0.7579798717090523
-0.366348314202278 0.04813560997364319 -0.8617061827845166
-0.3197618236042906 0.142155110429131 -0.8114503871232076
0.1643347326838814 -0.5903484285438858 0.519092600802959
0.0409293046564275 -0.549018253913978 0.14364475707107602
0.1284908304794872 -0.4815299934442652 0.42129984283402183
-0.5856132037594565 0.4854424697004757 -0.9682349198546137
0.286668511775877 -0.4734388327234783 0.7654139547084141
0.359800291436233 -0.4146288197003217 0.8543786907622873
0.3521158413854494 -0.5323502512238755 0.844842450717661
0.8505805575676916 0.301166891393902 0.9942889677681558
-0.279136511503117 -0.8540047582596174 -0.7233023132881727
-0.3138815085924474 0.8622059066284703 -0.7687482773136132
-0.2043736994345109 0.8787968496588404 -0.5819290979753499
0.6436616138062179 -0.01465383803431389 0.980016896174218
0.2820749820735164 -0.3657163619792454 0.7599818374053842
-0.4783254394140464 0.03246326158889518 -0.9364437219558258
-0.5562071565774052 -0.02963006144471264 -0.9625619186906279
-0.5664600910643643 0.06488622447883119 -0.9654688404302336
0.7683975178740414 -0.459481241043399 0.9898560985375618
-0.2920794194626712 0.6118297384769588 -0.7696500283677568
-0.2441330685639188 0.6813910727811355 -0.6858801268427426
-0.196491586669421 0.5941895047095593 -0.5983082041257912
0.7433172291178475 0.2614118405268149 0.989792253490729
-0.3210094752376231 0.710241156221157 -0.8006529132741336
0.2566775166545855 0.548607363025743 0.7146229962797392
0.3087647302273256 0.4858998329830544 0.7954486906319724
0.2183661421438245 0.4746743328975875 0.6454721570097071
0.3453399444532113 0.5867161370453997 0.8384464921934293
-0.7788627225386456 -0.2679743983720378 -0.991785013079341
-0.7089370061921371 -0.205375951280949 -0.9870264295120611
-0.6697665736730039 -0.2770356327182575 -0.9832709711161259
-0.7780091753865046 -0.1823397547039828 -0.9917828463197714
-0.6224657261944777 0.1632808603598934 -0.9767350952747836
0.5622378151000949 -0.7170521061035289 0.9530894186024883
0.5265608348434567 -0.6401037984399638 0.9471817823504394
0.620615310602017 -0.6486996535386712 0.969811066072604
0.7355318414479601 0.1840224820627052 0.9892768695503714
0.7775331963315839 0.1154169856331409 0.9919596743541106
-0.2129357192693959 -0.4413070510277897 -0.6346354854866391
-0.2489931929642787 -0.5549273074710962 -0.7045320528880035
-0.312533859271204 -0.4527679935972281 -0.8020553613070107
-0.3615844232202023 -0.5485201949764886 -0.8549132196139121
-0.5517362628213353 -0.2729551631775157 -0.9616580411291358
-0.6114871246557462 -0.3620669219578091 -0.9747373024671406
-0.6220347962285386 -0.1940244883700643 -0.9766611674957467
-0.6345249005940541 0.3189159017294787 -0.9785715007568802
-0.6914890579977562 0.3748788961044526 -0.9846086825139474
0.2022358889339659 0.3050660028681875 0.6144124211603638
0.1112119693567997 0.3035928904235892 0.37270083114652547
-0.03585667197034575 -0.3688563956658111 -0.1252955868122784
0.04038816816962035 -0.4366786255168088 0.1406311507062354
-0.04880520572763306 -0.4824491119374575 -0.16884996228329402
-0.6894730733661563 0.4592039975804648 -0.98399243969502
-0.338909781545636 0.7892575649401611 -0.8107190560534044
-0.2532654619863424 0.7822033497415635 -0.6937896356218155
-0.2037882521593002 0.05546330543571018 -0.6161092725680605
-0.116066611156336 0.02489157364256656 -0.3867416282392457
0.6744806508033333 0.6137243299472777 0.9787892449158112
0.6228172843569528 -0.1179261005198635 0.9768719537719172
0.70513855214613 -0.2012185609471375 0.987198022898262
0.585921774892991 -0.2084560804842102 0.9701393367828626
0.7231500830979037 -0.1009276374875625 0.9885663853956687
-0.6658377994614632 -0.6038143516609621 -0.9780758432679201
-0.7389253622143996 -0.546779616314341 -0.9859583661614065
-0.09789627814148451 0.8427783611252733 -0.3138302896448851
-0.310979150947987 -0.7314466746423058 -0.7891562450264044
-0.3681978543193525 -0.8317889438334826 -0.8335471767425251
-0.03391471221140277 -0.01120435923700244 -0.11752805915664755
-0.0266517965284471 0.1142257534874064 -0.0930044089387894
0.05549313875200451 0.01751060241077973 0.19276386058902611
0.3620474907633556 0.4202912774135686 0.855325622448267
0.4037979588383345 0.4963920799125295 0.8906173895941447
-0.1952439825165135 -0.7566474364694233 -0.5824788628958925
-0.01256114508671016 -0.6350036100483983 -0.04282049148121139
0.07771017017051518 -0.656929145514262 0.2628753208154768
-0.1987366738200758 -0.05018621970029311 -0.6053671030313157
-0.2647318783371554 -0.114912292192734 -0.7320543719975869
-0.2895010103847957 -0.01645547938647296 -0.7736613717061669
0.4463150248515293 0.4141240051318559 0.918769198758193
0.3867805023614788 0.3385533994412352 0.8805847774623635
0.2417592681082477 -0.6538995340418114 0.6842002227369742
0.331257011053095 -0.632732638913428 0.8187998852754397
0.2933499197440139 -0.7225242714627041 0.7640861036846025
0.224331561434992 0.2126988426830647 0.6579042175680174
0.2989471342734291 0.1652793249805335 0.7846258910392196
0.2011371287302558 0.1230960168082434 0.6132511248369817
0.8013847844951338 -0.2485259787577682 0.9928072415649527
0.2232456944870947 -0.8894127454185503 0.6143889845194411
0.08663100633606907 0.1253697013392126 0.2972487461215169
0.008117817422639673 -0.2794593228567087 0.028796472752675224
0.04012798838015247 -0.3476272588853522 0.1400862928592503
0.2641367895229864 -0.5667730723560438 0.7286839925821379
-0.4588998448996793 -0.5605683891712653 -0.9234692259802835
-0.5701392809633988 -0.5642659889484243 -0.9635148945848065
-0.5039127256402228 -0.4835946032572784 -0.9441986437902615
-0.1191389642944812 0.9199388608690819 -0.35997110995959886
0.2970399725063696 0.07598296798710844 0.7834215098649804
-0.5873414969937371 -0.4552479491375019 -0.9688661382701382
0.9242803418738583 -0.01284434826552765 0.9963685531800739
0.8325711383441149 -0.08158974552266687 0.9943481399769153
0.8147761991228389 0.02499175794114716 0.993680436888302
0.2139253757266162 -0.5097598867177424 0.6341420801131262
-0.3823235261949641 0.4589880247598556 -0.8743688398315627
-0.4798109155286939 0.5097441542903186 -0.9350043161988932
-0.381913903087361 0.5688152383559658 -0.8719315236884655
-0.0580898963481996 -0.9051851782026351 -0.1846762872460445
-0.3820281631525191 0.6538284847440747 -0.8668745469984542
0.4689296752397605 -0.02571593342603251 0.9313643670689972
0.3916503800723303 0.03913044717894007 0.8837632942923684
0.4671537041488674 0.09376633968292775 0.9305662537820736
0.1665232354265069 -0.8146466880450508 0.5047767140637102
0.2618636879608754 -0.803767724825043 0.7046970949505852
0.4385462179371955 -0.6041889291317699 0.9113098727147413
-0.1173360956307009 -0.4216355429489245 -0.390908734808502
-0.188360302669568 -0.3469163314361465 -0.5800315101121745
0.09262378919862235 0.5538255595377679 0.31186459798343596
0.0452805962647089 0.6395030863863198 0.15439273570901219
-0.7936102988539986 0.4678007663373938 -0.9905543860633731
-0.7425100481954706 0.5408109932279823 -0.9864510666352495
-0.09770338221154579 -0.09564113370349642 -0.3331637738113492
-0.2026925178915109 -0.1685476568512181 -0.6154521636884959
-0.01195940577982263 0.5492932000894826 -0.04284746830424177
-0.1190135538830252 -0.1772496808354178 -0.39372734723104047
0.3802439413756266 -0.04954583489583783 0.8729499813155798
0.07781429555712707 0.7296124130553091 0.2604264863807444
0.08501306266950273 0.8109785344599054 0.2776716556599399
0.5568208988658705 0.03189631797025497 0.9630651476248403
0.2763625560698862 0.3826366302165901 0.7527226278734389
0.5601097232326512 -0.3808807206087595 0.9632743066227966
0.6559974409353941 -0.4183733404799816 0.9804995016270873
0.5921836573415171 -0.4694471840570334 0.9692456303342777
0.5615349739983928 -0.05644038670006593 0.9638238189978895
-0.3119294914167758 -0.1912174091939676 -0.8034781811188655
0.4689239311292943 0.5893854328343808 0.9282704899465128
0.5819599671628881 0.5521043022510824 0.9663216521604698
0.5134097375150447 0.4852482444948379 0.947962037547648
-0.1664792685489162 0.7047300813605678 -0.5173369456704378
-0.06763090645071834 0.6306151611390705 -0.23441024226465884
-0.08026352321975569 0.7415709203153481 -0.2667233516385507
0.187233236803408 -0.7131503738558225 0.568242307438614
-0.508510920906333 -0.1818289276273835 -0.9484529209527741
-0.4488939457615307 -0.273791180920646 -0.921011396099692
-0.1410300503587644 -0.5145434494444127 -0.4584378415379616
0.600156171745962 0.4645502463834218 0.9709865569686658
0.5593131400927792 0.6406278587723341 0.957376732340164
0.6416400768038432 0.3076909020094418 0.979636442244321
0.5364920721669336 0.2534784401509746 0.95772847003222
0.5542233712869042 0.3750878637765094 0.9620869543973621
0.1415161935306813 0.2158345949958755 0.46075825705019774
0.5645242783534102 0.1381923672597281 0.9652946221601545
0.4572381981113797 0.1790528212959371 0.9257854923310203
0.3186555561350219 0.2671788423410694 0.8127643464371684
-0.4093671820041967 -0.4575440008942628 -0.8953676524663081
-0.3680409168654968 -0.3529087522192967 -0.8650737598394891
-0.2753359189409326 -0.3634337455514842 -0.748690545464787
-0.4923255236024885 -0.3787919880874088 -0.9427281647621745
0.415159127634386 -0.1168879297816188 0.900647286474892
0.0129187503490476 0.2993684252185955 0.04500633728844518
0.04355821733468118 0.2133218458794599 0.15209201953123527
0.3730232489260816 0.1266266504898 0.8678180744859381
0.3070181476897249 -0.00567505583300873 0.7950616415531278
0.3200936082092755 -0.1078480025792937 0.811948921472909
-0.07385623725430543 -0.270865494496725 -0.2537436153756545
-0.09989468421869513 -0.3414285816031429 -0.33674327361986156
-0.1584156434195034 -0.2706687882698198 -0.5072459355899263
-0.03879567322815858 -0.1846494857047605 -0.13416428346121584
0.04298500875927785 -0.2034034272834585 0.1501399628621515
-0.394781055162964 -0.04302857322682907 -0.8864282607114807
-0.4925892772644598 -0.0749475277726192 -0.9415800470529027
-0.7203506961768539 0.1876121702623792 -0.9880789206749053
-0.7872072709848114 0.1058965396607134 -0.9925463349821647
-0.8171616030701183 0.2151973729685485 -0.9934781182024176
-0.8975538570603205 0.149578502923131 -0.9957823237615737
-0.9030416306228948 0.05498643021120733 -0.9960247320589074
-0.5620492284826503 0.5600308789529036 -0.9607957907596105
-0.5863299591762176 -0.102324094409273 -0.9701256784040923
-0.2923242899064724 0.5265757531412668 -0.7750744438669883
-0.204112144067779 0.4757010817880112 -0.615155710469361
-0.2939389641443112 0.4467733054366966 -0.7755128813573497
-0.2676399323802355 -0.2796523307312724 -0.7406164074527508
-0.2348073467028159 0.3845767324516001 -0.6806231841469563
0.02580196901666043 -0.1021246566580548 0.09208509034402763
-0.3100864190975695 -0.6280594205712785 -0.7917566303853572
-0.2281451537672974 -0.6571113352581169 -0.6595160041738816
-0.1631653662680464 -0.5951246425745785 -0.511949580093151
0.7294253469838452 -0.2923759441457596 0.988517522017236
0.633325685225381 -0.30295843894355 0.9784420555310586
0.7464318494669634 -0.02336767653886634 0.9901151538111356
0.3054965550487183 -0.8802578011289769 0.7502410360217864
0.7875503910299595 -0.1629765723675086 0.9923767191054796
-0.4064823582994787 0.8360970186855673 -0.8645121010138014
0.2353099178785492 0.8339357551127689 0.6502233958345117
0.2393676920078047 0.910730434537484 0.6376007977669044
0.3087767767857208 0.8669160359081352 0.7589181771725592
0.1420899835196635 -0.05943918212617191 0.4651518395604342
0.2287283869781068 -0.1550642537138068 0.6722863552087576
0.3918073616063875 -0.7070463178855422 0.8713649347851496
-0.741786244971164 -0.3624510641040469 -0.9893731610261632
-0.8511649030481747 -0.3303311794453072 -0.9940533911793611
0.2213772587561627 0.01597329771105765 0.6533584601292405
0.138728963341376 0.03802656064501567 0.45176613523686665
0.1575356085610541 0.8879571288422263 0.4696554553025672
0.7659377073986109 0.4635264317162796 0.9895700711593008
0.8311025273139803 0.3879201092521714 0.9928720372782707
0.7468660346278303 0.3566212060971975 0.9895038130868006
0.23937077255078 -0.05959546562211823 0.6879271430640503
-0.1083337793235505 -0.6741891088127553 -0.3590298617692416
0.6623734852697452 0.4076786065088101 0.9815918395340769
-0.1576066264542501 0.7923375889386521 -0.4842538257244408
-0.4310804505716495 -0.123972636830626 -0.9101047471713106
-0.4052568497514257 -0.1952325755828035 -0.8942216349399794
-0.05220797479364611 0.4712459538411159 -0.18056102612893704
-0.7654286248002649 -0.4708197741561551 -0.98936961649316
-0.8213856991238748 -0.4162971984650301 -0.9922658023021572
-0.4251722868472662 0.7353131822437382 -0.8938462004495822
-0.4834556081324004 0.6295398039220137 -0.9328946510462041
-0.5416314699609507 0.7181594832493227 -0.9477237845352127
-0.3497816227294909 -0.1139976626853795 -0.845205401324356
-0.004622005052357714 0.7059855610378076 -0.016572130265569023
0.8412689618288219 -0.4150113552061356 0.9927531882592094
0.7200550035233314 -0.3648053961403412 0.9873851406389094
-0.8978662476927104 0.2271588110453477 -0.9954319597410739
-0.4306264422471949 0.320476357883927 -0.9099486140609775
-0.4707092047442034 0.2364796677192675 -0.9325463413263975
-0.1101920042341248 0.522619818526382 -0.3677804463116036
-0.4154425867743424 0.1377461256776963 -0.9005541812671521
-0.5218006812996407 0.1460659070493914 -0.9527376417425956
0.3762554576852826 0.200237665584923 0.8700829373554118
-0.3578785686837233 0.2344107613562909 -0.854502223576044
0.5149426368022372 -0.4476718258021321 0.9483580337428849
-0.66258793750326 0.2444916793060079 -0.9821510000952433
-0.753999479946215 0.3041341414648202 -0.9903822336670534
-0.07382337045453655 -0.5717893336978158 -0.2510333382797623
-0.5767522721921216 0.247125571518527 -0.9677581602009963
-0.3992735738074731 -0.6460455585340894 -0.882408565481465
0.6775626852941385 0.5053956794973431 0.9818739974605775
0.5136475640471388 -0.2826734152870733 0.949608922558952
-0.7003276820713049 -0.115618041953414 -0.9867690057981598
-0.6670059234470989 -0.5127883162540492 -0.9807207482231242
0.5594982445090176 0.7404147218038296 0.9499198919160157
0.6399033538621122 0.6911676608676662 0.9695693269862622
0.7495487484050816 0.5544219769955778 0.9864457275352841
-0.6097840673676029 -0.677594859748696 -0.9665168315931736
-0.6974913970729203 0.6126979086451937 -0.9806547185253707
0.1064686906491682 -0.7454307669749678 0.3441909115266393
0.4662833514634992 -0.7742514513881842 0.9123009893253047
-0.4960690074691771 0.794374542226228 -0.9217993878887372
0.3491458206094108 -0.3063344214034326 0.8446730980865078
0.3510059144246616 -0.193227237224427 0.8498892107389213
0.4240003245274387 -0.2694086393544463 0.9055581269431318
-0.673023449618228 -0.4325572930920339 -0.9822713564760434
0.646858632134606 0.2144276351757474 0.9805217198295062
-0.8278980624258498 0.01041346689628245 -0.994040798544475
0.2602010565583059 -0.2574539814455603 0.725412961812344
0.4246975079372474 0.2612034695494176 0.9081673290250384
-0.3674762094789088 -0.2626758718712677 -0.8623895404496528
0.4673051176975558 -0.2003269056246602 0.9316948074558751
0.5127537781821909 -0.1308466172132098 0.9495523096769234
0.4437150585680915 -0.4860818703910802 0.9165688474069686
0.44910455400812 -0.3679614350485552 0.921606965628818
0.4711597643809992 -0.6890020935105632 0.9218745434818992
0.1823433589096873 0.558926319963495 0.5629390860473666
0.4715093075741663 0.3280297774452376 0.9320121643134837
-0.2664068186063316 0.2128569361143945 -0.7349081740499016
-0.6108664173883225 0.6483769873585408 -0.9688565488595685
-0.8703843568406053 -0.2158709837625005 -0.9951078819710875
-0.4474007811436546 0.4040654859726693 -0.9199577533120742
-0.3432269747448207 0.3553156901846451 -0.8394451217715232
-0.6485730166786337 0.5508530511699183 -0.977344584367699
-0.8305681666999377 0.3878347280118777 -0.9928517805796812
0.9198447158164628 -0.1144615849819647 0.9961190129384685
0.5454460548413511 -0.548203753098507 0.9580116877483885
-0.8637539269266468 0.3022744594391265 -0.9944783440882464
-0.7588339190583657 0.3947128744944104 -0.9896221033697937
