time = 0.2505
x y u
1.0 0.0 0.996687241393978
0.0 1.0 0.0010466334333833023
-1.0 0.0 -0.9967707235320432
0.0 -1.0 -0.0010065396717017542
0.9951847266502585 0.09801714055230534 0.9967216251128812
0.980785280303826 0.1950903225158687 0.996218105836594
0.9569403355024331 0.2902846780119318 0.9956109280650826
0.9238795320817892 0.3826834334019886 0.9944421268176417
0.8819212636904032 0.4713967380569389 0.9926058378114389
0.8314696113679687 0.5555702344182949 0.9894012087933923
0.7730104520841969 0.6343932857215511 0.9842792453225201
0.7071067795733449 0.7071067827997501 0.9753230134968307
0.634393282646958 0.7730104546074502 0.9603253077011077
0.5555702316245595 0.8314696132346829 0.9350177530623408
0.471396735522105 0.8819212650453002 0.8926144978784952
0.3826834312318057 0.9238795329807084 0.8194448688595525
0.2902846763682919 0.9569403360010258 0.7014216852377927
0.1950903214145686 0.980785280522888 0.5257526291535095
0.0980171400302339 0.995184726701678 0.2856415988346255
-0.09801714055230534 0.9951847266502585 -0.28341197150018776
-0.1950903225158687 0.980785280303826 -0.5239593701607415
-0.2902846780119318 0.9569403355024331 -0.7033847699633218
-0.3826834334019886 0.9238795320817892 -0.8199311262894563
-0.4713967380569389 0.8819212636904032 -0.8914378781891479
-0.5555702344182949 0.8314696113679687 -0.9349897018555833
-0.6343932857215511 0.7730104520841969 -0.9609573694680841
-0.7071067827997501 0.7071067795733449 -0.975763928677511
-0.7730104546074502 0.634393282646958 -0.9841521921238197
-0.8314696132346829 0.5555702316245595 -0.9893538571106558
-0.8819212650453002 0.471396735522105 -0.9924781501193177
-0.9238795329807084 0.3826834312318057 -0.9943906974177683
-0.9569403360010258 0.2902846763682919 -0.9955396233080831
-0.980785280522888 0.1950903214145686 -0.996226352124769
-0.995184726701678 0.0980171400302339 -0.9966499500751881
-0.9951847266502585 -0.09801714055230534 -0.996649450158814
-0.980785280303826 -0.1950903225158687 -0.9963200235001601
-0.9569403355024331 -0.2902846780119318 -0.9956875677379786
-0.9238795320817892 -0.3826834334019886 -0.9944881734971842
-0.8819212636904032 -0.4713967380569389 -0.9925908621283859
-0.8314696113679687 -0.5555702344182949 -0.9893689904677243
-0.7730104520841969 -0.6343932857215511 -0.9843377817395866
-0.7071067795733449 -0.7071067827997501 -0.9757131225402363
-0.634393282646958 -0.7730104546074502 -0.9607733751201788
-0.5555702316245595 -0.8314696132346829 -0.9343325120274105
-0.471396735522105 -0.8819212650453002 -0.8941060305525722
-0.3826834312318057 -0.9238795329807084 -0.8210810465275047
-0.2902846763682919 -0.9569403360010258 -0.6995268803373562
-0.1950903214145686 -0.980785280522888 -0.5224207080417296
-0.0980171400302339 -0.995184726701678 -0.28431187034517924
0.09801714055230534 -0.9951847266502585 0.2823061269678695
0.1950903225158687 -0.980785280303826 0.5238738792906613
0.2902846780119318 -0.9569403355024331 0.7018185496191108
0.3826834334019886 -0.9238795320817892 0.818547024305733
0.4713967380569389 -0.8819212636904032 0.8932679592092596
0.5555702344182949 -0.8314696113679687 0.9356145715777973
0.6343932857215511 -0.7730104520841969 0.9606695499943985
0.7071067827997501 -0.7071067795733449 0.9753927945507649
0.7730104546074502 -0.634393282646958 0.9839769827587598
0.8314696132346829 -0.5555702316245595 0.9893288253619039
0.8819212650453002 -0.471396735522105 0.9925668552615826
0.9238795329807084 -0.3826834312318057 0.9945426500223827
0.9569403360010258 -0.2902846763682919 0.9955745720407223
0.980785280522888 -0.1950903214145686 0.9962504514274789
0.995184726701678 -0.0980171400302339 0.9966119036375883
0.06552618461083977 0.9057377714856804 0.20626956036551383
0.0009658478707639528 0.8082839589324874 0.003223363860304569
-0.03563479443557092 0.9112699032402481 -0.11274723288174546
0.1705501613218224 0.3885435209979023 0.5381390659264041
0.07749848355575648 0.3839529713357623 0.2653772140914403
0.1354683803138475 0.4802646235647384 0.4414237732377808
0.8091534979619077 -0.3498338276956917 0.992492900466929
0.8761488976398296 -0.2920528184820896 0.9946511089946521
0.3928520302405717 0.739421913369157 0.8677307330841054
0.390862111607076 0.826784721731137 0.8530859040001746
0.4706392323831502 0.7995821775339277 0.908679397479949
-0.1671534257012969 -0.861031256595044 -0.4963884433573097
-0.1472004487571584 -0.9293006283903719 -0.42834378140344714
-0.2291546067366331 -0.9057590479853773 -0.6154287355229489
0.04443964555371138 -0.8297432355039205 0.14508858791127568
-0.08647848633032065 -0.7919720560210205 -0.2817545761910377
0.002949429735350617 -0.7224034569650436 0.009124944804503014
-0.9159439419782547 -0.1363627745619546 -0.9960308273433839
-0.9120453529033316 -0.03785489360559663 -0.9961464668627659
-0.8276510465252657 -0.09986756375347056 -0.9942434684484319
0.915014437206204 0.2334960575511707 0.9956256813171581
0.9197156963303307 0.1593782649750047 0.9959726655661522
0.8354556074390631 0.1990069420324746 0.9941617832357353
0.8800406571083854 0.0979835585748042 0.9955190554720487
0.8835420305079577 -0.1949559811788893 0.9953868242406751
-0.6027187895153931 0.397423524644637 -0.9719883672905066
-0.5286165585531164 0.43293243761198 -0.9531093717120156
-0.5192434336913361 0.346360696234612 -0.9514236215250332
0.7487708503765604 -0.5608010075175269 0.9857287085840974
0.7026085732077084 -0.6186002110760725 0.9802004272663124
0.6625910815249183 -0.5329060386604836 0.9795356176395345
-0.6722398760263044 0.08724301746076168 -0.9836355993366701
-0.6379360263534364 -0.01620182412990168 -0.9790159499590663
-0.7416530156479154 -0.004529378279480689 -0.9898106540220174
0.1939957927869305 -0.3322420674664666 0.5945656754945529
0.09978748736422188 -0.2793614465380631 0.3383163287062382
0.1835895554435892 -0.2390327161071967 0.5684878453573222
0.1429368352963134 0.6471462450966345 0.4577008153412258
0.1786620957539817 0.7564304321587789 0.54275490554554
0.2469884988852143 0.6484307295709116 0.6953558168112062
-0.02113036057523304 0.386766388722246 -0.0746360111788168
-0.09216904982197138 0.3125073730015363 -0.31202862217514343
-0.1279036861172251 0.4100171364045232 -0.42244392053422675
-0.5058683233328958 -0.6614244495156111 -0.9391063736908406
-0.4272922966573793 -0.7554237730069829 -0.8913406725941125
-0.5358317214702379 -0.76373689139192 -0.9401559078846489
0.04244083864825746 0.4579316643061421 0.1465308042258622
0.3670445767536096 -0.8120994659282762 0.8360613101894534
0.1204274262853011 -0.1713938269462733 0.40094387817675137
-0.2272538206354917 0.1497893649503071 -0.66487644801957
-0.1784366239384174 0.2417307549888433 -0.5585594654319483
-0.1347051056309508 0.1406821838288882 -0.4408799756462662
-0.0647848971661478 0.2203616240784709 -0.22366513534414723
-0.1768463905696754 0.3240651375192173 -0.5509751130347478
-0.2615692721715053 0.2941702236424231 -0.7282680441647501
0.04938431708249591 -0.9203201733482986 0.15284692086502363
0.1288179709347257 -0.9047809654379212 0.38745138633159637
0.3250756557072815 0.6737002540830214 0.8057592251647394
0.296166569528528 0.7642124575644593 0.7628176655915926
0.476598721648909 0.7003067623379137 0.9226968419256939
0.4018364173601097 0.659419599663026 0.8801943313341248
0.2061171887432966 -0.4245189941420744 0.6203305103720529
0.1169179858110916 -0.3837103798320143 0.3885634787027145
0.6798586560627238 0.1289428788813137 0.9846268802422673
0.715627768804681 0.05067023207237525 0.9878226223973585
0.63686945551448 0.07050857920826473 0.978780839471145
-0.2814035458951537 0.07583894900119312 -0.7579594743149165
-0.366348314202278 0.04813560997364319 -0.8617149536965587
-0.3197618236042906 0.142155110429131 -0.8114177249011679
0.1643347326838814 -0.5903484285438858 0.5179799922284195
0.0409293046564275 -0.549018253913978 0.143326144837549
0.1284908304794872 -0.4815299934442652 0.4207450372048386
-0.5856132037594565 0.4854424697004757 -0.9678803483688002
0.286668511775877 -0.4734388327234783 0.7647296884181882
0.359800291436233 -0.4146288197003217 0.8539552081323182
0.3521158413854494 -0.5323502512238755 0.8439830959089781
0.8505805575676916 0.301166891393902 0.9942271413981575
-0.279136511503117 -0.8540047582596174 -0.720858602657675
-0.3138815085924474 0.8622059066284703 -0.7662943125269603
-0.2043736994345109 0.8787968496588404 -0.5794733502882743
0.6436616138062179 -0.01465383803431389 0.9800375604817488
0.2820749820735164 -0.3657163619792454 0.7596586491994252
-0.4783254394140464 0.03246326158889518 -0.9364689670773573
-0.5562071565774052 -0.02963006144471264 -0.962585692602064
-0.5664600910643643 0.06488622447883119 -0.9654864903833633
0.7683975178740414 -0.459481241043399 0.9896722307762278
-0.2920794194626712 0.6118297384769588 -0.768380506314677
-0.2441330685639188 0.6813910727811355 -0.6842420806824138
-0.196491586669421 0.5941895047095593 -0.597167445377801
0.7433172291178475 0.2614118405268149 0.9897432000577326
-0.3210094752376231 0.710241156221157 -0.7989128460113966
0.2566775166545855 0.548607363025743 0.7135959230859569
0.3087647302273256 0.4858998329830544 0.7947291395699859
0.2183661421438245 0.4746743328975875 0.6447712493045886
0.3453399444532113 0.5867161370453997 0.8373355007077771
-0.7788627225386456 -0.2679743983720378 -0.99173673518137
-0.7089370061921371 -0.205375951280949 -0.9870026909180132
-0.6697665736730039 -0.2770356327182575 -0.9832144095771094
-0.7780091753865046 -0.1823397547039828 -0.9917608053668766
-0.6224657261944777 0.1632808603598934 -0.9767241254168926
0.5622378151000949 -0.7170521061035289 0.9520691892004952
0.5265608348434567 -0.6401037984399638 0.9462993149518565
0.620615310602017 -0.6486996535386712 0.9691337996664882
0.7355318414479601 0.1840224820627052 0.9892564586869492
0.7775331963315839 0.1154169856331409 0.9919495386704871
-0.2129357192693959 -0.4413070510277897 -0.634076822469321
-0.2489931929642787 -0.5549273074710962 -0.7035097298918529
-0.312533859271204 -0.4527679935972281 -0.8014765954596595
-0.3615844232202023 -0.5485201949764886 -0.8540228544830146
-0.5517362628213353 -0.2729551631775157 -0.961590984861133
-0.6114871246557462 -0.3620669219578091 -0.9745969331506129
-0.6220347962285386 -0.1940244883700643 -0.9766469037045297
-0.6345249005940541 0.3189159017294787 -0.9784697576132764
-0.6914890579977562 0.3748788961044526 -0.9844723386739478
0.2022358889339659 0.3050660028681875 0.6142204042013767
0.1112119693567997 0.3035928904235892 0.3725703613652666
-0.03585667197034575 -0.3688563956658111 -0.12517139228441446
0.04038816816962035 -0.4366786255168088 0.14048988907507903
-0.04880520572763306 -0.4824491119374575 -0.16861468829642556
-0.6894730733661563 0.4592039975804648 -0.983765089584279
-0.338909781545636 0.7892575649401611 -0.8086402749058061
-0.2532654619863424 0.7822033497415635 -0.6916043762120885
-0.2037882521593002 0.05546330543571018 -0.616066257132329
-0.116066611156336 0.02489157364256656 -0.386667381141853
0.6744806508033333 0.6137243299472777 0.9782966026522659
0.6228172843569528 -0.1179261005198635 0.9768818668975947
0.70513855214613 -0.2012185609471375 0.9871739518337694
0.585921774892991 -0.2084560804842102 0.970116656087962
0.7231500830979037 -0.1009276374875625 0.9885652700979113
-0.6658377994614632 -0.6038143516609621 -0.9776001685081239
-0.7389253622143996 -0.546779616314341 -0.9856634041726847
-0.09789627814148451 0.8427783611252733 -0.31237124100764196
-0.310979150947987 -0.7314466746423058 -0.7872767408043503
-0.3681978543193525 -0.8317889438334826 -0.8314078820126425
-0.03391471221140277 -0.01120435923700244 -0.11742855669612326
-0.0266517965284471 0.1142257534874064 -0.09291605417946576
0.05549313875200451 0.01751060241077973 0.19287054305771867
0.3620474907633556 0.4202912774135686 0.8548826340356631
0.4037979588383345 0.4963920799125295 0.8899813023088103
-0.1952439825165135 -0.7566474364694233 -0.5805702616471385
-0.01256114508671016 -0.6350036100483983 -0.04277418531930551
0.07771017017051518 -0.656929145514262 0.2620195799327596
-0.1987366738200758 -0.05018621970029311 -0.6053215618094315
-0.2647318783371554 -0.114912292192734 -0.7320171206065457
-0.2895010103847957 -0.01645547938647296 -0.7736541112280613
0.4463150248515293 0.4141240051318559 0.9184242512423616
0.3867805023614788 0.3385533994412352 0.8803613516636759
0.2417592681082477 -0.6538995340418114 0.6826205012668067
0.331257011053095 -0.632732638913428 0.8174228800311839
0.2933499197440139 -0.7225242714627041 0.762150755030431
0.224331561434992 0.2126988426830647 0.6578624886511645
0.2989471342734291 0.1652793249805335 0.7846318217983796
0.2011371287302558 0.1230960168082434 0.6132988909082483
0.8013847844951338 -0.2485259787577682 0.992761102781493
0.2232456944870947 -0.8894127454185503 0.6117656613862859
0.08663100633606907 0.1253697013392126 0.2973173589899967
0.008117817422639673 -0.2794593228567087 0.028851079382642714
0.04012798838015247 -0.3476272588853522 0.14004383543468774
0.2641367895229864 -0.5667730723560438 0.7275615207726847
-0.4588998448996793 -0.5605683891712653 -0.9227224019302331
-0.5701392809633988 -0.5642659889484243 -0.9629742872570827
-0.5039127256402228 -0.4835946032572784 -0.9437562717749339
-0.1191389642944812 0.9199388608690819 -0.3581593623326437
0.2970399725063696 0.07598296798710844 0.7834800928694379
-0.5873414969937371 -0.4552479491375019 -0.9685762354216837
0.9242803418738583 -0.01284434826552765 0.9963505147194262
0.8325711383441149 -0.08158974552266687 0.9943349759304538
0.8147761991228389 0.02499175794114716 0.9936727403100959
0.2139253757266162 -0.5097598867177424 0.6333075506719201
-0.3823235261949641 0.4589880247598556 -0.8738445106029601
-0.4798109155286939 0.5097441542903186 -0.9344574796615525
-0.381913903087361 0.5688152383559658 -0.8710022622635833
-0.0580898963481996 -0.9051851782026351 -0.18384064965904845
-0.3820281631525191 0.6538284847440747 -0.8655654818108393
0.4689296752397605 -0.02571593342603251 0.9314133764772278
0.3916503800723303 0.03913044717894007 0.883819234603404
0.4671537041488674 0.09376633968292775 0.9306020399524029
0.1665232354265069 -0.8146466880450508 0.5026297876493722
0.2618636879608754 -0.803767724825043 0.7023224353957694
0.4385462179371955 -0.6041889291317699 0.9103318165702419
-0.1173360956307009 -0.4216355429489245 -0.3905306581814991
-0.188360302669568 -0.3469163314361465 -0.5797274874235513
0.09262378919862235 0.5538255595377679 0.31121378149307216
0.0452805962647089 0.6395030863863198 0.1539092138071657
-0.7936102988539986 0.4678007663373938 -0.9903739219486483
-0.7425100481954706 0.5408109932279823 -0.9861571769234289
-0.09770338221154579 -0.09564113370349642 -0.33307319003402697
-0.2026925178915109 -0.1685476568512181 -0.6153694447075285
-0.01195940577982263 0.5492932000894826 -0.04282524986045248
-0.1190135538830252 -0.1772496808354178 -0.3936198297548744
0.3802439413756266 -0.04954583489583783 0.8730059897592797
0.07781429555712707 0.7296124130553091 0.25942736639453334
0.08501306266950273 0.8109785344599054 0.27642959505133446
0.5568208988658705 0.03189631797025497 0.9630997704523121
0.2763625560698862 0.3826366302165901 0.7523404863009773
0.5601097232326512 -0.3808807206087595 0.9630742603137641
0.6559974409353941 -0.4183733404799816 0.9802992512895544
0.5921836573415171 -0.4694471840570334 0.9689188545041704
0.5615349739983928 -0.05644038670006593 0.9638540145594784
-0.3119294914167758 -0.1912174091939676 -0.8034120453075713
0.4689239311292943 0.5893854328343808 0.9274308232819826
0.5819599671628881 0.5521043022510824 0.965813667927924
0.5134097375150447 0.4852482444948379 0.9475204741807579
-0.1664792685489162 0.7047300813605678 -0.5157882202016778
-0.06763090645071834 0.6306151611390705 -0.23382092879582358
-0.08026352321975569 0.7415709203153481 -0.26572887364397246
0.187233236803408 -0.7131503738558225 0.5664398127470696
-0.508510920906333 -0.1818289276273835 -0.948441977920416
-0.4488939457615307 -0.273791180920646 -0.9209151362988672
-0.1410300503587644 -0.5145434494444127 -0.45775802872756843
0.600156171745962 0.4645502463834218 0.9706805457407087
0.5593131400927792 0.6406278587723341 0.9565884450692174
0.6416400768038432 0.3076909020094418 0.9795512626086141
0.5364920721669336 0.2534784401509746 0.9576753029449817
0.5542233712869042 0.3750878637765094 0.9619003942040054
0.1415161935306813 0.2158345949958755 0.4607335953362983
0.5645242783534102 0.1381923672597281 0.9653076356722947
0.4572381981113797 0.1790528212959371 0.9257814837033252
0.3186555561350219 0.2671788423410694 0.812649110717793
-0.4093671820041967 -0.4575440008942628 -0.8948778074861512
-0.3680409168654968 -0.3529087522192967 -0.8648106946384309
-0.2753359189409326 -0.3634337455514842 -0.7483498777178129
-0.4923255236024885 -0.3787919880874088 -0.9425023937526891
0.415159127634386 -0.1168879297816188 0.9006801719080403
0.0129187503490476 0.2993684252185955 0.04500405207039939
0.04355821733468118 0.2133218458794599 0.15212050981329436
0.3730232489260816 0.1266266504898 0.8678467672090742
0.3070181476897249 -0.00567505583300873 0.7951332642918453
0.3200936082092755 -0.1078480025792937 0.8119956420308407
-0.07385623725430543 -0.270865494496725 -0.25360346024879904
-0.09989468421869513 -0.3414285816031429 -0.3365236891811349
-0.1584156434195034 -0.2706687882698198 -0.507066984289647
-0.03879567322815858 -0.1846494857047605 -0.13406285223793332
0.04298500875927785 -0.2034034272834585 0.1502016471616117
-0.394781055162964 -0.04302857322682907 -0.8864444006294279
-0.4925892772644598 -0.0749475277726192 -0.9416013747419462
-0.7203506961768539 0.1876121702623792 -0.9880541515025606
-0.7872072709848114 0.1058965396607134 -0.9925333480960673
-0.8171616030701183 0.2151973729685485 -0.9934405889923111
-0.8975538570603205 0.149578502923131 -0.9957541482119122
-0.9030416306228948 0.05498643021120733 -0.9960055178375837
-0.5620492284826503 0.5600308789529036 -0.960239383773265
-0.5863299591762176 -0.102324094409273 -0.9701400609808328
-0.2923242899064724 0.5265757531412668 -0.7742024099872464
-0.204112144067779 0.4757010817880112 -0.6145181726907842
-0.2939389641443112 0.4467733054366966 -0.774954601057914
-0.2676399323802355 -0.2796523307312724 -0.7404370871442505
-0.2348073467028159 0.3845767324516001 -0.6802420531210697
0.02580196901666043 -0.1021246566580548 0.09218752380443038
-0.3100864190975695 -0.6280594205712785 -0.7904164378524778
-0.2281451537672974 -0.6571113352581169 -0.6579982800536579
-0.1631653662680464 -0.5951246425745785 -0.510908058302493
0.7294253469838452 -0.2923759441457596 0.9884482322081364
0.633325685225381 -0.30295843894355 0.9783575168075338
0.7464318494669634 -0.02336767653886634 0.990117225886188
0.3054965550487183 -0.8802578011289769 0.7476538295427391
0.7875503910299595 -0.1629765723675086 0.9923557522243379
-0.4064823582994787 0.8360970186855673 -0.8624885146845525
0.2353099178785492 0.8339357551127689 0.6478489972229194
0.2393676920078047 0.910730434537484 0.6350291232812159
0.3087767767857208 0.8669160359081352 0.7564539898229334
0.1420899835196635 -0.05943918212617191 0.4652481312761069
0.2287283869781068 -0.1550642537138068 0.6723169916062115
0.3918073616063875 -0.7070463178855422 0.869783672027443
-0.741786244971164 -0.3624510641040469 -0.9892702244309591
-0.8511649030481747 -0.3303311794453072 -0.9939838230230944
0.2213772587561627 0.01597329771105765 0.6534434560109402
0.138728963341376 0.03802656064501567 0.45186026219803604
0.1575356085610541 0.8879571288422263 0.46749490057551396
0.7659377073986109 0.4635264317162796 0.9893822135447393
0.8311025273139803 0.3879201092521714 0.9927649752121542
0.7468660346278303 0.3566212060971975 0.9894000225800001
0.23937077255078 -0.05959546562211823 0.6880021873658357
-0.1083337793235505 -0.6741891088127553 -0.3579906053788247
0.6623734852697452 0.4076786065088101 0.981412304045721
-0.1576066264542501 0.7923375889386521 -0.48238477388490936
-0.4310804505716495 -0.123972636830626 -0.9101070813172816
-0.4052568497514257 -0.1952325755828035 -0.8941815968393247
-0.05220797479364611 0.4712459538411159 -0.18037046840626372
-0.7654286248002649 -0.4708197741561551 -0.9891824685237566
-0.8213856991238748 -0.4162971984650301 -0.9921439538731017
-0.4251722868472662 0.7353131822437382 -0.8923026073609098
-0.4834556081324004 0.6295398039220137 -0.9319593831561764
-0.5416314699609507 0.7181594832493227 -0.9466519815999508
-0.3497816227294909 -0.1139976626853795 -0.8451958215500248
-0.004622005052357714 0.7059855610378076 -0.01654373655496454
0.8412689618288219 -0.4150113552061356 0.9926292756305024
0.7200550035233314 -0.3648053961403412 0.9872639351046072
-0.8978662476927104 0.2271588110453477 -0.9953897714109822
-0.4306264422471949 0.320476357883927 -0.9097734525111579
-0.4707092047442034 0.2364796677192675 -0.9324828079934325
-0.1101920042341248 0.522619818526382 -0.36723399828379993
-0.4154425867743424 0.1377461256776963 -0.9005456566080735
-0.5218006812996407 0.1460659070493914 -0.952734762338765
0.3762554576852826 0.200237665584923 0.8700574546665616
-0.3578785686837233 0.2344107613562909 -0.8544134920253026
0.5149426368022372 -0.4476718258021321 0.9479977512068378
-0.66258793750326 0.2444916793060079 -0.9821026022836502
-0.753999479946215 0.3041341414648202 -0.990308831718562
-0.07382337045453655 -0.5717893336978158 -0.25054048755323133
-0.5767522721921216 0.247125571518527 -0.9677040145761558
-0.3992735738074731 -0.6460455585340894 -0.8811750683839567
0.6775626852941385 0.5053956794973431 0.9815750094791765
0.5136475640471388 -0.2826734152870733 0.9495208583048553
-0.7003276820713049 -0.115618041953414 -0.9867694043415073
-0.6670059234470989 -0.5127883162540492 -0.9804099439919868
0.5594982445090176 0.7404147218038296 0.9488319528104141
0.6399033538621122 0.6911676608676662 0.9688378765679249
0.7495487484050816 0.5544219769955778 0.9861407613340418
-0.6097840673676029 -0.677594859748696 -0.9657644071382956
-0.6974913970729203 0.6126979086451937 -0.9801991978590824
0.1064686906491682 -0.7454307669749678 0.34281227714511925
0.4662833514634992 -0.7742514513881842 0.9107225751812049
-0.4960690074691771 0.794374542226228 -0.9203084056243905
0.3491458206094108 -0.3063344214034326 0.8445031814287267
0.3510059144246616 -0.193227237224427 0.8498750735031969
0.4240003245274387 -0.2694086393544463 0.9054644259229332
-0.673023449618228 -0.4325572930920339 -0.9820750811047945
0.646858632134606 0.2144276351757474 0.9804961908405962
-0.8278980624258498 0.01041346689628245 -0.9940306398309431
0.2602010565583059 -0.2574539814455603 0.7253205036337055
0.4246975079372474 0.2612034695494176 0.9080830276311097
-0.3674762094789088 -0.2626758718712677 -0.8622710569750074
0.4673051176975558 -0.2003269056246602 0.9316753974275268
0.5127537781821909 -0.1308466172132098 0.949570237654896
0.4437150585680915 -0.4860818703910802 0.9160208481802606
0.44910455400812 -0.3679614350485552 0.9213659577872183
0.4711597643809992 -0.6890020935105632 0.9206457188163556
0.1823433589096873 0.558926319963495 0.5619263232216205
0.4715093075741663 0.3280297774452376 0.9318507976377706
-0.2664068186063316 0.2128569361143945 -0.7348112766024745
-0.6108664173883225 0.6483769873585408 -0.968171480021041
-0.8703843568406053 -0.2158709837625005 -0.9950740319111895
-0.4474007811436546 0.4040654859726693 -0.9196405502191347
-0.3432269747448207 0.3553156901846451 -0.8391645696527181
-0.6485730166786337 0.5508530511699183 -0.9769380350632592
-0.8305681666999377 0.3878347280118777 -0.9927418679441029
0.9198447158164628 -0.1144615849819647 0.996095698413624
0.5454460548413511 -0.548203753098507 0.9574466371455506
-0.8637539269266468 0.3022744594391265 -0.9944132337230742
-0.7588339190583657 0.3947128744944104 -0.9894897100308614
