time = 0.2805
x y u
1.0 0.0 0.9966789554812019
0.0 1.0 0.0010429526364660643
-1.0 0.0 -0.9967622751639279
0.0 -1.0 -0.0010814772424526241
0.9951847266502585 0.09801714055230534 0.9967119214862117
0.980785280303826 0.1950903225158687 0.9962034776715765
0.9569403355024331 0.2902846780119318 0.9955863340477171
0.9238795320817892 0.3826834334019886 0.9943998599966493
0.8819212636904032 0.4713967380569389 0.9925349166259649
0.8314696113679687 0.5555702344182949 0.9892846633173763
0.7730104520841969 0.6343932857215511 0.9840946648894918
0.7071067795733449 0.7071067827997501 0.9750384140891968
0.634393282646958 0.7730104546074502 0.9599037886653587
0.5555702316245595 0.8314696132346829 0.934419170831535
0.471396735522105 0.8819212650453002 0.8918102848800843
0.3826834312318057 0.9238795329807084 0.8184410676616246
0.2902846763682919 0.9569403360010258 0.7003070241580762
0.1950903214145686 0.980785280522888 0.5247315111353673
0.0980171400302339 0.995184726701678 0.28500467695095155
-0.09801714055230534 0.9951847266502585 -0.2827803136852377
-0.1950903225158687 0.980785280303826 -0.522933487067942
-0.2902846780119318 0.9569403355024331 -0.7022620449842608
-0.3826834334019886 0.9238795320817892 -0.8189276412241657
-0.4713967380569389 0.8819212636904032 -0.8906371076322782
-0.5555702344182949 0.8314696113679687 -0.9343948433309515
-0.6343932857215511 0.7730104520841969 -0.9605390183954886
-0.7071067827997501 0.7071067795733449 -0.9754820262868564
-0.7730104546074502 0.634393282646958 -0.9839681982422311
-0.8314696132346829 0.5555702316245595 -0.9892374488245963
-0.8819212650453002 0.471396735522105 -0.9924063897973762
-0.9238795329807084 0.3826834312318057 -0.9943472838759196
-0.9569403360010258 0.2902846763682919 -0.9955136788595242
-0.980785280522888 0.1950903214145686 -0.9962105356990044
-0.995184726701678 0.0980171400302339 -0.9966395633820221
-0.9951847266502585 -0.09801714055230534 -0.9966398632699381
-0.980785280303826 -0.1950903225158687 -0.9963060092745086
-0.9569403355024331 -0.2902846780119318 -0.9956640552808413
-0.9238795320817892 -0.3826834334019886 -0.9944480318085277
-0.8819212636904032 -0.4713967380569389 -0.992522987081228
-0.8314696113679687 -0.5555702344182949 -0.9892562881323977
-0.7730104520841969 -0.6343932857215511 -0.9841576968059981
-0.7071067795733449 -0.7071067827997501 -0.9754340663013729
-0.634393282646958 -0.7730104546074502 -0.9603573153517897
-0.5555702316245595 -0.8314696132346829 -0.9337433993636153
-0.471396735522105 -0.8819212650453002 -0.893310132859733
-0.3826834312318057 -0.9238795329807084 -0.8200918734767686
-0.2902846763682919 -0.9569403360010258 -0.6984482306702281
-0.1950903214145686 -0.980785280522888 -0.5214602939686351
-0.0980171400302339 -0.995184726701678 -0.283755322797722
0.09801714055230534 -0.9951847266502585 0.28160248187682313
0.1950903225158687 -0.980785280303826 0.52278633909949
0.2902846780119318 -0.9569403355024331 0.7006516461738228
0.3826834334019886 -0.9238795320817892 0.8175088421542598
0.4713967380569389 -0.8819212636904032 0.8924407451808364
0.5555702344182949 -0.8314696113679687 0.9350042740042571
0.6343932857215511 -0.7730104520841969 0.9602424672235842
0.7071067827997501 -0.7071067795733449 0.9751050425699185
0.7730104546074502 -0.634393282646958 0.983789513480771
0.8314696132346829 -0.5555702316245595 0.989210199825398
0.8819212650453002 -0.471396735522105 0.9924948891240319
0.9238795329807084 -0.3826834312318057 0.9944994143175058
0.9569403360010258 -0.2902846763682919 0.9955490466919146
0.980785280522888 -0.1950903214145686 0.9962352550452385
0.995184726701678 -0.0980171400302339 0.9966019312981399
0.06552618461083977 0.9057377714856804 0.2058242669540543
0.0009658478707639528 0.8082839589324874 0.0032105819256124024
-0.03563479443557092 0.9112699032402481 -0.1124972882311318
0.1705501613218224 0.3885435209979023 0.5379351089426853
0.07749848355575648 0.3839529713357623 0.265263763969063
0.1354683803138475 0.4802646235647384 0.4411301983209551
0.8091534979619077 -0.3498338276956917 0.9924464031753574
0.8761488976398296 -0.2920528184820896 0.9946216701710442
0.3928520302405717 0.739421913369157 0.8669882657686786
0.390862111607076 0.826784721731137 0.8521997060748758
0.4706392323831502 0.7995821775339277 0.9079740997362041
-0.1671534257012969 -0.861031256595044 -0.495527779540494
-0.1472004487571584 -0.9293006283903719 -0.42754126669685216
-0.2291546067366331 -0.9057590479853773 -0.6144113156319554
0.04443964555371138 -0.8297432355039205 0.14472963791237164
-0.08647848633032065 -0.7919720560210205 -0.28130069407660196
0.002949429735350617 -0.7224034569650436 0.009055309432870822
-0.9159439419782547 -0.1363627745619546 -0.9960197431719424
-0.9120453529033316 -0.03785489360559663 -0.9961384364695295
-0.8276510465252657 -0.09986756375347056 -0.9942352805004403
0.915014437206204 0.2334960575511707 0.9956063240869766
0.9197156963303307 0.1593782649750047 0.9959598705685723
0.8354556074390631 0.1990069420324746 0.994145471222967
0.8800406571083854 0.0979835585748042 0.9955100632476507
0.8835420305079577 -0.1949559811788893 0.9953704955560256
-0.6027187895153931 0.397423524644637 -0.9718804550603131
-0.5286165585531164 0.43293243761198 -0.9529468738117933
-0.5192434336913361 0.346360696234612 -0.9513239460312919
0.7487708503765604 -0.5608010075175269 0.9855749693010829
0.7026085732077084 -0.6186002110760725 0.9799802522534647
0.6625910815249183 -0.5329060386604836 0.97936070389872
-0.6722398760263044 0.08724301746076168 -0.9836295675580891
-0.6379360263534364 -0.01620182412990168 -0.9790146145231556
-0.7416530156479154 -0.004529378279480689 -0.9898070234773665
0.1939957927869305 -0.3322420674664666 0.5944323586636165
0.09978748736422188 -0.2793614465380631 0.33827925816756166
0.1835895554435892 -0.2390327161071967 0.5684433614953398
0.1429368352963134 0.6471462450966345 0.4571396657991338
0.1786620957539817 0.7564304321587789 0.5419286541632641
0.2469884988852143 0.6484307295709116 0.6946629615215641
-0.02113036057523304 0.386766388722246 -0.07461160085781444
-0.09216904982197138 0.3125073730015363 -0.31194331426881633
-0.1279036861172251 0.4100171364045232 -0.42226663891424737
-0.5058683233328958 -0.6614244495156111 -0.9386609179270519
-0.4272922966573793 -0.7554237730069829 -0.8906368868178212
-0.5358317214702379 -0.76373689139192 -0.9396152128824096
0.04244083864825746 0.4579316643061421 0.1464220151559953
0.3670445767536096 -0.8120994659282762 0.835129853616175
0.1204274262853011 -0.1713938269462733 0.4009556508915394
-0.2272538206354917 0.1497893649503071 -0.664824401031528
-0.1784366239384174 0.2417307549888433 -0.5584719033291864
-0.1347051056309508 0.1406821838288882 -0.44082541949458803
-0.0647848971661478 0.2203616240784709 -0.22361221717065646
-0.1768463905696754 0.3240651375192173 -0.5508384819894757
-0.2615692721715053 0.2941702236424231 -0.7281449176247271
0.04938431708249591 -0.9203201733482986 0.1524360442830314
0.1288179709347257 -0.9047809654379212 0.38659267119083346
0.3250756557072815 0.6737002540830214 0.8050567130467872
0.296166569528528 0.7642124575644593 0.7619108435829955
0.476598721648909 0.7003067623379137 0.9221468529963102
0.4018364173601097 0.659419599663026 0.8796075704905378
0.2061171887432966 -0.4245189941420744 0.6200704016017851
0.1169179858110916 -0.3837103798320143 0.3884231136899527
0.6798586560627238 0.1289428788813137 0.9846194123438277
0.715627768804681 0.05067023207237525 0.9878200456893665
0.63686945551448 0.07050857920826473 0.9787801547966233
-0.2814035458951537 0.07583894900119312 -0.7579301202608043
-0.366348314202278 0.04813560997364319 -0.8617006645194665
-0.3197618236042906 0.142155110429131 -0.8113801559839384
0.1643347326838814 -0.5903484285438858 0.5174624754717907
0.0409293046564275 -0.549018253913978 0.14317075908238266
0.1284908304794872 -0.4815299934442652 0.420468198000455
-0.5856132037594565 0.4854424697004757 -0.9677026638496854
0.286668511775877 -0.4734388327234783 0.7643853718714663
0.359800291436233 -0.4146288197003217 0.8537285640467346
0.3521158413854494 -0.5323502512238755 0.8435679819158985
0.8505805575676916 0.301166891393902 0.9941956909066196
-0.279136511503117 -0.8540047582596174 -0.7198373497095443
-0.3138815085924474 0.8622059066284703 -0.7652575109023025
-0.2043736994345109 0.8787968496588404 -0.5784470954118829
0.6436616138062179 -0.01465383803431389 0.980039099568949
0.2820749820735164 -0.3657163619792454 0.7594756239017908
-0.4783254394140464 0.03246326158889518 -0.9364655050339522
-0.5562071565774052 -0.02963006144471264 -0.962583974448157
-0.5664600910643643 0.06488622447883119 -0.9654824423037404
0.7683975178740414 -0.459481241043399 0.9895807535396511
-0.2920794194626712 0.6118297384769588 -0.7677983206564117
-0.2441330685639188 0.6813910727811355 -0.683517278947262
-0.196491586669421 0.5941895047095593 -0.5966402422058812
0.7433172291178475 0.2614118405268149 0.9897138803663513
-0.3210094752376231 0.710241156221157 -0.7981486605227149
0.2566775166545855 0.548607363025743 0.7131093365509852
0.3087647302273256 0.4858998329830544 0.7943709021163063
0.2183661421438245 0.4746743328975875 0.6444218441310662
0.3453399444532113 0.5867161370453997 0.8368178950286637
-0.7788627225386456 -0.2679743983720378 -0.9917090071423191
-0.7089370061921371 -0.205375951280949 -0.9869834887245127
-0.6697665736730039 -0.2770356327182575 -0.9831765974187444
-0.7780091753865046 -0.1823397547039828 -0.9917460663157274
-0.6224657261944777 0.1632808603598934 -0.9767079189662546
0.5622378151000949 -0.7170521061035289 0.9516097788955464
0.5265608348434567 -0.6401037984399638 0.9458934802971911
0.620615310602017 -0.6486996535386712 0.9688205303044214
0.7355318414479601 0.1840224820627052 0.9892410061313661
0.7775331963315839 0.1154169856331409 0.9919412955138031
-0.2129357192693959 -0.4413070510277897 -0.6337888543882314
-0.2489931929642787 -0.5549273074710962 -0.7030291509880754
-0.312533859271204 -0.4527679935972281 -0.8011784837796923
-0.3615844232202023 -0.5485201949764886 -0.853598862742856
-0.5517362628213353 -0.2729551631775157 -0.96154012827795
-0.6114871246557462 -0.3620669219578091 -0.9745155162835406
-0.6220347962285386 -0.1940244883700643 -0.9766273324874988
-0.6345249005940541 0.3189159017294787 -0.9784094956741476
-0.6914890579977562 0.3748788961044526 -0.984399239054836
0.2022358889339659 0.3050660028681875 0.6141020970872038
0.1112119693567997 0.3035928904235892 0.3724910256108043
-0.03585667197034575 -0.3688563956658111 -0.12510477278332718
0.04038816816962035 -0.4366786255168088 0.1404152156723693
-0.04880520572763306 -0.4824491119374575 -0.16850147994995307
-0.6894730733661563 0.4592039975804648 -0.9836506234723125
-0.338909781545636 0.7892575649401611 -0.8077475106838923
-0.2532654619863424 0.7822033497415635 -0.6906701984090335
-0.2037882521593002 0.05546330543571018 -0.6160277385101269
-0.116066611156336 0.02489157364256656 -0.3866182132299049
0.6744806508033333 0.6137243299472777 0.9780655021151425
0.6228172843569528 -0.1179261005198635 0.9768766054846314
0.70513855214613 -0.2012185609471375 0.9871553695392944
0.585921774892991 -0.2084560804842102 0.9700924138996102
0.7231500830979037 -0.1009276374875625 0.9885593267423948
-0.6658377994614632 -0.6038143516609621 -0.977375480477696
-0.7389253622143996 -0.546779616314341 -0.9855202691139131
-0.09789627814148451 0.8427783611252733 -0.311762174620398
-0.310979150947987 -0.7314466746423058 -0.7864642080476726
-0.3681978543193525 -0.8317889438334826 -0.8305001999900623
-0.03391471221140277 -0.01120435923700244 -0.1173735185822307
-0.0266517965284471 0.1142257534874064 -0.09286786378246444
0.05549313875200451 0.01751060241077973 0.19292020616390315
0.3620474907633556 0.4202912774135686 0.8546472412646876
0.4037979588383345 0.4963920799125295 0.8896652543484285
-0.1952439825165135 -0.7566474364694233 -0.579762040778276
-0.01256114508671016 -0.6350036100483983 -0.04276240026280053
0.07771017017051518 -0.656929145514262 0.2616299119424784
-0.1987366738200758 -0.05018621970029311 -0.6052807884574245
-0.2647318783371554 -0.114912292192734 -0.7319762316901705
-0.2895010103847957 -0.01645547938647296 -0.7736313019370235
0.4463150248515293 0.4141240051318559 0.9182382755556346
0.3867805023614788 0.3385533994412352 0.8802273768443646
0.2417592681082477 -0.6538995340418114 0.681908937097496
0.331257011053095 -0.632732638913428 0.8167951308558938
0.2933499197440139 -0.7225242714627041 0.7613006450630495
0.224331561434992 0.2126988426830647 0.6578194601634689
0.2989471342734291 0.1652793249805335 0.7846130223928163
0.2011371287302558 0.1230960168082434 0.6133053587492179
0.8013847844951338 -0.2485259787577682 0.9927358836939492
0.2232456944870947 -0.8894127454185503 0.6106549215597984
0.08663100633606907 0.1253697013392126 0.2973428190884661
0.008117817422639673 -0.2794593228567087 0.028878587581528115
0.04012798838015247 -0.3476272588853522 0.1400172780815915
0.2641367895229864 -0.5667730723560438 0.7270329475334171
-0.4588998448996793 -0.5605683891712653 -0.9223667752237313
-0.5701392809633988 -0.5642659889484243 -0.9627151648349196
-0.5039127256402228 -0.4835946032572784 -0.9435323399685612
-0.1191389642944812 0.9199388608690819 -0.3574101356170121
0.2970399725063696 0.07598296798710844 0.7834913718285609
-0.5873414969937371 -0.4552479491375019 -0.9684256812091694
0.9242803418738583 -0.01284434826552765 0.9963428052950992
0.8325711383441149 -0.08158974552266687 0.9943274026811917
0.8147761991228389 0.02499175794114716 0.9936673126180114
0.2139253757266162 -0.5097598867177424 0.6329005077682763
-0.3823235261949641 0.4589880247598556 -0.8735745995050779
-0.4798109155286939 0.5097441542903186 -0.9341873095016485
-0.381913903087361 0.5688152383559658 -0.8705634098895172
-0.0580898963481996 -0.9051851782026351 -0.1835144451164339
-0.3820281631525191 0.6538284847440747 -0.8649750213848837
0.4689296752397605 -0.02571593342603251 0.9314227439211616
0.3916503800723303 0.03913044717894007 0.883830259922479
0.4671537041488674 0.09376633968292775 0.930603505987251
0.1665232354265069 -0.8146466880450508 0.5017089849226899
0.2618636879608754 -0.803767724825043 0.7013026042257147
0.4385462179371955 -0.6041889291317699 0.9098767569831108
-0.1173360956307009 -0.4216355429489245 -0.39033428344498894
-0.188360302669568 -0.3469163314361465 -0.5795532442271019
0.09262378919862235 0.5538255595377679 0.3109095837842099
0.0452805962647089 0.6395030863863198 0.15369257845573825
-0.7936102988539986 0.4678007663373938 -0.9902851153042262
-0.7425100481954706 0.5408109932279823 -0.9860155537692722
-0.09770338221154579 -0.09564113370349642 -0.3330148725028538
-0.2026925178915109 -0.1685476568512181 -0.6153047314820175
-0.01195940577982263 0.5492932000894826 -0.0428113202972118
-0.1190135538830252 -0.1772496808354178 -0.3935487063994198
0.3802439413756266 -0.04954583489583783 0.8730170153179564
0.07781429555712707 0.7296124130553091 0.25899349235659364
0.08501306266950273 0.8109785344599054 0.27590083530475873
0.5568208988658705 0.03189631797025497 0.9631045385725688
0.2763625560698862 0.3826366302165901 0.7521294321527106
0.5601097232326512 -0.3808807206087595 0.9629631888574334
0.6559974409353941 -0.4183733404799816 0.980194662728822
0.5921836573415171 -0.4694471840570334 0.9687533841274422
0.5615349739983928 -0.05644038670006593 0.9638567332670345
-0.3119294914167758 -0.1912174091939676 -0.8033528508248953
0.4689239311292943 0.5893854328343808 0.9270373648865744
0.5819599671628881 0.5521043022510824 0.965569697798061
0.5134097375150447 0.4852482444948379 0.9472980275387474
-0.1664792685489162 0.7047300813605678 -0.515111469642433
-0.06763090645071834 0.6306151611390705 -0.23355420915723332
-0.08026352321975569 0.7415709203153481 -0.265302967536685
0.187233236803408 -0.7131503738558225 0.5656455016081389
-0.508510920906333 -0.1818289276273835 -0.948417607072027
-0.4488939457615307 -0.273791180920646 -0.9208434135004283
-0.1410300503587644 -0.5145434494444127 -0.457432481089737
0.600156171745962 0.4645502463834218 0.9705247607432052
0.5593131400927792 0.6406278587723341 0.9562259372192982
0.6416400768038432 0.3076909020094418 0.979498813405156
0.5364920721669336 0.2534784401509746 0.9576320547126318
0.5542233712869042 0.3750878637765094 0.9617943342638433
0.1415161935306813 0.2158345949958755 0.46070430449297517
0.5645242783534102 0.1381923672597281 0.9653005447756696
0.4572381981113797 0.1790528212959371 0.9257603315249842
0.3186555561350219 0.2671788423410694 0.8125659410197046
-0.4093671820041967 -0.4575440008942628 -0.894624352560634
-0.3680409168654968 -0.3529087522192967 -0.8646545948668773
-0.2753359189409326 -0.3634337455514842 -0.7481558683141508
-0.4923255236024885 -0.3787919880874088 -0.9423722432525963
0.415159127634386 -0.1168879297816188 0.9006786709197848
0.0129187503490476 0.2993684252185955 0.0450028807426669
0.04355821733468118 0.2133218458794599 0.15212951850662115
0.3730232489260816 0.1266266504898 0.8678414997146061
0.3070181476897249 -0.00567505583300873 0.7951524780535734
0.3200936082092755 -0.1078480025792937 0.8120003910546298
-0.07385623725430543 -0.270865494496725 -0.2535204464318286
-0.09989468421869513 -0.3414285816031429 -0.3363998195776015
-0.1584156434195034 -0.2706687882698198 -0.5069546239466535
-0.03879567322815858 -0.1846494857047605 -0.13400435628551916
0.04298500875927785 -0.2034034272834585 0.15022849021910914
-0.394781055162964 -0.04302857322682907 -0.8864334407647708
-0.4925892772644598 -0.0749475277726192 -0.9415951454280794
-0.7203506961768539 0.1876121702623792 -0.9880360694443071
-0.7872072709848114 0.1058965396607134 -0.9925242501480819
-0.8171616030701183 0.2151973729685485 -0.9934203468788639
-0.8975538570603205 0.149578502923131 -0.995740869759777
-0.9030416306228948 0.05498643021120733 -0.9959968571591226
-0.5620492284826503 0.5600308789529036 -0.9599737048134992
-0.5863299591762176 -0.102324094409273 -0.9701340840052399
-0.2923242899064724 0.5265757531412668 -0.7737800526032445
-0.204112144067779 0.4757010817880112 -0.6141960609852418
-0.2939389641443112 0.4467733054366966 -0.7746651802070208
-0.2676399323802355 -0.2796523307312724 -0.7403189523818919
-0.2348073467028159 0.3845767324516001 -0.6800307927707273
0.02580196901666043 -0.1021246566580548 0.0922381804637151
-0.3100864190975695 -0.6280594205712785 -0.7898113781757081
-0.2281451537672974 -0.6571113352581169 -0.6573280423028609
-0.1631653662680464 -0.5951246425745785 -0.5104357433108528
0.7294253469838452 -0.2923759441457596 0.9884086851764718
0.633325685225381 -0.30295843894355 0.9783053007209096
0.7464318494669634 -0.02336767653886634 0.9901139987495526
0.3054965550487183 -0.8802578011289769 0.7465541910130576
0.7875503910299595 -0.1629765723675086 0.992342514903353
-0.4064823582994787 0.8360970186855673 -0.8616219197609337
0.2353099178785492 0.8339357551127689 0.6468421363889184
0.2393676920078047 0.910730434537484 0.6339493916096164
0.3087767767857208 0.8669160359081352 0.7554105249109526
0.1420899835196635 -0.05943918212617191 0.4652851618865701
0.2287283869781068 -0.1550642537138068 0.6723130712455143
0.3918073616063875 -0.7070463178855422 0.8690817557765228
-0.741786244971164 -0.3624510641040469 -0.9892145522660363
-0.8511649030481747 -0.3303311794453072 -0.9939483233467992
0.2213772587561627 0.01597329771105765 0.6534711046147826
0.138728963341376 0.03802656064501567 0.45189644419318026
0.1575356085610541 0.8879571288422263 0.46658833460292876
0.7659377073986109 0.4635264317162796 0.9892888773949993
0.8311025273139803 0.3879201092521714 0.9927110796694156
0.7468660346278303 0.3566212060971975 0.9893446421153239
0.23937077255078 -0.05959546562211823 0.6880237281335987
-0.1083337793235505 -0.6741891088127553 -0.35754313087789635
0.6623734852697452 0.4076786065088101 0.981317351843876
-0.1576066264542501 0.7923375889386521 -0.4815921534545772
-0.4310804505716495 -0.123972636830626 -0.9100877735089445
-0.4052568497514257 -0.1952325755828035 -0.8941375763915905
-0.05220797479364611 0.4712459538411159 -0.1802707194258932
-0.7654286248002649 -0.4708197741561551 -0.9890889611307706
-0.8213856991238748 -0.4162971984650301 -0.9920824888054127
-0.4251722868472662 0.7353131822437382 -0.891624725936831
-0.4834556081324004 0.6295398039220137 -0.9315297761837809
-0.5416314699609507 0.7181594832493227 -0.9461731683735762
-0.3497816227294909 -0.1139976626853795 -0.8451689393511062
-0.004622005052357714 0.7059855610378076 -0.016533066745530883
0.8412689618288219 -0.4150113552061356 0.9925676312685542
0.7200550035233314 -0.3648053961403412 0.9871993407152081
-0.8978662476927104 0.2271588110453477 -0.9953693723926041
-0.4306264422471949 0.320476357883927 -0.9096650091687495
-0.4707092047442034 0.2364796677192675 -0.932431609802853
-0.1101920042341248 0.522619818526382 -0.3669672585634232
-0.4154425867743424 0.1377461256776963 -0.9005219740369237
-0.5218006812996407 0.1460659070493914 -0.9527177031675815
0.3762554576852826 0.200237665584923 0.8700223576810714
-0.3578785686837233 0.2344107613562909 -0.8543450652797472
0.5149426368022372 -0.4476718258021321 0.9478111459041474
-0.66258793750326 0.2444916793060079 -0.9820697550750657
-0.753999479946215 0.3041341414648202 -0.990268654606603
-0.07382337045453655 -0.5717893336978158 -0.2503173235798106
-0.5767522721921216 0.247125571518527 -0.9676632754620469
-0.3992735738074731 -0.6460455585340894 -0.8806182078507125
0.6775626852941385 0.5053956794973431 0.9814276719009305
0.5136475640471388 -0.2826734152870733 0.9494598173013964
-0.7003276820713049 -0.115618041953414 -0.9867623650563329
-0.6670059234470989 -0.5127883162540492 -0.9802563141477731
0.5594982445090176 0.7404147218038296 0.9483471210645603
0.6399033538621122 0.6911676608676662 0.968504187073541
0.7495487484050816 0.5544219769955778 0.9859940474240241
-0.6097840673676029 -0.677594859748696 -0.9654204750534875
-0.6974913970729203 0.6126979086451937 -0.9799851865669311
0.1064686906491682 -0.7454307669749678 0.3422068140455076
0.4662833514634992 -0.7742514513881842 0.9100301685713377
-0.4960690074691771 0.794374542226228 -0.919657835879603
0.3491458206094108 -0.3063344214034326 0.8443944497521624
0.3510059144246616 -0.193227237224427 0.849845937335361
0.4240003245274387 -0.2694086393544463 0.9053962216925358
-0.673023449618228 -0.4325572930920339 -0.9819725398552291
0.646858632134606 0.2144276351757474 0.9804733856845801
-0.8278980624258498 0.01041346689628245 -0.9940243072836566
0.2602010565583059 -0.2574539814455603 0.7252502204597533
0.4246975079372474 0.2612034695494176 0.9080187047108912
-0.3674762094789088 -0.2626758718712677 -0.8621849856686657
0.4673051176975558 -0.2003269056246602 0.9316471237481404
0.5127537781821909 -0.1308466172132098 0.9495639718829305
0.4437150585680915 -0.4860818703910802 0.915745989172453
0.44910455400812 -0.3679614350485552 0.921227918423473
0.4711597643809992 -0.6890020935105632 0.9200936503156447
0.1823433589096873 0.558926319963495 0.5614513720244629
0.4715093075741663 0.3280297774452376 0.9317511204242621
-0.2664068186063316 0.2128569361143945 -0.7347389764858437
-0.6108664173883225 0.6483769873585408 -0.9678561762109129
-0.8703843568406053 -0.2158709837625005 -0.9950568291051342
-0.4474007811436546 0.4040654859726693 -0.9194672095205463
-0.3432269747448207 0.3553156901846451 -0.8390012114346329
-0.6485730166786337 0.5508530511699183 -0.9767425994332013
-0.8305681666999377 0.3878347280118777 -0.9926870176750507
0.9198447158164628 -0.1144615849819647 0.9960851088191766
0.5454460548413511 -0.548203753098507 0.9571746629929754
-0.8637539269266468 0.3022744594391265 -0.9943808313218477
-0.7588339190583657 0.3947128744944104 -0.9894218056969851
