$MeshFormat
4.1 0 8
$EndMeshFormat
$Entities
5 4 1 0
1 0 0 0 0 
2 1 0 0 0 
3 0 1 0 0 
4 -1 0 0 0 
5 0 -1 0 0 
1 5.551115123125783e-17 0 0 1 1 0 0 2 2 -3 
2 -1 5.551115123125783e-17 0 0 1 0 0 2 3 -4 
3 -1 -1 0 -5.551115123125783e-17 0 0 0 2 4 -5 
4 0 -1 0 1 -5.551115123125783e-17 0 0 2 5 -2 
1 -1 -1 0 1 1 0 0 4 1 2 3 4 
$EndEntities
$Nodes
10 406 1 406
0 1 0 1
1
0 0 0
0 2 0 1
2
1 0 0
0 3 0 1
3
0 1 0
0 4 0 1
4
-1 0 0
0 5 0 1
5
0 -1 0
1 1 0 15
6
7
8
9
10
11
12
13
14
15
16
17
18
19
20
0.9951847266502585 0.09801714055230534 0
0.9807852803038259 0.1950903225158687 0
0.9569403355024331 0.2902846780119318 0
0.9238795320817892 0.3826834334019886 0
0.8819212636904032 0.4713967380569389 0
0.8314696113679687 0.5555702344182949 0
0.7730104520841969 0.6343932857215511 0
0.7071067795733449 0.7071067827997501 0
0.634393282646958 0.7730104546074502 0
0.5555702316245595 0.8314696132346829 0
0.471396735522105 0.8819212650453002 0
0.3826834312318057 0.9238795329807084 0
0.2902846763682919 0.9569403360010258 0
0.1950903214145686 0.980785280522888 0
0.0980171400302339 0.995184726701678 0
1 2 0 15
21
22
23
24
25
26
27
28
29
30
31
32
33
34
35
-0.09801714055230534 0.9951847266502585 0
-0.1950903225158687 0.9807852803038259 0
-0.2902846780119318 0.9569403355024331 0
-0.3826834334019886 0.9238795320817892 0
-0.4713967380569389 0.8819212636904032 0
-0.5555702344182949 0.8314696113679687 0
-0.6343932857215511 0.7730104520841969 0
-0.7071067827997501 0.7071067795733449 0
-0.7730104546074502 0.634393282646958 0
-0.8314696132346829 0.5555702316245595 0
-0.8819212650453002 0.471396735522105 0
-0.9238795329807084 0.3826834312318057 0
-0.9569403360010258 0.2902846763682919 0
-0.980785280522888 0.1950903214145686 0
-0.995184726701678 0.0980171400302339 0
1 3 0 15
36
37
38
39
40
41
42
43
44
45
46
47
48
49
50
-0.9951847266502585 -0.09801714055230534 0
-0.9807852803038259 -0.1950903225158687 0
-0.9569403355024331 -0.2902846780119318 0
-0.9238795320817892 -0.3826834334019886 0
-0.8819212636904032 -0.4713967380569389 0
-0.8314696113679687 -0.5555702344182949 0
-0.7730104520841969 -0.6343932857215511 0
-0.7071067795733449 -0.7071067827997501 0
-0.634393282646958 -0.7730104546074502 0
-0.5555702316245595 -0.8314696132346829 0
-0.471396735522105 -0.8819212650453002 0
-0.3826834312318057 -0.9238795329807084 0
-0.2902846763682919 -0.9569403360010258 0
-0.1950903214145686 -0.980785280522888 0
-0.0980171400302339 -0.995184726701678 0
1 4 0 15
51
52
53
54
55
56
57
58
59
60
61
62
63
64
65
0.09801714055230534 -0.9951847266502585 0
0.1950903225158687 -0.9807852803038259 0
0.2902846780119318 -0.9569403355024331 0
0.3826834334019886 -0.9238795320817892 0
0.4713967380569389 -0.8819212636904032 0
0.5555702344182949 -0.8314696113679687 0
0.6343932857215511 -0.7730104520841969 0
0.7071067827997501 -0.7071067795733449 0
0.7730104546074502 -0.634393282646958 0
0.8314696132346829 -0.5555702316245595 0
0.8819212650453002 -0.471396735522105 0
0.9238795329807084 -0.3826834312318057 0
0.9569403360010258 -0.2902846763682919 0
0.980785280522888 -0.1950903214145686 0
0.995184726701678 -0.0980171400302339 0
2 1 0 341
66
67
68
69
70
71
72
73
74
75
76
77
78
79
80
81
82
83
84
85
86
87
88
89
90
91
92
93
94
95
96
97
98
99
100
101
102
103
104
105
106
107
108
109
110
111
112
113
114
115
116
117
118
119
120
121
122
123
124
125
126
127
128
129
130
131
132
133
134
135
136
137
138
139
140
141
142
143
144
145
146
147
148
149
150
151
152
153
154
155
156
157
158
159
160
161
162
163
164
165
166
167
168
169
170
171
172
173
174
175
176
177
178
179
180
181
182
183
184
185
186
187
188
189
190
191
192
193
194
195
196
197
198
199
200
201
202
203
204
205
206
207
208
209
210
211
212
213
214
215
216
217
218
219
220
221
222
223
224
225
226
227
228
229
230
231
232
233
234
235
236
237
238
239
240
241
242
243
244
245
246
247
248
249
250
251
252
253
254
255
256
257
258
259
260
261
262
263
264
265
266
267
268
269
270
271
272
273
274
275
276
277
278
279
280
281
282
283
284
285
286
287
288
289
290
291
292
293
294
295
296
297
298
299
300
301
302
303
304
305
306
307
308
309
310
311
312
313
314
315
316
317
318
319
320
321
322
323
324
325
326
327
328
329
330
331
332
333
334
335
336
337
338
339
340
341
342
343
344
345
346
347
348
349
350
351
352
353
354
355
356
357
358
359
360
361
362
363
364
365
366
367
368
369
370
371
372
373
374
375
376
377
378
379
380
381
382
383
384
385
386
387
388
389
390
391
392
393
394
395
396
397
398
399
400
401
402
403
404
405
406
0.06552618461083977 0.9057377714856804 0
0.0009658478707639528 0.8082839589324874 0
-0.03563479443557092 0.9112699032402481 0
0.1705501613218224 0.3885435209979023 0
0.07749848355575648 0.3839529713357623 0
0.1354683803138475 0.4802646235647384 0
0.8091534979619077 -0.3498338276956917 0
0.8761488976398296 -0.2920528184820896 0
0.3928520302405717 0.739421913369157 0
0.390862111607076 0.826784721731137 0
0.4706392323831502 0.7995821775339277 0
-0.1671534257012969 -0.861031256595044 0
-0.1472004487571584 -0.9293006283903719 0
-0.2291546067366331 -0.9057590479853773 0
0.04443964555371138 -0.8297432355039205 0
-0.08647848633032065 -0.7919720560210205 0
0.002949429735350617 -0.7224034569650436 0
-0.9159439419782547 -0.1363627745619546 0
-0.9120453529033316 -0.03785489360559663 0
-0.8276510465252657 -0.09986756375347056 0
0.915014437206204 0.2334960575511707 0
0.9197156963303307 0.1593782649750047 0
0.8354556074390631 0.1990069420324746 0
0.8800406571083854 0.0979835585748042 0
0.8835420305079577 -0.1949559811788893 0
-0.6027187895153931 0.397423524644637 0
-0.5286165585531164 0.43293243761198 0
-0.5192434336913361 0.346360696234612 0
0.7487708503765604 -0.5608010075175269 0
0.7026085732077084 -0.6186002110760725 0
0.6625910815249183 -0.5329060386604836 0
-0.6722398760263044 0.08724301746076168 0
-0.6379360263534364 -0.01620182412990168 0
-0.7416530156479154 -0.004529378279480689 0
0.1939957927869305 -0.3322420674664666 0
0.09978748736422188 -0.2793614465380631 0
0.1835895554435892 -0.2390327161071967 0
0.1429368352963134 0.6471462450966345 0
0.1786620957539817 0.7564304321587789 0
0.2469884988852143 0.6484307295709116 0
-0.02113036057523304 0.386766388722246 0
-0.09216904982197138 0.3125073730015363 0
-0.1279036861172251 0.4100171364045232 0
-0.5058683233328958 -0.6614244495156111 0
-0.4272922966573793 -0.7554237730069829 0
-0.5358317214702379 -0.76373689139192 0
0.04244083864825746 0.4579316643061421 0
0.3670445767536096 -0.8120994659282762 0
0.1204274262853011 -0.1713938269462733 0
-0.2272538206354917 0.1497893649503071 0
-0.1784366239384174 0.2417307549888433 0
-0.1347051056309508 0.1406821838288882 0
-0.0647848971661478 0.2203616240784709 0
-0.1768463905696754 0.3240651375192173 0
-0.2615692721715053 0.2941702236424231 0
0.04938431708249591 -0.9203201733482986 0
0.1288179709347257 -0.9047809654379212 0
0.3250756557072815 0.6737002540830214 0
0.296166569528528 0.7642124575644593 0
0.476598721648909 0.7003067623379137 0
0.4018364173601097 0.659419599663026 0
0.2061171887432966 -0.4245189941420744 0
0.1169179858110916 -0.3837103798320143 0
0.6798586560627238 0.1289428788813137 0
0.715627768804681 0.05067023207237525 0
0.63686945551448 0.07050857920826473 0
-0.2814035458951537 0.07583894900119312 0
-0.366348314202278 0.04813560997364319 0
-0.3197618236042906 0.142155110429131 0
0.1643347326838814 -0.5903484285438858 0
0.0409293046564275 -0.549018253913978 0
0.1284908304794872 -0.4815299934442652 0
-0.5856132037594565 0.4854424697004757 0
0.286668511775877 -0.4734388327234783 0
0.359800291436233 -0.4146288197003217 0
0.3521158413854494 -0.5323502512238755 0
0.8505805575676916 0.301166891393902 0
-0.279136511503117 -0.8540047582596174 0
-0.3138815085924474 0.8622059066284703 0
-0.2043736994345109 0.8787968496588404 0
0.6436616138062179 -0.01465383803431389 0
0.2820749820735164 -0.3657163619792454 0
-0.4783254394140464 0.03246326158889518 0
-0.5562071565774052 -0.02963006144471264 0
-0.5664600910643643 0.06488622447883119 0
0.7683975178740414 -0.459481241043399 0
-0.2920794194626712 0.6118297384769588 0
-0.2441330685639188 0.6813910727811355 0
-0.196491586669421 0.5941895047095593 0
0.7433172291178475 0.2614118405268149 0
-0.3210094752376231 0.710241156221157 0
0.2566775166545855 0.548607363025743 0
0.3087647302273256 0.4858998329830544 0
0.2183661421438245 0.4746743328975875 0
0.3453399444532113 0.5867161370453997 0
-0.7788627225386456 -0.2679743983720378 0
-0.7089370061921371 -0.205375951280949 0
-0.6697665736730039 -0.2770356327182575 0
-0.7780091753865046 -0.1823397547039828 0
-0.6224657261944777 0.1632808603598934 0
0.5622378151000949 -0.7170521061035289 0
0.5265608348434567 -0.6401037984399638 0
0.620615310602017 -0.6486996535386712 0
0.7355318414479601 0.1840224820627052 0
0.7775331963315839 0.1154169856331409 0
-0.2129357192693959 -0.4413070510277897 0
-0.2489931929642787 -0.5549273074710962 0
-0.312533859271204 -0.4527679935972281 0
-0.3615844232202023 -0.5485201949764886 0
-0.5517362628213353 -0.2729551631775157 0
-0.6114871246557462 -0.3620669219578091 0
-0.6220347962285386 -0.1940244883700643 0
-0.6345249005940541 0.3189159017294787 0
-0.6914890579977562 0.3748788961044526 0
0.2022358889339659 0.3050660028681875 0
0.1112119693567997 0.3035928904235892 0
-0.03585667197034575 -0.3688563956658111 0
0.04038816816962035 -0.4366786255168088 0
-0.04880520572763306 -0.4824491119374575 0
-0.6894730733661563 0.4592039975804648 0
-0.338909781545636 0.7892575649401611 0
-0.2532654619863424 0.7822033497415635 0
-0.2037882521593002 0.05546330543571018 0
-0.116066611156336 0.02489157364256656 0
0.6744806508033333 0.6137243299472777 0
0.6228172843569528 -0.1179261005198635 0
0.70513855214613 -0.2012185609471375 0
0.585921774892991 -0.2084560804842102 0
0.7231500830979037 -0.1009276374875625 0
-0.6658377994614632 -0.6038143516609621 0
-0.7389253622143996 -0.546779616314341 0
-0.09789627814148451 0.8427783611252733 0
-0.310979150947987 -0.7314466746423058 0
-0.3681978543193525 -0.8317889438334826 0
-0.03391471221140277 -0.01120435923700244 0
-0.0266517965284471 0.1142257534874064 0
0.05549313875200451 0.01751060241077973 0
0.3620474907633556 0.4202912774135686 0
0.4037979588383345 0.4963920799125295 0
-0.1952439825165135 -0.7566474364694233 0
-0.01256114508671016 -0.6350036100483983 0
0.07771017017051518 -0.656929145514262 0
-0.1987366738200758 -0.05018621970029311 0
-0.2647318783371554 -0.114912292192734 0
-0.2895010103847957 -0.01645547938647296 0
0.4463150248515293 0.4141240051318559 0
0.3867805023614788 0.3385533994412352 0
0.2417592681082477 -0.6538995340418114 0
0.331257011053095 -0.632732638913428 0
0.2933499197440139 -0.7225242714627041 0
0.224331561434992 0.2126988426830647 0
0.2989471342734291 0.1652793249805335 0
0.2011371287302558 0.1230960168082434 0
0.8013847844951338 -0.2485259787577682 0
0.2232456944870947 -0.8894127454185503 0
0.08663100633606907 0.1253697013392126 0
0.008117817422639673 -0.2794593228567087 0
0.04012798838015247 -0.3476272588853522 0
0.2641367895229864 -0.5667730723560438 0
-0.4588998448996793 -0.5605683891712653 0
-0.5701392809633988 -0.5642659889484243 0
-0.5039127256402228 -0.4835946032572784 0
-0.1191389642944812 0.9199388608690819 0
0.2970399725063696 0.07598296798710844 0
-0.5873414969937371 -0.4552479491375019 0
0.9242803418738583 -0.01284434826552765 0
0.8325711383441149 -0.08158974552266687 0
0.8147761991228389 0.02499175794114716 0
0.2139253757266162 -0.5097598867177424 0
-0.3823235261949641 0.4589880247598556 0
-0.4798109155286939 0.5097441542903186 0
-0.381913903087361 0.5688152383559658 0
-0.0580898963481996 -0.9051851782026351 0
-0.3820281631525191 0.6538284847440747 0
0.4689296752397605 -0.02571593342603251 0
0.3916503800723303 0.03913044717894007 0
0.4671537041488674 0.09376633968292775 0
0.1665232354265069 -0.8146466880450508 0
0.2618636879608754 -0.803767724825043 0
0.4385462179371955 -0.6041889291317699 0
-0.1173360956307009 -0.4216355429489245 0
-0.188360302669568 -0.3469163314361465 0
0.09262378919862235 0.5538255595377679 0
0.0452805962647089 0.6395030863863198 0
-0.7936102988539986 0.4678007663373938 0
-0.7425100481954706 0.5408109932279823 0
-0.09770338221154579 -0.09564113370349642 0
-0.2026925178915109 -0.1685476568512181 0
-0.01195940577982263 0.5492932000894826 0
-0.1190135538830252 -0.1772496808354178 0
0.3802439413756266 -0.04954583489583783 0
0.07781429555712707 0.7296124130553091 0
0.08501306266950273 0.8109785344599054 0
0.5568208988658705 0.03189631797025497 0
0.2763625560698862 0.3826366302165901 0
0.5601097232326512 -0.3808807206087595 0
0.6559974409353941 -0.4183733404799816 0
0.5921836573415171 -0.4694471840570334 0
0.5615349739983928 -0.05644038670006593 0
-0.3119294914167758 -0.1912174091939676 0
0.4689239311292943 0.5893854328343808 0
0.5819599671628881 0.5521043022510824 0
0.5134097375150447 0.4852482444948379 0
-0.1664792685489162 0.7047300813605678 0
-0.06763090645071834 0.6306151611390705 0
-0.08026352321975569 0.7415709203153481 0
0.187233236803408 -0.7131503738558225 0
-0.508510920906333 -0.1818289276273835 0
-0.4488939457615307 -0.273791180920646 0
-0.1410300503587644 -0.5145434494444127 0
0.600156171745962 0.4645502463834218 0
0.5593131400927792 0.6406278587723341 0
0.6416400768038432 0.3076909020094418 0
0.5364920721669336 0.2534784401509746 0
0.5542233712869042 0.3750878637765094 0
0.1415161935306813 0.2158345949958755 0
0.5645242783534102 0.1381923672597281 0
0.4572381981113797 0.1790528212959371 0
0.3186555561350219 0.2671788423410694 0
-0.4093671820041967 -0.4575440008942628 0
-0.3680409168654968 -0.3529087522192967 0
-0.2753359189409326 -0.3634337455514842 0
-0.4923255236024885 -0.3787919880874088 0
0.415159127634386 -0.1168879297816188 0
0.0129187503490476 0.2993684252185955 0
0.04355821733468118 0.2133218458794599 0
0.3730232489260816 0.1266266504898 0
0.3070181476897249 -0.00567505583300873 0
0.3200936082092755 -0.1078480025792937 0
-0.07385623725430543 -0.270865494496725 0
-0.09989468421869513 -0.3414285816031429 0
-0.1584156434195034 -0.2706687882698198 0
-0.03879567322815858 -0.1846494857047605 0
0.04298500875927785 -0.2034034272834585 0
-0.394781055162964 -0.04302857322682907 0
-0.4925892772644598 -0.0749475277726192 0
-0.7203506961768539 0.1876121702623792 0
-0.7872072709848114 0.1058965396607134 0
-0.8171616030701183 0.2151973729685485 0
-0.8975538570603205 0.149578502923131 0
-0.9030416306228948 0.05498643021120733 0
-0.5620492284826503 0.5600308789529036 0
-0.5863299591762176 -0.102324094409273 0
-0.2923242899064724 0.5265757531412668 0
-0.204112144067779 0.4757010817880112 0
-0.2939389641443112 0.4467733054366966 0
-0.2676399323802355 -0.2796523307312724 0
-0.2348073467028159 0.3845767324516001 0
0.02580196901666043 -0.1021246566580548 0
-0.3100864190975695 -0.6280594205712785 0
-0.2281451537672974 -0.6571113352581169 0
-0.1631653662680464 -0.5951246425745785 0
0.7294253469838452 -0.2923759441457596 0
0.633325685225381 -0.30295843894355 0
0.7464318494669634 -0.02336767653886634 0
0.3054965550487183 -0.8802578011289769 0
0.7875503910299595 -0.1629765723675086 0
-0.4064823582994787 0.8360970186855673 0
0.2353099178785492 0.8339357551127689 0
0.2393676920078047 0.910730434537484 0
0.3087767767857208 0.8669160359081352 0
0.1420899835196635 -0.05943918212617191 0
0.2287283869781068 -0.1550642537138068 0
0.3918073616063875 -0.7070463178855422 0
-0.741786244971164 -0.3624510641040469 0
-0.8511649030481747 -0.3303311794453072 0
0.2213772587561627 0.01597329771105765 0
0.138728963341376 0.03802656064501567 0
0.1575356085610541 0.8879571288422263 0
0.7659377073986109 0.4635264317162796 0
0.8311025273139803 0.3879201092521714 0
0.7468660346278303 0.3566212060971975 0
0.23937077255078 -0.05959546562211823 0
-0.1083337793235505 -0.6741891088127553 0
0.6623734852697452 0.4076786065088101 0
-0.1576066264542501 0.7923375889386521 0
-0.4310804505716495 -0.123972636830626 0
-0.4052568497514257 -0.1952325755828035 0
-0.05220797479364611 0.4712459538411159 0
-0.7654286248002649 -0.4708197741561551 0
-0.8213856991238748 -0.4162971984650301 0
-0.4251722868472662 0.7353131822437382 0
-0.4834556081324004 0.6295398039220137 0
-0.5416314699609507 0.7181594832493227 0
-0.3497816227294909 -0.1139976626853795 0
-0.004622005052357714 0.7059855610378076 0
0.8412689618288219 -0.4150113552061356 0
0.7200550035233314 -0.3648053961403412 0
-0.8978662476927104 0.2271588110453477 0
-0.4306264422471949 0.320476357883927 0
-0.4707092047442034 0.2364796677192675 0
-0.1101920042341248 0.522619818526382 0
-0.4154425867743424 0.1377461256776963 0
-0.5218006812996407 0.1460659070493914 0
0.3762554576852826 0.200237665584923 0
-0.3578785686837233 0.2344107613562909 0
0.5149426368022372 -0.4476718258021321 0
-0.6625879375032599 0.2444916793060079 0
-0.753999479946215 0.3041341414648202 0
-0.07382337045453655 -0.5717893336978158 0
-0.5767522721921216 0.247125571518527 0
-0.3992735738074731 -0.6460455585340894 0
0.6775626852941385 0.5053956794973431 0
0.5136475640471388 -0.2826734152870733 0
-0.7003276820713049 -0.115618041953414 0
-0.6670059234470989 -0.5127883162540492 0
0.5594982445090176 0.7404147218038296 0
0.6399033538621122 0.6911676608676662 0
0.7495487484050816 0.5544219769955778 0
-0.6097840673676029 -0.677594859748696 0
-0.6974913970729203 0.6126979086451937 0
0.1064686906491682 -0.7454307669749678 0
0.4662833514634992 -0.7742514513881842 0
-0.4960690074691771 0.7943745422262281 0
0.3491458206094108 -0.3063344214034326 0
0.3510059144246616 -0.193227237224427 0
0.4240003245274387 -0.2694086393544463 0
-0.673023449618228 -0.4325572930920339 0
0.646858632134606 0.2144276351757474 0
-0.8278980624258498 0.01041346689628245 0
0.2602010565583059 -0.2574539814455603 0
0.4246975079372474 0.2612034695494176 0
-0.3674762094789088 -0.2626758718712677 0
0.4673051176975558 -0.2003269056246602 0
0.5127537781821909 -0.1308466172132098 0
0.4437150585680915 -0.4860818703910802 0
0.44910455400812 -0.3679614350485552 0
0.4711597643809992 -0.6890020935105632 0
0.1823433589096873 0.558926319963495 0
0.4715093075741663 0.3280297774452376 0
-0.2664068186063316 0.2128569361143945 0
-0.6108664173883225 0.6483769873585408 0
-0.8703843568406053 -0.2158709837625005 0
-0.4474007811436546 0.4040654859726693 0
-0.3432269747448207 0.3553156901846451 0
-0.6485730166786337 0.5508530511699183 0
-0.8305681666999377 0.3878347280118777 0
0.9198447158164628 -0.1144615849819647 0
0.5454460548413511 -0.548203753098507 0
-0.8637539269266468 0.3022744594391265 0
-0.7588339190583657 0.3947128744944104 0
$EndNodes
$Elements
10 813 1 813
0 1 15 1
1 1 
0 2 15 1
2 2 
0 3 15 1
3 3 
0 4 15 1
4 4 
0 5 15 1
5 5 
1 1 1 16
6 2 6 
7 6 7 
8 7 8 
9 8 9 
10 9 10 
11 10 11 
12 11 12 
13 12 13 
14 13 14 
15 14 15 
16 15 16 
17 16 17 
18 17 18 
19 18 19 
20 19 20 
21 20 3 
1 2 1 16
22 3 21 
23 21 22 
24 22 23 
25 23 24 
26 24 25 
27 25 26 
28 26 27 
29 27 28 
30 28 29 
31 29 30 
32 30 31 
33 31 32 
34 32 33 
35 33 34 
36 34 35 
37 35 4 
1 3 1 16
38 4 36 
39 36 37 
40 37 38 
41 38 39 
42 39 40 
43 40 41 
44 41 42 
45 42 43 
46 43 44 
47 44 45 
48 45 46 
49 46 47 
50 47 48 
51 48 49 
52 49 50 
53 50 5 
1 4 1 16
54 5 51 
55 51 52 
56 52 53 
57 53 54 
58 54 55 
59 55 56 
60 56 57 
61 57 58 
62 58 59 
63 59 60 
64 60 61 
65 61 62 
66 62 63 
67 63 64 
68 64 65 
69 65 2 
2 1 2 744
70 66 68 67 
71 69 71 70 
72 62 73 72 
73 74 76 75 
74 77 79 78 
75 80 82 81 
76 83 85 84 
77 83 84 36 
78 86 88 87 
79 87 88 89 
80 73 63 90 
81 90 63 64 
82 75 16 17 
83 91 93 92 
84 94 96 95 
85 97 99 98 
86 100 102 101 
87 103 105 104 
88 106 108 107 
89 109 111 110 
90 70 71 112 
91 113 54 55 
92 110 111 46 
93 101 102 114 
94 115 117 116 
95 116 117 118 
96 119 120 116 
97 121 51 122 
98 74 124 123 
99 74 126 125 
100 100 128 127 
101 129 131 130 
102 132 134 133 
103 135 137 136 
104 91 92 138 
105 139 141 140 
106 86 8 142 
107 142 8 9 
108 48 79 143 
109 48 143 47 
110 144 145 23 
111 144 23 24 
112 130 131 146 
113 139 140 147 
114 148 150 149 
115 61 151 60 
116 152 154 153 
117 142 155 88 
118 152 153 156 
119 149 150 98 
120 157 159 158 
121 157 158 160 
122 161 163 162 
123 161 162 164 
124 150 165 97 
125 150 97 98 
126 166 168 167 
127 169 129 170 
128 171 173 172 
129 172 173 174 
130 163 176 175 
131 163 175 177 
132 178 91 179 
133 69 181 180 
134 182 184 183 
135 179 91 185 
136 186 156 187 
137 188 189 117 
138 190 12 13 
139 191 193 192 
140 191 192 194 
141 136 137 183 
142 195 196 42 
143 136 183 184 
144 67 68 197 
145 198 199 143 
146 200 202 201 
147 203 204 158 
148 158 204 160 
149 198 143 205 
150 143 77 205 
151 200 201 189 
152 206 82 207 
153 208 210 209 
154 211 203 212 
155 213 215 214 
156 216 218 217 
157 203 211 204 
158 219 72 73 
159 63 73 62 
160 52 220 122 
161 202 221 201 
162 222 223 101 
163 101 223 128 
164 213 214 224 
165 225 227 226 
166 68 228 197 
167 145 197 228 
168 217 218 229 
169 226 227 230 
170 141 139 224 
171 231 233 232 
172 224 139 234 
173 235 237 236 
174 77 238 81 
175 94 95 59 
176 224 214 141 
177 81 238 80 
178 77 78 238 
179 89 88 170 
180 231 89 233 
181 89 170 233 
182 121 80 238 
183 237 152 239 
184 73 90 219 
185 239 152 156 
186 240 242 241 
187 7 87 6 
188 220 244 243 
189 214 245 141 
190 246 247 171 
191 183 137 128 
192 71 69 159 
193 103 249 248 
194 22 228 21 
195 145 228 22 
196 22 23 145 
197 21 228 68 
198 52 53 220 
199 51 52 122 
200 250 185 251 
201 208 253 252 
202 249 254 248 
203 248 254 112 
204 255 252 253 
205 256 240 241 
206 257 104 258 
207 242 240 259 
208 180 260 69 
209 238 78 50 
210 257 103 104 
211 142 88 86 
212 261 263 262 
213 259 240 264 
214 87 7 86 
215 7 8 86 
216 48 49 79 
217 49 78 79 
218 209 265 253 
219 208 209 253 
220 207 135 136 
221 36 37 83 
222 266 268 267 
223 36 84 4 
224 143 79 77 
225 49 50 78 
226 137 135 234 
227 260 159 69 
228 154 270 269 
229 271 269 270 
230 207 272 135 
231 175 274 273 
232 5 238 50 
233 177 175 273 
234 246 171 275 
235 267 268 276 
236 266 267 277 
237 278 280 279 
238 181 281 180 
239 282 242 259 
240 218 281 221 
241 242 282 283 
242 216 217 284 
243 285 173 286 
244 286 173 287 
245 176 288 175 
246 227 285 288 
247 230 227 288 
248 230 288 176 
249 281 216 180 
250 175 288 274 
251 256 289 240 
252 118 291 290 
253 292 241 242 
254 292 242 283 
255 256 241 293 
256 256 293 294 
257 295 297 296 
258 296 297 247 
259 298 295 222 
260 298 222 299 
261 133 148 300 
262 300 148 301 
263 302 304 303 
264 303 304 305 
265 305 306 303 
266 188 210 208 
267 236 307 138 
268 208 189 188 
269 132 210 188 
270 177 273 308 
271 309 311 310 
272 154 309 310 
273 247 312 287 
274 118 290 107 
275 311 313 310 
276 314 252 298 
277 172 174 315 
278 172 315 316 
279 172 316 317 
280 172 317 275 
281 273 301 308 
282 255 298 252 
283 75 76 16 
284 16 76 15 
285 220 243 122 
286 252 200 189 
287 219 192 318 
288 318 192 319 
289 232 233 320 
290 232 320 194 
291 244 220 321 
292 244 321 113 
293 121 122 80 
294 122 243 80 
295 238 5 121 
296 121 5 51 
297 219 90 322 
298 322 90 232 
299 145 144 187 
300 314 200 252 
301 323 144 24 
302 323 24 25 
303 324 326 325 
304 114 328 327 
305 245 214 329 
306 314 298 299 
307 161 331 330 
308 143 199 47 
309 47 199 46 
310 332 218 333 
311 38 39 331 
312 112 71 248 
313 258 104 334 
314 234 135 224 
315 333 218 221 
316 335 337 336 
317 293 332 338 
318 205 81 339 
319 293 338 294 
320 335 340 337 
321 207 136 206 
322 271 197 341 
323 273 343 342 
324 142 336 337 
325 271 341 269 
326 257 249 103 
327 266 204 268 
328 254 344 112 
329 154 152 309 
330 345 330 346 
331 182 223 222 
332 347 348 239 
333 223 182 183 
334 348 347 349 
335 337 155 142 
336 296 182 295 
337 182 222 295 
338 100 101 128 
339 113 329 215 
340 350 300 342 
341 113 215 244 
342 351 257 67 
343 316 205 339 
344 198 205 316 
345 70 106 290 
346 199 110 46 
347 45 46 111 
348 107 116 118 
349 117 201 118 
350 296 246 182 
351 239 156 347 
352 352 61 62 
353 352 72 151 
354 323 186 144 
355 144 186 187 
356 72 352 62 
357 61 352 151 
358 318 319 353 
359 318 72 219 
360 271 351 67 
361 72 318 353 
362 347 186 323 
363 70 290 181 
364 347 156 186 
365 253 265 312 
366 290 291 181 
367 209 350 265 
368 271 67 197 
369 34 305 354 
370 324 325 334 
371 215 272 244 
372 205 77 81 
373 34 354 33 
374 75 17 326 
375 93 356 355 
376 335 336 10 
377 335 10 11 
378 326 17 18 
379 344 357 108 
380 18 325 326 
381 299 101 114 
382 102 328 114 
383 329 214 215 
384 334 325 19 
385 82 339 81 
386 356 359 358 
387 292 360 217 
388 361 355 356 
389 261 362 263 
390 356 358 361 
391 353 262 151 
392 151 262 96 
393 292 217 229 
394 262 263 96 
395 118 201 291 
396 155 337 278 
397 290 106 107 
398 337 340 278 
399 87 89 6 
400 6 89 231 
401 322 194 192 
402 219 322 192 
403 201 221 291 
404 194 322 232 
405 178 364 363 
406 2 6 231 
407 339 82 206 
408 339 206 365 
409 178 363 366 
410 315 174 367 
411 235 311 309 
412 315 198 316 
413 198 315 367 
414 146 320 130 
415 320 233 130 
416 320 146 194 
417 341 197 145 
418 340 335 368 
419 341 187 269 
420 187 341 145 
421 261 319 369 
422 42 196 41 
423 281 291 221 
424 166 56 57 
425 190 277 267 
426 149 98 308 
427 325 18 19 
428 149 301 148 
429 301 149 308 
430 74 123 126 
431 85 164 370 
432 345 196 371 
433 291 281 181 
434 196 345 41 
435 372 277 373 
436 67 258 66 
437 99 85 370 
438 40 345 346 
439 372 373 14 
440 190 368 374 
441 190 374 12 
442 345 40 41 
443 109 110 367 
444 195 375 226 
445 198 110 199 
446 110 198 367 
447 170 130 233 
448 130 170 129 
449 109 226 375 
450 275 317 365 
451 271 270 351 
452 339 317 316 
453 20 334 19 
454 317 339 365 
455 226 109 225 
456 251 376 29 
457 272 207 377 
458 254 249 270 
459 123 160 126 
460 195 371 196 
461 272 377 243 
462 243 244 272 
463 106 70 112 
464 329 113 378 
465 304 302 364 
466 324 124 326 
467 347 323 379 
468 379 323 25 
469 378 56 166 
470 380 382 381 
471 371 230 383 
472 383 230 176 
473 384 129 169 
474 385 306 84 
475 280 276 268 
476 280 268 211 
477 169 155 384 
478 3 66 20 
479 386 380 381 
480 3 68 66 
481 342 301 273 
482 3 21 68 
483 301 342 300 
484 383 330 345 
485 357 154 310 
486 371 383 345 
487 330 383 176 
488 384 155 278 
489 269 153 154 
490 282 129 384 
491 310 108 357 
492 156 153 187 
493 153 269 187 
494 177 162 163 
495 164 162 370 
496 162 177 370 
497 100 147 386 
498 282 279 283 
499 102 100 386 
500 279 387 283 
501 116 107 119 
502 312 265 388 
503 389 381 382 
504 109 367 225 
505 287 173 171 
506 174 173 285 
507 321 54 113 
508 321 220 53 
509 54 321 53 
510 367 174 225 
511 163 330 176 
512 44 375 43 
513 353 151 72 
514 289 381 389 
515 276 340 368 
516 340 276 280 
517 294 381 289 
518 218 216 281 
519 191 390 193 
520 391 362 392 
521 336 142 9 
522 362 261 392 
523 10 336 9 
524 285 227 225 
525 392 140 391 
526 158 260 203 
527 260 158 159 
528 390 389 193 
529 140 141 391 
530 391 141 245 
531 331 39 346 
532 330 331 346 
533 278 340 280 
534 191 194 146 
535 303 306 385 
536 385 99 303 
537 303 99 97 
538 208 252 189 
539 378 393 329 
540 394 105 103 
541 248 394 103 
542 105 394 157 
543 369 389 382 
544 280 395 279 
545 302 97 165 
546 286 287 312 
547 178 366 93 
548 155 169 88 
549 395 387 279 
550 93 366 356 
551 169 170 88 
552 251 29 30 
553 302 303 97 
554 131 282 259 
555 116 120 396 
556 282 131 129 
557 146 131 259 
558 115 116 396 
559 393 245 329 
560 40 346 39 
561 389 369 193 
562 69 70 181 
563 258 67 257 
564 366 359 356 
565 326 124 75 
566 212 260 284 
567 260 212 203 
568 387 212 284 
569 309 237 235 
570 146 264 191 
571 237 309 152 
572 264 390 191 
573 264 146 259 
574 359 366 165 
575 378 55 56 
576 28 397 27 
577 348 397 307 
578 55 378 113 
579 125 266 277 
580 161 330 163 
581 161 164 398 
582 85 398 164 
583 398 85 83 
584 389 390 289 
585 287 171 247 
586 348 236 237 
587 44 111 375 
588 43 195 42 
589 236 348 307 
590 111 109 375 
591 195 43 375 
592 111 44 45 
593 225 174 285 
594 126 266 125 
595 399 93 355 
596 372 125 277 
597 266 126 160 
598 372 14 15 
599 133 134 358 
600 189 201 117 
601 400 399 355 
602 399 400 235 
603 134 361 358 
604 392 382 380 
605 376 401 397 
606 251 401 376 
607 160 204 266 
608 401 307 397 
609 134 115 396 
610 188 117 115 
611 380 386 147 
612 239 348 237 
613 132 115 134 
614 132 188 115 
615 140 392 380 
616 157 160 105 
617 319 193 369 
618 275 365 184 
619 140 380 147 
620 99 370 98 
621 349 27 397 
622 348 349 397 
623 27 349 26 
624 382 392 369 
625 148 359 150 
626 246 275 184 
627 359 148 358 
628 392 261 369 
629 177 308 370 
630 319 192 193 
631 308 98 370 
632 150 359 165 
633 387 360 283 
634 360 387 284 
635 4 306 35 
636 80 377 82 
637 377 207 82 
638 377 80 243 
639 250 30 31 
640 306 4 84 
641 31 32 402 
642 157 394 159 
643 402 250 31 
644 35 306 305 
645 15 76 372 
646 34 35 305 
647 125 76 74 
648 30 250 251 
649 95 168 58 
650 168 95 96 
651 59 95 58 
652 76 125 372 
653 361 396 120 
654 172 275 171 
655 343 274 388 
656 400 120 313 
657 274 343 273 
658 90 64 403 
659 258 334 66 
660 64 65 403 
661 274 288 286 
662 120 400 361 
663 362 404 263 
664 288 285 286 
665 137 127 128 
666 254 357 344 
667 231 65 2 
668 313 311 400 
669 311 235 400 
670 127 137 234 
671 167 404 245 
672 391 404 362 
673 333 221 202 
674 404 391 245 
675 327 333 202 
676 184 182 246 
677 327 202 314 
678 202 200 314 
679 210 300 350 
680 133 210 132 
681 210 133 300 
682 210 350 209 
683 393 167 245 
684 13 373 190 
685 373 277 190 
686 373 13 14 
687 167 393 166 
688 147 100 127 
689 265 350 343 
690 350 342 343 
691 265 343 388 
692 393 378 166 
693 60 94 59 
694 26 379 25 
695 347 379 349 
696 379 26 349 
697 102 386 328 
698 195 226 371 
699 396 361 134 
700 226 230 371 
701 402 32 405 
702 96 94 151 
703 94 60 151 
704 399 235 236 
705 179 185 406 
706 32 33 405 
707 256 294 289 
708 101 299 222 
709 404 167 168 
710 96 404 168 
711 404 96 263 
712 293 229 332 
713 57 168 166 
714 168 57 58 
715 229 293 241 
716 127 139 147 
717 138 401 185 
718 351 270 249 
719 394 71 159 
720 257 351 249 
721 401 138 307 
722 211 395 280 
723 395 211 212 
724 229 218 332 
725 387 395 212 
726 128 223 183 
727 71 394 248 
728 398 83 37 
729 38 398 37 
730 161 398 331 
731 398 38 331 
732 286 388 274 
733 388 286 312 
734 365 136 184 
735 376 28 29 
736 261 262 319 
737 355 361 400 
738 136 365 206 
739 108 310 313 
740 403 65 231 
741 28 376 397 
742 211 268 204 
743 133 358 148 
744 262 353 319 
745 255 253 297 
746 253 312 297 
747 333 327 332 
748 260 180 284 
749 284 217 360 
750 216 284 180 
751 403 232 90 
752 406 185 250 
753 236 92 399 
754 390 240 289 
755 406 402 364 
756 240 390 264 
757 119 107 108 
758 296 247 246 
759 313 119 108 
760 313 120 119 
761 255 297 295 
762 247 297 312 
763 374 11 12 
764 374 368 335 
765 299 114 314 
766 11 374 335 
767 298 255 295 
768 114 327 314 
769 185 401 251 
770 338 327 328 
771 294 338 328 
772 99 385 85 
773 385 84 85 
774 327 338 332 
775 384 278 279 
776 292 229 241 
777 292 283 360 
778 282 384 279 
779 402 406 250 
780 234 139 127 
781 368 267 276 
782 267 368 190 
783 363 302 165 
784 366 363 165 
785 302 363 364 
786 92 93 399 
787 405 364 402 
788 364 405 304 
789 92 236 138 
790 185 91 138 
791 93 91 178 
792 33 354 405 
793 304 354 305 
794 354 304 405 
795 364 179 406 
796 386 381 328 
797 381 294 328 
798 179 364 178 
799 232 403 231 
800 344 106 112 
801 254 270 357 
802 334 20 66 
803 106 344 108 
804 154 357 270 
805 272 213 135 
806 213 224 135 
807 213 272 215 
808 124 324 104 
809 74 75 124 
810 105 124 104 
811 324 334 104 
812 160 123 105 
813 123 124 105 
$EndElements
