time = 0.361x y u
1.0 0.0 7.945197540110025e-17
0.0 1.0 -3.0662382014509084e-16
-1.0 0.0 -1.3166026532591962e-15
0.0 -1.0 0.0
0.9807852803040616 0.1950903225146834 -1.5843181887888583e-15
0.9238795320827141 0.3826834333997557 -3.2602924400822497e-16
0.8314696113699828 0.5555702344152805 -1.304341061562544e-15
0.7071067795767629 0.7071067827963321 -1.1344972801212719e-15
0.5555702316295839 0.8314696132313258 0.0
0.3826834312295727 0.9238795329816333 4.440892098500626e-16
0.1950903214133833 0.9807852805231239 -2.6556925619727296e-16
-0.1950903225146834 0.9807852803040616 -1.598153754136161e-15
-0.3826834333997557 0.9238795320827141 1.3879823603290287e-15
-0.5555702344152805 0.8314696113699828 3.1684274945913627e-15
-0.7071067827963321 0.7071067795767629 0.0
-0.8314696132313258 0.5555702316295839 -1.2034042817300252e-15
-0.9238795329816333 0.3826834312295727 1.340779803892653e-15
-0.9807852805231239 0.1950903214133833 0.0
-0.9807852803040616 -0.1950903225146834 0.0
-0.9238795320827141 -0.3826834333997557 1.1030360764291755e-15
-0.8314696113699828 -0.5555702344152805 6.679880298458478e-16
-0.7071067795767629 -0.7071067827963321 -2.8261084701600208e-15
-0.5555702316295839 -0.8314696132313258 3.4265998048401734e-15
-0.3826834312295727 -0.9238795329816333 -1.7135834458204784e-15
-0.1950903214133833 -0.9807852805231239 1.4576396703781419e-15
0.1950903225146834 -0.9807852803040616 -4.678082291538717e-17
0.3826834333997557 -0.9238795320827141 1.9417965346925134e-15
0.5555702344152805 -0.8314696113699828 1.801223872448112e-15
0.7071067827963321 -0.7071067795767629 -7.695821421109015e-16
0.8314696132313258 -0.5555702316295839 -1.1909769698752322e-15
0.9238795329816333 -0.3826834312295727 0.0
0.9807852805231239 -0.1950903214133833 -2.3020428683446457e-15
-0.2448975517720937 -0.1609391314081913 0.8253485174030125
-0.1669685144443749 -0.3730188643864585 0.7480907135019799
-0.3330554796826388 -0.3917481702394711 0.6674374287319598
0.2983979793196522 0.7948394891987995 0.25552638033088715
0.1221127875565111 0.7890218324098833 0.33671374978484936
-0.6098659926711403 0.4632672412794631 0.37954258088000997
-0.4294715363547017 0.5604062491227344 0.456355907826846
-0.4228912894215857 0.3971843208471618 0.6034779429451956
-0.5847377089883136 0.6372381907823613 0.23427341240551994
-0.3875845816758811 0.219427035202126 0.7230279055008891
-0.2325472319004294 0.1724379206047348 0.8195012145464916
-0.3360628821318573 0.04416852080262781 0.7949215633837086
0.4685078311110812 0.7120191755435846 0.25648346298880237
0.1237751497590318 -0.1696999122835619 0.8532778227229219
0.2792038855033663 -0.1873075389442726 0.7973844428361758
0.1497744813211369 -0.3370862752356534 0.7774495714988338
0.1650846200636401 0.03773675820003497 0.873229557766489
-0.03317779418207084 -0.05084625611408161 0.8917131909265962
-0.03528309905096724 0.2053100240625823 0.8639079693031533
0.2308860401187792 0.2413603268520554 0.8009845970573475
0.08665625663366097 0.379612842192901 0.7617445239438099
-0.03041542131243088 -0.2593058457521213 0.8354044541892769
0.2636828616670123 0.4288845005810539 0.6758025617439491
0.09564412391563495 0.5561094318364775 0.6191028412818068
0.4044698293389479 0.1133121909328336 0.7436146724806445
-0.2600434595052183 0.5703605203842994 0.5568678874969005
-0.3885285518197982 0.7193640231205214 0.3057213733789856
0.3731626744279454 -0.05512349108091399 0.7694098022304613
0.4841615721850534 -0.2173198722636174 0.6505298579956142
-0.06774100148412729 0.4561271495920942 0.7127402095520149
-0.2347469318015095 0.3363694733049982 0.7507154483298735
0.7852324651219746 -0.3311369221458964 0.2564359188597207
0.1913298633361252 -0.7868794112067631 0.3177414902060755
0.3684772358904171 -0.7160019731391455 0.322263922634593
-0.07381532636556278 0.8497388896337486 0.2483487278440667
-0.6100895293798962 0.2360751400731416 0.5258564995690488
-0.4946339602806561 0.09121365914092866 0.6737086539369034
0.6848589453363401 -0.5190129964527428 0.23888041407379632
0.5859471123610142 -0.3849375393521437 0.4646586716905926
-0.2248711823989163 0.7914544241639085 0.2980298377375608
-0.4797409639732623 -0.1103719748237824 0.6875171645700499
0.0166147890631233 -0.8596005532429013 0.24188928821359323
0.7285299963083787 0.3900600001116977 0.29189127842472284
0.8309608449520585 0.2680154886360896 0.21567186044349299
0.685984973179506 0.2514503419372622 0.4228450959785751
0.8071137774762497 -0.1100793256456178 0.31031368828585876
0.7867056272774576 0.104992057608334 0.3425184802870342
-0.7365489406474112 -0.3506920576521138 0.30770690917532534
-0.6539376590598652 -0.1902059411625762 0.48704303319616393
-0.5310265818320062 -0.3291739776234384 0.5565932708676047
-0.8084695628033133 -0.1920067499257162 0.28560381578399424
-0.7741165402884443 0.3510456527009914 0.2535710379978176
-0.8380285875545905 0.1706567679793226 0.25270093395798504
-0.1187871439805087 -0.7715512812981606 0.35560334040701386
-0.2856761490502214 -0.7517815876825193 0.3243538999928415
-0.6722180288132765 0.002702935082353863 0.5042076032710174
0.006357520385094406 -0.660457860536121 0.5145053447643129
-0.1787353015504959 -0.5714255963025788 0.5853327157948107
-0.005579526240555938 -0.4674104187199695 0.7061650664381522
0.6628388165308601 -0.2163910515478189 0.46708872409172514
-0.4859046327324333 -0.685323447406821 0.2751856484574898
-0.6377595093918386 -0.5283620809455997 0.2894193236675379
0.2032323726564697 -0.5663111103812646 0.5828505400335321
-0.4676443502882815 -0.4937862416539913 0.4876882567384852
-0.3440685820412263 -0.5723034719779906 0.5025396576261624
0.3763995335590078 -0.380799163282196 0.6493248803754162
0.2802643842974309 0.636891552867339 0.47178718508000933
-0.05633984133958217 0.679247523675935 0.48964749973704
0.5868072546583091 -0.03073503190408863 0.5977578961425613
0.5211368606737826 -0.5900359825177885 0.3520506541385935
0.4181283744227225 0.5292878809185304 0.4954185751952187
0.6056085755786138 0.5437768824323146 0.311666520571951
-0.1767071862858649 0.04212360194934414 0.8631977065980659
0.3606211412172129 -0.5755850411379895 0.4851537529379025
0.5878726240899754 0.1527549184920593 0.5709724080860022
0.474188519004391 0.3275246044465835 0.6129842249511351
-0.8612521392348497 -0.03379405671430016 0.23505109278303016
-0.3899622415110608 -0.2324045649914685 0.71130650783762
